dom,cod,weight_1,weight_2,weight_3,weight_4,weight_5,weight_6,weight_7,weight_8,weight_9,weight_10,weight_11,weight_12,weight_13,weight_14,weight_15,weight_16,weight_17,weight_18,weight_19,weight_20,weight_21,weight_22,weight_23,weight_24,weight_25,weight_26,weight_27,weight_28,weight_29,weight_30,weight_31,weight_32,weight_mean
嬉しい,喜び,0.725,0.95,0.95,0.95,0.95,0.725,0.95,0.725,0.725,0.95,0.95,0.725,0.95,0.725,0.725,0.95,0.95,0.95,0.95,0.95,0.725,0.95,0.95,0.95,0.95,0.95,0.95,0.725,0.95,0.95,0.725,0.725,0.87265625
赤ちゃん,笑顔,0.95,0.95,0.725,0.95,0.95,0.95,0.725,0.725,0.725,0.275,0.725,0.725,0.95,0.95,0.95,0.725,0.95,0.5,0.95,0.725,0.95,0.725,0.95,0.725,0.725,0.725,0.95,0.95,0.95,0.5,0.95,0.725,0.809375
赤ちゃん,綺麗,0.725,0.725,0.5,0.275,0.275,0.05,0.275,0.05,0.275,0.275,0.725,0.275,0.725,0.05,0.275,0.275,0.275,0.275,0.5,0.725,0.95,0.275,0.725,0.05,0.275,0.275,0.275,0.05,0.275,0.275,0.05,0.05,0.3453125
美しい,バラ,0.95,0.725,0.725,0.95,0.95,0.725,0.95,0.5,0.5,0.95,0.95,0.725,0.95,0.725,0.95,0.725,0.95,0.5,0.95,0.95,0.725,0.95,0.95,0.95,0.95,0.725,0.95,0.95,0.95,0.725,0.725,0.725,0.8304687500000001
歯,香り,0.05,0.275,0.275,0.05,0.05,0.5,0.05,0.05,0.05,0.05,0.05,0.05,0.05,0.05,0.05,0.05,0.275,0.05,0.725,0.275,0.05,0.275,0.05,0.05,0.275,0.275,0.05,0.05,0.275,0.05,0.05,0.05,0.14140625
赤ちゃん,美しい,0.725,0.95,0.5,0.05,0.725,0.725,0.275,0.275,0.05,0.275,0.725,0.275,0.275,0.275,0.275,0.275,0.725,0.275,0.725,0.275,0.95,0.725,0.725,0.05,0.275,0.275,0.275,0.05,0.275,0.275,0.275,0.05,0.4015625
明るい,歯,0.725,0.725,0.275,0.725,0.725,0.05,0.5,0.05,0.275,0.05,0.275,0.275,0.05,0.05,0.275,0.05,0.725,0.275,0.05,0.275,0.5,0.275,0.5,0.05,0.5,0.5,0.05,0.05,0.725,0.05,0.275,0.05,0.31015625
歯,喜び,0.95,0.95,0.275,0.275,0.275,0.275,0.05,0.05,0.275,0.05,0.275,0.05,0.275,0.275,0.05,0.275,0.725,0.275,0.275,0.725,0.05,0.725,0.275,0.05,0.725,0.725,0.05,0.05,0.5,0.275,0.05,0.275,0.32421875
バラ,子供,0.95,0.5,0.275,0.05,0.05,0.275,0.275,0.05,0.05,0.05,0.275,0.05,0.05,0.05,0.05,0.05,0.275,0.05,0.05,0.05,0.05,0.275,0.05,0.05,0.05,0.05,0.05,0.05,0.275,0.05,0.05,0.05,0.14140625
笑顔,花,0.725,0.95,0.725,0.725,0.725,0.95,0.725,0.5,0.275,0.275,0.725,0.5,0.725,0.275,0.5,0.275,0.725,0.5,0.725,0.5,0.5,0.725,0.725,0.275,0.5,0.725,0.275,0.275,0.725,0.275,0.05,0.725,0.55625
バラ,笑顔,0.725,0.95,0.5,0.725,0.725,0.5,0.725,0.275,0.275,0.5,0.725,0.275,0.725,0.275,0.275,0.5,0.725,0.5,0.725,0.5,0.725,0.725,0.725,0.275,0.275,0.275,0.275,0.275,0.725,0.5,0.05,0.5,0.5140625000000001
綺麗,楽しい,0.95,0.725,0.5,0.725,0.725,0.275,0.5,0.275,0.275,0.5,0.725,0.275,0.725,0.275,0.275,0.275,0.275,0.725,0.5,0.275,0.725,0.725,0.725,0.275,0.5,0.5,0.275,0.725,0.725,0.275,0.05,0.05,0.47890625
幸せ,桜,0.725,0.95,0.725,0.725,0.725,0.275,0.275,0.275,0.5,0.5,0.725,0.725,0.95,0.5,0.5,0.275,0.725,0.5,0.275,0.275,0.725,0.725,0.5,0.5,0.95,0.05,0.275,0.725,0.725,0.275,0.275,0.05,0.5281250000000001
花,子供,0.95,0.725,0.5,0.05,0.275,0.725,0.275,0.05,0.275,0.275,0.5,0.05,0.275,0.275,0.275,0.05,0.275,0.275,0.275,0.5,0.5,0.275,0.05,0.05,0.275,0.275,0.275,0.275,0.275,0.05,0.05,0.275,0.29609375000000004
楽しい,香り,0.725,0.95,0.5,0.275,0.725,0.5,0.275,0.275,0.5,0.275,0.725,0.05,0.725,0.05,0.275,0.05,0.275,0.5,0.5,0.5,0.725,0.275,0.725,0.05,0.275,0.275,0.275,0.275,0.725,0.05,0.05,0.05,0.3875
美しい,喜び,0.95,0.725,0.725,0.275,0.725,0.725,0.725,0.275,0.275,0.5,0.725,0.5,0.725,0.275,0.5,0.05,0.725,0.725,0.5,0.275,0.725,0.725,0.95,0.275,0.725,0.725,0.275,0.275,0.725,0.275,0.275,0.05,0.528125
バラ,美しい,0.95,0.95,0.725,0.95,0.95,0.275,0.95,0.95,0.95,0.95,0.95,0.95,0.95,0.95,0.95,0.95,0.95,0.725,0.95,0.725,0.5,0.95,0.95,0.95,0.95,0.725,0.95,0.725,0.725,0.725,0.725,0.95,0.85859375
花,バラ,0.95,0.725,0.725,0.725,0.95,0.725,0.95,0.725,0.95,0.725,0.95,0.95,0.95,0.95,0.95,0.95,0.95,0.725,0.95,0.725,0.5,0.725,0.725,0.725,0.725,0.5,0.725,0.725,0.95,0.725,0.725,0.725,0.8023437499999999
赤ちゃん,春,0.725,0.5,0.5,0.05,0.725,0.725,0.275,0.05,0.05,0.05,0.05,0.05,0.275,0.05,0.275,0.05,0.725,0.05,0.5,0.5,0.275,0.275,0.275,0.05,0.275,0.05,0.05,0.05,0.275,0.05,0.275,0.05,0.25390625
笑顔,喜び,0.95,0.95,0.725,0.95,0.95,0.725,0.95,0.725,0.725,0.95,0.95,0.95,0.95,0.725,0.95,0.95,0.95,0.95,0.725,0.95,0.95,0.95,0.95,0.95,0.95,0.725,0.95,0.95,0.95,0.95,0.725,0.95,0.89375
香り,花言葉,0.95,0.725,0.725,0.275,0.725,0.725,0.725,0.275,0.5,0.275,0.725,0.05,0.725,0.05,0.05,0.05,0.725,0.275,0.725,0.5,0.05,0.275,0.5,0.05,0.5,0.5,0.5,0.05,0.275,0.275,0.275,0.05,0.40859375
歯,バラ,0.05,0.05,0.275,0.05,0.05,0.5,0.05,0.05,0.05,0.05,0.05,0.05,0.05,0.05,0.05,0.05,0.05,0.05,0.05,0.05,0.05,0.05,0.05,0.05,0.05,0.05,0.05,0.05,0.05,0.05,0.05,0.05,0.07109375
香り,幸せ,0.725,0.95,0.5,0.725,0.725,0.725,0.725,0.275,0.725,0.5,0.5,0.5,0.725,0.275,0.5,0.05,0.725,0.5,0.725,0.275,0.725,0.725,0.725,0.725,0.725,0.725,0.725,0.275,0.725,0.5,0.05,0.5,0.57734375
美しい,明るい,0.725,0.95,0.5,0.725,0.725,0.95,0.275,0.5,0.725,0.5,0.725,0.275,0.725,0.275,0.725,0.05,0.725,0.725,0.725,0.275,0.725,0.725,0.95,0.275,0.725,0.5,0.5,0.5,0.725,0.5,0.05,0.275,0.5703125
楽しい,赤ちゃん,0.95,0.95,0.5,0.725,0.725,0.05,0.725,0.05,0.05,0.275,0.725,0.5,0.275,0.5,0.5,0.275,0.725,0.5,0.725,0.725,0.95,0.725,0.725,0.05,0.275,0.5,0.5,0.725,0.725,0.05,0.725,0.05,0.5140625
幸せ,歯,0.725,0.95,0.275,0.05,0.275,0.95,0.5,0.05,0.275,0.05,0.275,0.275,0.05,0.275,0.275,0.275,0.05,0.05,0.05,0.725,0.725,0.725,0.275,0.05,0.275,0.275,0.05,0.05,0.05,0.05,0.05,0.05,0.28203125
笑顔,歯,0.95,0.95,0.725,0.725,0.725,0.05,0.725,0.275,0.275,0.05,0.725,0.725,0.275,0.725,0.725,0.95,0.95,0.275,0.05,0.725,0.725,0.725,0.5,0.725,0.95,0.725,0.725,0.05,0.725,0.05,0.275,0.725,0.57734375
桜,香り,0.95,0.95,0.5,0.95,0.725,0.05,0.95,0.05,0.5,0.5,0.725,0.275,0.725,0.05,0.5,0.275,0.95,0.275,0.725,0.725,0.5,0.275,0.725,0.725,0.275,0.275,0.725,0.275,0.95,0.725,0.275,0.725,0.5562499999999999
香り,歯,0.275,0.05,0.05,0.05,0.05,0.05,0.05,0.05,0.275,0.05,0.05,0.05,0.275,0.05,0.05,0.05,0.275,0.05,0.05,0.275,0.05,0.275,0.05,0.05,0.05,0.275,0.05,0.05,0.05,0.05,0.05,0.05,0.09921875000000001
春,歯,0.05,0.275,0.275,0.05,0.05,0.05,0.05,0.05,0.05,0.05,0.05,0.05,0.05,0.05,0.05,0.05,0.275,0.05,0.05,0.05,0.05,0.05,0.05,0.05,0.05,0.05,0.05,0.05,0.05,0.05,0.05,0.05,0.07109375000000001
花言葉,子供,0.95,0.5,0.275,0.05,0.05,0.275,0.275,0.05,0.05,0.275,0.275,0.05,0.275,0.275,0.05,0.05,0.275,0.05,0.05,0.05,0.275,0.275,0.05,0.05,0.275,0.05,0.05,0.05,0.275,0.05,0.05,0.05,0.1765625
明るい,子供,0.95,0.95,0.725,0.95,0.725,0.95,0.725,0.5,0.275,0.725,0.725,0.725,0.725,0.5,0.725,0.95,0.95,0.5,0.95,0.725,0.95,0.95,0.95,0.5,0.95,0.5,0.725,0.5,0.725,0.275,0.725,0.725,0.7320312499999999
赤ちゃん,花言葉,0.275,0.275,0.275,0.05,0.05,0.275,0.05,0.05,0.05,0.05,0.05,0.05,0.275,0.275,0.05,0.05,0.5,0.05,0.275,0.05,0.05,0.275,0.275,0.05,0.05,0.275,0.05,0.05,0.275,0.05,0.05,0.05,0.14140625
楽しい,幸せ,0.95,0.95,0.725,0.725,0.95,0.275,0.95,0.5,0.725,0.95,0.725,0.725,0.95,0.725,0.95,0.725,0.725,0.725,0.725,0.95,0.725,0.95,0.95,0.725,0.95,0.95,0.95,0.95,0.95,0.95,0.725,0.725,0.81640625
桜,赤ちゃん,0.95,0.5,0.275,0.05,0.275,0.95,0.275,0.05,0.05,0.05,0.275,0.05,0.275,0.05,0.275,0.05,0.275,0.05,0.5,0.05,0.275,0.275,0.275,0.05,0.275,0.05,0.05,0.275,0.275,0.05,0.05,0.05,0.22578125000000002
嬉しい,香り,0.95,0.725,0.5,0.05,0.5,0.275,0.275,0.05,0.275,0.275,0.5,0.5,0.275,0.275,0.275,0.05,0.275,0.275,0.275,0.275,0.275,0.725,0.725,0.05,0.275,0.5,0.275,0.5,0.725,0.05,0.05,0.275,0.35234374999999996
明るい,贈り物,0.95,0.725,0.725,0.275,0.725,0.275,0.275,0.5,0.275,0.275,0.5,0.5,0.725,0.05,0.5,0.05,0.725,0.5,0.5,0.275,0.275,0.275,0.725,0.05,0.275,0.275,0.05,0.5,0.725,0.275,0.05,0.05,0.40156250000000004
歯,嬉しい,0.95,0.275,0.275,0.05,0.275,0.05,0.5,0.05,0.05,0.05,0.275,0.275,0.275,0.5,0.275,0.5,0.05,0.275,0.05,0.05,0.95,0.725,0.275,0.05,0.725,0.725,0.275,0.275,0.725,0.275,0.05,0.05,0.3171875
笑顔,子供,0.725,0.95,0.725,0.725,0.725,0.05,0.95,0.275,0.725,0.275,0.95,0.725,0.725,0.95,0.95,0.725,0.95,0.725,0.725,0.725,0.95,0.725,0.95,0.725,0.725,0.725,0.725,0.95,0.95,0.5,0.725,0.725,0.7390625
花,嬉しい,0.95,0.95,0.5,0.725,0.725,0.95,0.275,0.5,0.5,0.275,0.725,0.5,0.95,0.725,0.5,0.05,0.5,0.725,0.95,0.5,0.725,0.725,0.725,0.5,0.725,0.725,0.275,0.5,0.725,0.5,0.05,0.725,0.60546875
喜び,桜,0.95,0.95,0.725,0.725,0.5,0.05,0.5,0.275,0.725,0.275,0.725,0.725,0.95,0.5,0.725,0.05,0.5,0.5,0.5,0.5,0.725,0.725,0.725,0.5,0.95,0.275,0.5,0.275,0.725,0.5,0.05,0.275,0.5492187500000001
桜,嬉しい,0.95,0.95,0.725,0.275,0.5,0.5,0.275,0.5,0.725,0.725,0.725,0.5,0.725,0.5,0.725,0.05,0.725,0.725,0.725,0.725,0.5,0.95,0.725,0.725,0.725,0.5,0.725,0.275,0.725,0.5,0.275,0.5,0.60546875
子供,春,0.725,0.275,0.5,0.725,0.725,0.725,0.275,0.05,0.275,0.05,0.5,0.275,0.05,0.5,0.5,0.05,0.95,0.275,0.5,0.5,0.725,0.275,0.05,0.275,0.275,0.5,0.05,0.275,0.275,0.275,0.725,0.275,0.3875
花,笑顔,0.95,0.95,0.725,0.725,0.95,0.725,0.725,0.725,0.5,0.275,0.725,0.275,0.725,0.275,0.5,0.05,0.725,0.5,0.725,0.5,0.725,0.725,0.95,0.5,0.725,0.725,0.5,0.725,0.95,0.05,0.275,0.725,0.61953125
春,笑顔,0.725,0.725,0.725,0.725,0.725,0.95,0.725,0.725,0.5,0.5,0.725,0.5,0.95,0.275,0.725,0.275,0.95,0.5,0.725,0.5,0.725,0.725,0.725,0.725,0.725,0.275,0.275,0.725,0.725,0.5,0.275,0.5,0.6265625
楽しい,子供,0.95,0.95,0.725,0.725,0.725,0.95,0.725,0.275,0.275,0.275,0.725,0.95,0.725,0.95,0.725,0.95,0.725,0.5,0.725,0.725,0.95,0.725,0.725,0.275,0.725,0.725,0.275,0.5,0.725,0.5,0.725,0.725,0.6828125
嬉しい,幸せ,0.95,0.95,0.725,0.725,0.725,0.275,0.725,0.725,0.725,0.95,0.725,0.725,0.95,0.725,0.95,0.95,0.95,0.725,0.95,0.95,0.725,0.95,0.95,0.95,0.95,0.95,0.95,0.725,0.725,0.95,0.275,0.725,0.809375
綺麗,笑顔,0.95,0.95,0.725,0.725,0.725,0.95,0.275,0.5,0.5,0.275,0.95,0.275,0.725,0.275,0.725,0.05,0.725,0.725,0.5,0.5,0.725,0.725,0.725,0.275,0.725,0.5,0.275,0.725,0.95,0.275,0.275,0.275,0.5773437499999999
明るい,楽しい,0.95,0.95,0.725,0.95,0.725,0.275,0.725,0.725,0.725,0.725,0.725,0.725,0.95,0.5,0.725,0.275,0.95,0.725,0.95,0.95,0.725,0.95,0.95,0.725,0.95,0.5,0.95,0.275,0.725,0.725,0.725,0.725,0.74609375
綺麗,贈り物,0.95,0.5,0.5,0.275,0.725,0.725,0.275,0.275,0.5,0.05,0.5,0.5,0.725,0.05,0.275,0.05,0.5,0.5,0.725,0.5,0.5,0.275,0.275,0.275,0.725,0.275,0.05,0.05,0.5,0.05,0.275,0.275,0.39453125
幸せ,春,0.95,0.95,0.725,0.725,0.725,0.725,0.725,0.275,0.5,0.275,0.725,0.5,0.95,0.5,0.725,0.05,0.725,0.725,0.725,0.275,0.725,0.5,0.5,0.5,0.725,0.275,0.275,0.725,0.725,0.725,0.275,0.05,0.57734375
桜,笑顔,0.725,0.725,0.5,0.725,0.725,0.725,0.725,0.5,0.5,0.5,0.725,0.275,0.725,0.5,0.725,0.05,0.95,0.5,0.725,0.5,0.725,0.95,0.725,0.5,0.725,0.725,0.5,0.275,0.725,0.275,0.05,0.5,0.584375
綺麗,春,0.95,0.95,0.725,0.725,0.725,0.05,0.725,0.275,0.5,0.725,0.725,0.5,0.725,0.275,0.5,0.05,0.95,0.725,0.725,0.5,0.5,0.725,0.725,0.5,0.725,0.275,0.275,0.275,0.725,0.5,0.05,0.5,0.55625
花,贈り物,0.95,0.95,0.725,0.95,0.95,0.5,0.725,0.725,0.725,0.05,0.725,0.725,0.275,0.95,0.95,0.725,0.95,0.725,0.95,0.725,0.5,0.95,0.95,0.725,0.95,0.95,0.5,0.275,0.95,0.275,0.275,0.725,0.7179687499999999
明るい,笑顔,0.95,0.95,0.725,0.95,0.95,0.725,0.95,0.725,0.725,0.725,0.95,0.95,0.725,0.725,0.95,0.725,0.95,0.725,0.95,0.95,0.95,0.725,0.95,0.725,0.95,0.95,0.95,0.725,0.95,0.725,0.725,0.725,0.84453125
楽しい,花,0.725,0.95,0.725,0.725,0.725,0.05,0.5,0.275,0.5,0.275,0.725,0.5,0.725,0.275,0.05,0.05,0.5,0.5,0.5,0.5,0.725,0.275,0.725,0.275,0.275,0.275,0.275,0.275,0.725,0.275,0.05,0.05,0.43671875
喜び,贈り物,0.95,0.95,0.725,0.725,0.725,0.05,0.725,0.725,0.275,0.725,0.725,0.725,0.725,0.725,0.725,0.275,0.725,0.725,0.725,0.725,0.725,0.725,0.95,0.5,0.95,0.725,0.275,0.725,0.725,0.275,0.725,0.725,0.66875
春,子供,0.725,0.725,0.5,0.725,0.725,0.95,0.275,0.05,0.05,0.275,0.275,0.275,0.275,0.5,0.5,0.5,0.725,0.275,0.725,0.5,0.5,0.725,0.275,0.725,0.275,0.5,0.275,0.725,0.275,0.275,0.275,0.275,0.45781249999999996
贈り物,花,0.95,0.95,0.725,0.95,0.95,0.05,0.725,0.725,0.725,0.725,0.95,0.725,0.725,0.725,0.725,0.725,0.95,0.95,0.95,0.725,0.725,0.95,0.95,0.725,0.725,0.95,0.725,0.275,0.95,0.5,0.725,0.95,0.77421875
桜,綺麗,0.95,0.95,0.725,0.95,0.95,0.725,0.95,0.725,0.95,0.95,0.95,0.95,0.95,0.5,0.725,0.95,0.95,0.95,0.95,0.725,0.95,0.95,0.95,0.95,0.95,0.725,0.95,0.725,0.95,0.725,0.725,0.725,0.865625
楽しい,歯,0.725,0.95,0.275,0.05,0.725,0.725,0.275,0.275,0.05,0.05,0.5,0.05,0.275,0.725,0.05,0.275,0.725,0.05,0.05,0.725,0.05,0.05,0.275,0.05,0.275,0.05,0.5,0.275,0.725,0.05,0.275,0.05,0.31718750000000007
桜,バラ,0.725,0.5,0.275,0.05,0.275,0.5,0.95,0.05,0.275,0.275,0.725,0.275,0.275,0.05,0.275,0.05,0.275,0.275,0.05,0.5,0.275,0.95,0.725,0.05,0.275,0.5,0.275,0.275,0.275,0.275,0.05,0.275,0.33828125
花,美しい,0.95,0.725,0.725,0.95,0.95,0.95,0.95,0.725,0.95,0.95,0.725,0.725,0.95,0.95,0.725,0.95,0.95,0.95,0.95,0.725,0.95,0.95,0.95,0.95,0.95,0.725,0.95,0.725,0.95,0.95,0.725,0.725,0.87265625
幸せ,赤ちゃん,0.95,0.725,0.725,0.725,0.725,0.275,0.725,0.275,0.5,0.275,0.725,0.725,0.95,0.95,0.95,0.725,0.95,0.5,0.95,0.725,0.95,0.95,0.725,0.5,0.275,0.725,0.725,0.95,0.725,0.725,0.725,0.5,0.70390625
嬉しい,楽しい,0.95,0.95,0.725,0.95,0.725,0.5,0.95,0.725,0.725,0.95,0.725,0.725,0.95,0.725,0.95,0.725,0.725,0.95,0.725,0.95,0.95,0.95,0.95,0.725,0.95,0.95,0.95,0.95,0.725,0.95,0.275,0.725,0.8234375
幸せ,明るい,0.95,0.95,0.725,0.725,0.725,0.725,0.725,0.5,0.725,0.725,0.725,0.725,0.725,0.95,0.725,0.05,0.95,0.725,0.95,0.725,0.95,0.95,0.95,0.5,0.95,0.725,0.95,0.725,0.95,0.725,0.275,0.725,0.7531249999999999
喜び,春,0.725,0.725,0.725,0.725,0.725,0.275,0.725,0.5,0.5,0.725,0.725,0.725,0.95,0.5,0.5,0.275,0.725,0.725,0.725,0.5,0.725,0.725,0.95,0.725,0.5,0.275,0.725,0.5,0.725,0.5,0.05,0.275,0.60546875
赤ちゃん,幸せ,0.95,0.95,0.95,0.95,0.725,0.95,0.725,0.5,0.725,0.275,0.725,0.725,0.95,0.95,0.95,0.725,0.95,0.5,0.725,0.725,0.95,0.95,0.95,0.5,0.275,0.95,0.95,0.95,0.725,0.725,0.95,0.725,0.7882812499999999
幸せ,笑顔,0.95,0.95,0.725,0.95,0.725,0.725,0.95,0.725,0.725,0.95,0.95,0.725,0.95,0.725,0.95,0.95,0.725,0.725,0.725,0.95,0.95,0.95,0.95,0.95,0.95,0.95,0.95,0.95,0.95,0.725,0.95,0.725,0.8656250000000001
赤ちゃん,香り,0.725,0.725,0.5,0.725,0.275,0.05,0.275,0.05,0.275,0.05,0.725,0.5,0.725,0.725,0.725,0.05,0.725,0.275,0.725,0.725,0.95,0.95,0.725,0.275,0.275,0.275,0.5,0.725,0.275,0.05,0.275,0.05,0.46484375
喜び,香り,0.95,0.5,0.5,0.275,0.5,0.05,0.05,0.275,0.275,0.275,0.5,0.5,0.275,0.05,0.275,0.05,0.725,0.275,0.5,0.5,0.275,0.275,0.725,0.05,0.275,0.05,0.05,0.275,0.5,0.05,0.05,0.275,0.3171875
幸せ,贈り物,0.95,0.95,0.725,0.725,0.725,0.05,0.725,0.725,0.725,0.275,0.725,0.725,0.725,0.95,0.725,0.5,0.95,0.725,0.725,0.5,0.5,0.275,0.725,0.5,0.725,0.725,0.275,0.725,0.95,0.275,0.725,0.5,0.64765625
バラ,春,0.5,0.95,0.275,0.05,0.725,0.725,0.95,0.275,0.725,0.725,0.275,0.275,0.275,0.05,0.275,0.725,0.275,0.275,0.5,0.5,0.725,0.275,0.725,0.05,0.275,0.5,0.5,0.275,0.725,0.725,0.05,0.05,0.44375
楽しい,明るい,0.95,0.95,0.725,0.725,0.725,0.05,0.725,0.5,0.725,0.725,0.95,0.725,0.725,0.725,0.95,0.725,0.95,0.725,0.725,0.725,0.95,0.725,0.95,0.725,0.95,0.5,0.95,0.725,0.725,0.725,0.275,0.5,0.7320312499999999
春,花言葉,0.725,0.725,0.5,0.725,0.725,0.725,0.95,0.275,0.275,0.275,0.725,0.275,0.725,0.275,0.05,0.275,0.95,0.275,0.725,0.5,0.05,0.725,0.725,0.275,0.275,0.275,0.725,0.725,0.725,0.275,0.05,0.05,0.4859375
嬉しい,花言葉,0.95,0.725,0.725,0.725,0.725,0.05,0.05,0.275,0.275,0.5,0.725,0.275,0.725,0.275,0.05,0.05,0.725,0.275,0.275,0.275,0.05,0.275,0.725,0.275,0.5,0.05,0.05,0.5,0.725,0.275,0.05,0.05,0.38046875
桜,明るい,0.95,0.95,0.725,0.725,0.725,0.275,0.275,0.5,0.5,0.725,0.725,0.5,0.725,0.275,0.725,0.05,0.5,0.725,0.725,0.5,0.95,0.725,0.95,0.5,0.725,0.275,0.725,0.275,0.725,0.725,0.275,0.5,0.5984375
喜び,幸せ,0.725,0.95,0.725,0.95,0.95,0.05,0.725,0.725,0.95,0.95,0.95,0.725,0.95,0.725,0.95,0.5,0.95,0.95,0.95,0.95,0.725,0.95,0.95,0.95,0.95,0.725,0.95,0.95,0.95,0.95,0.725,0.725,0.8375
贈り物,歯,0.05,0.95,0.275,0.05,0.05,0.95,0.05,0.05,0.05,0.05,0.05,0.05,0.05,0.05,0.05,0.05,0.05,0.05,0.05,0.05,0.5,0.05,0.05,0.05,0.05,0.05,0.05,0.05,0.05,0.05,0.05,0.05,0.12734375
美しい,花言葉,0.725,0.725,0.725,0.05,0.725,0.275,0.725,0.275,0.725,0.275,0.725,0.275,0.725,0.275,0.05,0.275,0.275,0.275,0.5,0.275,0.275,0.725,0.725,0.05,0.725,0.275,0.5,0.725,0.725,0.5,0.275,0.05,0.45078125
バラ,幸せ,0.95,0.725,0.5,0.725,0.725,0.95,0.725,0.5,0.725,0.275,0.725,0.725,0.95,0.275,0.95,0.275,0.95,0.5,0.725,0.5,0.725,0.725,0.725,0.275,0.725,0.275,0.725,0.275,0.725,0.5,0.05,0.275,0.60546875
幸せ,香り,0.725,0.725,0.5,0.275,0.5,0.95,0.5,0.05,0.275,0.275,0.5,0.275,0.725,0.275,0.275,0.05,0.725,0.5,0.5,0.05,0.725,0.725,0.725,0.275,0.5,0.275,0.05,0.275,0.725,0.275,0.05,0.05,0.415625
桜,花,0.95,0.95,0.725,0.95,0.95,0.95,0.95,0.95,0.95,0.95,0.95,0.95,0.95,0.95,0.95,0.95,0.95,0.725,0.95,0.95,0.95,0.95,0.95,0.95,0.95,0.95,0.725,0.725,0.95,0.725,0.725,0.95,0.9078125
綺麗,香り,0.95,0.95,0.725,0.725,0.725,0.05,0.275,0.05,0.5,0.5,0.725,0.725,0.275,0.5,0.725,0.05,0.725,0.5,0.5,0.275,0.5,0.725,0.275,0.275,0.5,0.275,0.275,0.5,0.725,0.725,0.275,0.275,0.49296875
桜,歯,0.05,0.05,0.05,0.05,0.05,0.725,0.05,0.05,0.05,0.05,0.275,0.05,0.05,0.05,0.05,0.05,0.05,0.05,0.05,0.05,0.05,0.05,0.05,0.05,0.05,0.05,0.05,0.05,0.05,0.05,0.05,0.05,0.078125
花,綺麗,0.95,0.95,0.725,0.95,0.95,0.95,0.725,0.725,0.95,0.95,0.95,0.95,0.95,0.725,0.725,0.95,0.95,0.95,0.95,0.725,0.95,0.725,0.95,0.95,0.725,0.95,0.95,0.95,0.95,0.725,0.725,0.725,0.8726562499999999
綺麗,子供,0.725,0.95,0.5,0.05,0.5,0.275,0.5,0.05,0.05,0.05,0.725,0.5,0.275,0.05,0.05,0.05,0.5,0.05,0.5,0.5,0.725,0.275,0.725,0.275,0.275,0.275,0.275,0.275,0.5,0.275,0.05,0.275,0.3453125
バラ,歯,0.05,0.05,0.275,0.05,0.05,0.05,0.05,0.05,0.05,0.05,0.05,0.05,0.05,0.05,0.05,0.05,0.05,0.05,0.05,0.05,0.05,0.05,0.05,0.05,0.05,0.05,0.05,0.05,0.05,0.05,0.05,0.05,0.05703125
香り,綺麗,0.95,0.725,0.5,0.05,0.725,0.725,0.275,0.275,0.275,0.275,0.5,0.725,0.725,0.05,0.725,0.275,0.725,0.275,0.5,0.5,0.725,0.95,0.725,0.05,0.275,0.275,0.5,0.275,0.725,0.275,0.275,0.5,0.47890625
花言葉,赤ちゃん,0.275,0.275,0.275,0.05,0.275,0.725,0.05,0.05,0.05,0.05,0.275,0.05,0.275,0.275,0.05,0.05,0.275,0.05,0.275,0.05,0.275,0.275,0.275,0.05,0.275,0.05,0.05,0.05,0.05,0.05,0.05,0.05,0.1625
花,明るい,0.95,0.95,0.725,0.725,0.725,0.275,0.275,0.275,0.725,0.725,0.725,0.725,0.725,0.275,0.725,0.05,0.725,0.725,0.725,0.725,0.95,0.725,0.95,0.5,0.725,0.5,0.725,0.5,0.725,0.5,0.05,0.5,0.6195312500000001
楽しい,笑顔,0.95,0.725,0.725,0.95,0.95,0.725,0.95,0.95,0.725,0.95,0.725,0.95,0.95,0.95,0.95,0.95,0.95,0.95,0.95,0.95,0.95,0.95,0.95,0.95,0.95,0.95,0.95,0.95,0.95,0.725,0.95,0.95,0.9078125
バラ,綺麗,0.725,0.95,0.725,0.95,0.95,0.725,0.95,0.725,0.95,0.95,0.95,0.725,0.95,0.95,0.95,0.95,0.95,0.725,0.95,0.725,0.725,0.95,0.95,0.95,0.95,0.725,0.95,0.95,0.95,0.725,0.725,0.95,0.8726562500000001
香り,楽しい,0.725,0.725,0.5,0.725,0.725,0.725,0.5,0.275,0.275,0.275,0.5,0.5,0.275,0.275,0.275,0.05,0.725,0.5,0.5,0.05,0.725,0.725,0.725,0.05,0.5,0.5,0.275,0.275,0.5,0.05,0.05,0.05,0.42265624999999996
子供,喜び,0.95,0.725,0.725,0.95,0.725,0.05,0.95,0.275,0.5,0.725,0.725,0.5,0.725,0.725,0.725,0.725,0.95,0.5,0.725,0.725,0.95,0.95,0.95,0.275,0.275,0.95,0.5,0.95,0.725,0.5,0.725,0.725,0.68984375
美しい,幸せ,0.725,0.95,0.725,0.95,0.725,0.95,0.725,0.5,0.725,0.275,0.725,0.725,0.725,0.05,0.725,0.275,0.95,0.725,0.725,0.275,0.725,0.725,0.95,0.275,0.725,0.725,0.5,0.275,0.725,0.275,0.05,0.275,0.60546875
香り,嬉しい,0.95,0.725,0.5,0.725,0.5,0.725,0.275,0.05,0.275,0.275,0.5,0.5,0.725,0.275,0.5,0.05,0.5,0.275,0.5,0.5,0.725,0.275,0.725,0.5,0.725,0.5,0.275,0.275,0.5,0.05,0.05,0.5,0.45078125
幸せ,喜び,0.725,0.95,0.725,0.95,0.725,0.725,0.725,0.725,0.725,0.725,0.725,0.725,0.95,0.95,0.95,0.95,0.95,0.95,0.95,0.95,0.95,0.95,0.95,0.95,0.95,0.725,0.95,0.95,0.725,0.95,0.725,0.725,0.8515625
楽しい,嬉しい,0.95,0.95,0.725,0.95,0.95,0.95,0.95,0.95,0.725,0.95,0.95,0.725,0.95,0.725,0.95,0.05,0.95,0.95,0.725,0.95,0.725,0.95,0.95,0.725,0.95,0.725,0.95,0.725,0.95,0.95,0.725,0.725,0.84453125
花言葉,幸せ,0.95,0.95,0.725,0.725,0.725,0.95,0.5,0.275,0.725,0.275,0.5,0.275,0.725,0.275,0.275,0.275,0.725,0.5,0.5,0.5,0.275,0.95,0.725,0.5,0.725,0.5,0.05,0.5,0.725,0.5,0.275,0.05,0.53515625
嬉しい,美しい,0.95,0.95,0.725,0.275,0.725,0.725,0.275,0.275,0.5,0.275,0.725,0.275,0.725,0.275,0.05,0.05,0.725,0.725,0.5,0.5,0.5,0.725,0.95,0.275,0.5,0.725,0.275,0.05,0.725,0.275,0.275,0.05,0.4859375
明るい,バラ,0.95,0.95,0.5,0.275,0.725,0.95,0.275,0.275,0.275,0.275,0.275,0.725,0.725,0.275,0.275,0.05,0.725,0.5,0.5,0.5,0.5,0.275,0.5,0.275,0.725,0.05,0.275,0.275,0.725,0.275,0.05,0.05,0.43671875
綺麗,桜,0.95,0.95,0.725,0.95,0.725,0.275,0.95,0.5,0.725,0.95,0.95,0.725,0.95,0.725,0.725,0.275,0.95,0.725,0.725,0.725,0.95,0.725,0.95,0.5,0.95,0.5,0.5,0.725,0.95,0.95,0.275,0.725,0.74609375
喜び,花,0.95,0.95,0.725,0.725,0.725,0.95,0.725,0.5,0.5,0.275,0.725,0.725,0.725,0.275,0.5,0.725,0.725,0.725,0.725,0.275,0.725,0.725,0.95,0.5,0.95,0.275,0.5,0.5,0.725,0.5,0.05,0.275,0.61953125
香り,子供,0.725,0.95,0.275,0.725,0.275,0.275,0.725,0.05,0.05,0.05,0.725,0.275,0.725,0.5,0.275,0.05,0.275,0.05,0.725,0.05,0.725,0.725,0.725,0.275,0.05,0.275,0.275,0.5,0.5,0.05,0.05,0.05,0.3734375
明るい,美しい,0.95,0.95,0.725,0.725,0.725,0.95,0.5,0.5,0.725,0.275,0.725,0.5,0.725,0.275,0.725,0.05,0.95,0.725,0.5,0.5,0.725,0.725,0.95,0.275,0.725,0.275,0.5,0.275,0.725,0.275,0.275,0.275,0.5843750000000001
笑顔,嬉しい,0.95,0.95,0.95,0.725,0.725,0.275,0.95,0.95,0.725,0.95,0.95,0.95,0.95,0.725,0.95,0.95,0.95,0.95,0.725,0.95,0.725,0.95,0.725,0.725,0.95,0.95,0.95,0.95,0.95,0.95,0.725,0.95,0.8656250000000001
赤ちゃん,桜,0.5,0.5,0.275,0.05,0.5,0.05,0.275,0.05,0.05,0.275,0.275,0.05,0.275,0.05,0.275,0.05,0.5,0.275,0.5,0.05,0.275,0.275,0.275,0.05,0.275,0.05,0.275,0.275,0.275,0.05,0.275,0.05,0.22578125000000004
桜,春,0.95,0.95,0.95,0.95,0.95,0.275,0.95,0.95,0.95,0.95,0.95,0.95,0.95,0.95,0.95,0.95,0.95,0.95,0.95,0.95,0.95,0.95,0.95,0.95,0.95,0.95,0.95,0.95,0.95,0.95,0.95,0.95,0.9289062499999999
赤ちゃん,明るい,0.725,0.95,0.725,0.725,0.725,0.275,0.725,0.5,0.5,0.275,0.725,0.725,0.725,0.725,0.725,0.275,0.95,0.5,0.725,0.725,0.95,0.725,0.95,0.275,0.725,0.5,0.5,0.95,0.725,0.275,0.725,0.5,0.64765625
贈り物,喜び,0.95,0.95,0.725,0.725,0.725,0.95,0.95,0.725,0.725,0.725,0.725,0.725,0.725,0.725,0.725,0.725,0.725,0.725,0.725,0.725,0.725,0.95,0.95,0.725,0.725,0.95,0.725,0.725,0.95,0.5,0.725,0.725,0.77421875
花,幸せ,0.95,0.95,0.725,0.725,0.725,0.5,0.5,0.5,0.725,0.725,0.725,0.5,0.725,0.5,0.5,0.275,0.95,0.725,0.725,0.5,0.725,0.725,0.725,0.725,0.725,0.725,0.275,0.725,0.725,0.5,0.275,0.275,0.63359375
笑顔,香り,0.95,0.95,0.5,0.05,0.5,0.95,0.275,0.05,0.275,0.05,0.725,0.275,0.275,0.275,0.275,0.05,0.725,0.275,0.725,0.05,0.275,0.275,0.275,0.05,0.5,0.275,0.275,0.275,0.725,0.05,0.05,0.275,0.359375
香り,赤ちゃん,0.725,0.725,0.5,0.725,0.275,0.05,0.275,0.05,0.05,0.05,0.725,0.5,0.725,0.5,0.725,0.05,0.5,0.275,0.725,0.275,0.725,0.725,0.725,0.5,0.05,0.275,0.5,0.725,0.5,0.05,0.275,0.05,0.42265625
笑顔,桜,0.725,0.95,0.5,0.725,0.275,0.05,0.5,0.275,0.05,0.275,0.725,0.5,0.95,0.5,0.5,0.05,0.5,0.5,0.725,0.5,0.725,0.275,0.05,0.275,0.5,0.05,0.275,0.275,0.725,0.275,0.275,0.275,0.4296875
歯,楽しい,0.95,0.95,0.275,0.05,0.275,0.05,0.275,0.05,0.05,0.05,0.275,0.275,0.275,0.05,0.05,0.05,0.05,0.05,0.05,0.725,0.725,0.275,0.275,0.05,0.5,0.5,0.05,0.05,0.05,0.05,0.05,0.05,0.23281250000000003
笑顔,美しい,0.95,0.95,0.725,0.725,0.725,0.725,0.725,0.5,0.5,0.725,0.725,0.275,0.725,0.275,0.725,0.275,0.95,0.725,0.725,0.275,0.725,0.95,0.5,0.5,0.95,0.275,0.95,0.725,0.95,0.275,0.05,0.275,0.6265624999999999
楽しい,綺麗,0.725,0.95,0.275,0.275,0.5,0.275,0.275,0.275,0.275,0.275,0.725,0.275,0.725,0.275,0.5,0.05,0.275,0.5,0.275,0.5,0.5,0.275,0.725,0.05,0.5,0.5,0.275,0.275,0.725,0.275,0.05,0.05,0.3875
桜,楽しい,0.725,0.725,0.5,0.95,0.725,0.275,0.725,0.5,0.275,0.725,0.725,0.5,0.725,0.725,0.5,0.05,0.725,0.725,0.725,0.5,0.725,0.725,0.95,0.5,0.725,0.5,0.725,0.275,0.725,0.275,0.275,0.5,0.59140625
美しい,香り,0.725,0.725,0.5,0.275,0.725,0.275,0.725,0.05,0.5,0.5,0.725,0.725,0.725,0.5,0.725,0.275,0.725,0.275,0.5,0.5,0.95,0.95,0.5,0.275,0.5,0.5,0.275,0.275,0.725,0.275,0.275,0.5,0.5210937499999999
花,楽しい,0.725,0.725,0.725,0.725,0.725,0.05,0.725,0.5,0.275,0.725,0.725,0.5,0.95,0.5,0.5,0.05,0.725,0.5,0.725,0.5,0.725,0.275,0.95,0.05,0.725,0.275,0.5,0.5,0.725,0.275,0.05,0.05,0.52109375
喜び,歯,0.95,0.95,0.275,0.275,0.275,0.275,0.275,0.05,0.275,0.05,0.275,0.275,0.05,0.725,0.275,0.5,0.725,0.05,0.05,0.725,0.725,0.275,0.275,0.5,0.275,0.275,0.05,0.05,0.5,0.05,0.275,0.05,0.33125000000000004
幸せ,楽しい,0.725,0.95,0.725,0.725,0.725,0.5,0.725,0.725,0.725,0.725,0.725,0.725,0.725,0.725,0.95,0.725,0.95,0.95,0.725,0.95,0.95,0.95,0.95,0.725,0.95,0.725,0.95,0.725,0.725,0.725,0.725,0.725,0.78828125
赤ちゃん,バラ,0.275,0.5,0.275,0.05,0.275,0.95,0.05,0.05,0.05,0.05,0.275,0.05,0.275,0.05,0.05,0.05,0.275,0.05,0.05,0.05,0.275,0.275,0.275,0.05,0.05,0.05,0.05,0.275,0.275,0.05,0.05,0.05,0.16953125000000002
香り,美しい,0.95,0.95,0.5,0.05,0.725,0.95,0.275,0.05,0.5,0.275,0.725,0.5,0.725,0.05,0.5,0.05,0.5,0.5,0.5,0.5,0.725,0.725,0.725,0.725,0.725,0.275,0.275,0.725,0.725,0.5,0.275,0.05,0.50703125
春,幸せ,0.95,0.95,0.725,0.725,0.725,0.725,0.5,0.725,0.725,0.725,0.725,0.725,0.95,0.275,0.725,0.275,0.725,0.725,0.725,0.5,0.725,0.95,0.95,0.725,0.725,0.275,0.725,0.725,0.725,0.5,0.275,0.275,0.66875
花言葉,綺麗,0.725,0.95,0.725,0.275,0.725,0.95,0.725,0.05,0.5,0.275,0.725,0.275,0.95,0.275,0.05,0.05,0.95,0.5,0.5,0.275,0.275,0.725,0.725,0.5,0.725,0.275,0.275,0.5,0.725,0.5,0.05,0.05,0.49296875000000007
バラ,花,0.95,0.95,0.725,0.95,0.95,0.725,0.95,0.95,0.95,0.95,0.95,0.95,0.95,0.95,0.95,0.95,0.95,0.725,0.95,0.95,0.95,0.95,0.95,0.95,0.95,0.95,0.95,0.725,0.95,0.95,0.725,0.95,0.91484375
嬉しい,桜,0.95,0.95,0.725,0.725,0.725,0.05,0.275,0.275,0.5,0.275,0.725,0.725,0.725,0.725,0.5,0.05,0.5,0.5,0.5,0.5,0.5,0.725,0.725,0.275,0.725,0.05,0.5,0.275,0.725,0.275,0.05,0.275,0.5
バラ,花言葉,0.95,0.95,0.725,0.725,0.95,0.275,0.95,0.5,0.5,0.95,0.95,0.725,0.725,0.725,0.725,0.95,0.95,0.275,0.725,0.725,0.5,0.725,0.725,0.725,0.95,0.725,0.275,0.725,0.95,0.725,0.5,0.5,0.7179687499999999
笑顔,幸せ,0.95,0.95,0.95,0.95,0.95,0.275,0.95,0.725,0.725,0.95,0.95,0.95,0.725,0.95,0.95,0.95,0.95,0.725,0.95,0.95,0.95,0.95,0.95,0.95,0.95,0.95,0.95,0.95,0.95,0.725,0.725,0.725,0.8796875
贈り物,幸せ,0.95,0.95,0.725,0.725,0.95,0.725,0.725,0.725,0.725,0.725,0.725,0.725,0.95,0.5,0.725,0.5,0.725,0.725,0.725,0.725,0.725,0.95,0.95,0.95,0.95,0.95,0.5,0.725,0.725,0.5,0.725,0.725,0.76015625
花,喜び,0.95,0.95,0.725,0.725,0.725,0.95,0.725,0.5,0.5,0.725,0.725,0.725,0.725,0.5,0.5,0.275,0.725,0.725,0.725,0.5,0.725,0.725,0.95,0.275,0.725,0.725,0.5,0.725,0.725,0.5,0.05,0.275,0.640625
幸せ,バラ,0.95,0.95,0.5,0.725,0.725,0.05,0.275,0.275,0.725,0.725,0.725,0.5,0.725,0.5,0.725,0.725,0.725,0.5,0.725,0.5,0.5,0.275,0.275,0.275,0.725,0.5,0.05,0.275,0.275,0.275,0.05,0.05,0.49296875
笑顔,赤ちゃん,0.95,0.95,0.725,0.95,0.95,0.95,0.725,0.05,0.725,0.05,0.95,0.725,0.95,0.725,0.95,0.725,0.95,0.5,0.95,0.725,0.95,0.275,0.95,0.5,0.725,0.725,0.5,0.95,0.725,0.275,0.725,0.725,0.725
花言葉,嬉しい,0.95,0.95,0.725,0.725,0.725,0.5,0.05,0.5,0.5,0.725,0.725,0.275,0.725,0.275,0.05,0.05,0.5,0.275,0.725,0.275,0.275,0.725,0.725,0.5,0.725,0.5,0.05,0.725,0.725,0.5,0.05,0.05,0.49296875
楽しい,バラ,0.725,0.725,0.5,0.275,0.275,0.725,0.275,0.05,0.275,0.275,0.725,0.275,0.725,0.05,0.275,0.05,0.275,0.275,0.5,0.275,0.275,0.275,0.275,0.05,0.275,0.05,0.275,0.5,0.275,0.275,0.05,0.05,0.3171875
贈り物,笑顔,0.95,0.725,0.725,0.95,0.95,0.05,0.95,0.725,0.725,0.95,0.725,0.725,0.725,0.725,0.5,0.05,0.95,0.725,0.725,0.725,0.95,0.725,0.725,0.275,0.725,0.725,0.725,0.725,0.725,0.275,0.725,0.725,0.696875
歯,笑顔,0.95,0.95,0.725,0.725,0.725,0.95,0.725,0.275,0.5,0.05,0.725,0.725,0.275,0.5,0.5,0.275,0.95,0.275,0.725,0.95,0.725,0.725,0.5,0.725,0.95,0.725,0.725,0.5,0.725,0.275,0.275,0.275,0.6124999999999999
春,花,0.95,0.725,0.725,0.95,0.95,0.95,0.95,0.95,0.95,0.95,0.95,0.95,0.95,0.725,0.95,0.95,0.95,0.725,0.95,0.95,0.95,0.725,0.95,0.95,0.95,0.725,0.95,0.95,0.95,0.725,0.275,0.95,0.8796875
赤ちゃん,花,0.725,0.95,0.5,0.05,0.275,0.05,0.05,0.05,0.05,0.275,0.275,0.05,0.275,0.05,0.5,0.275,0.275,0.275,0.5,0.5,0.275,0.275,0.275,0.05,0.275,0.275,0.5,0.275,0.275,0.05,0.05,0.05,0.26796875
贈り物,赤ちゃん,0.95,0.95,0.725,0.725,0.725,0.725,0.725,0.05,0.5,0.05,0.5,0.5,0.275,0.5,0.05,0.05,0.725,0.5,0.725,0.5,0.95,0.725,0.725,0.5,0.725,0.5,0.5,0.275,0.725,0.05,0.725,0.5,0.5421875
明るい,香り,0.95,0.95,0.5,0.275,0.725,0.275,0.5,0.275,0.05,0.275,0.5,0.05,0.725,0.05,0.275,0.05,0.275,0.5,0.5,0.05,0.275,0.275,0.725,0.05,0.275,0.05,0.275,0.275,0.725,0.275,0.05,0.05,0.3453125
花言葉,歯,0.95,0.05,0.05,0.05,0.05,0.275,0.05,0.05,0.05,0.05,0.05,0.05,0.05,0.05,0.05,0.05,0.05,0.05,0.05,0.05,0.05,0.05,0.05,0.05,0.05,0.05,0.05,0.05,0.05,0.05,0.05,0.05,0.08515625
綺麗,喜び,0.725,0.725,0.725,0.725,0.5,0.725,0.5,0.275,0.5,0.725,0.725,0.5,0.275,0.275,0.5,0.275,0.725,0.725,0.5,0.275,0.725,0.95,0.95,0.275,0.725,0.725,0.5,0.5,0.725,0.05,0.275,0.5,0.55625
喜び,バラ,0.95,0.95,0.5,0.275,0.725,0.05,0.5,0.05,0.5,0.5,0.725,0.5,0.725,0.5,0.5,0.05,0.725,0.5,0.725,0.5,0.5,0.725,0.725,0.05,0.725,0.275,0.275,0.275,0.725,0.275,0.05,0.275,0.47890625
笑顔,綺麗,0.95,0.95,0.725,0.725,0.725,0.05,0.725,0.275,0.5,0.275,0.95,0.5,0.725,0.275,0.5,0.05,0.95,0.725,0.725,0.5,0.725,0.725,0.725,0.275,0.725,0.725,0.725,0.725,0.95,0.05,0.275,0.5,0.59140625
春,赤ちゃん,0.5,0.725,0.275,0.275,0.5,0.05,0.275,0.05,0.95,0.05,0.275,0.275,0.275,0.05,0.05,0.05,0.5,0.05,0.5,0.05,0.725,0.275,0.275,0.275,0.275,0.05,0.05,0.05,0.275,0.05,0.275,0.05,0.26093750000000004
バラ,赤ちゃん,0.5,0.5,0.275,0.05,0.275,0.725,0.05,0.275,0.05,0.05,0.275,0.05,0.275,0.05,0.05,0.05,0.275,0.05,0.275,0.05,0.275,0.275,0.275,0.05,0.05,0.05,0.05,0.05,0.05,0.05,0.05,0.05,0.16953125000000002
赤ちゃん,贈り物,0.95,0.95,0.725,0.725,0.725,0.95,0.725,0.275,0.05,0.275,0.5,0.275,0.05,0.5,0.725,0.275,0.95,0.5,0.725,0.5,0.725,0.725,0.725,0.5,0.95,0.725,0.725,0.275,0.725,0.05,0.725,0.5,0.584375
春,嬉しい,0.95,0.95,0.725,0.725,0.725,0.725,0.5,0.725,0.5,0.725,0.725,0.725,0.95,0.275,0.725,0.275,0.95,0.725,0.725,0.5,0.725,0.95,0.95,0.725,0.725,0.725,0.725,0.725,0.725,0.5,0.275,0.275,0.6828124999999999
幸せ,綺麗,0.725,0.95,0.725,0.275,0.725,0.05,0.275,0.5,0.5,0.275,0.725,0.5,0.725,0.275,0.5,0.275,0.725,0.725,0.725,0.5,0.5,0.725,0.95,0.275,0.725,0.5,0.5,0.275,0.95,0.05,0.275,0.05,0.5140625
桜,子供,0.725,0.5,0.5,0.05,0.725,0.725,0.275,0.05,0.05,0.275,0.275,0.275,0.275,0.5,0.05,0.05,0.725,0.275,0.275,0.275,0.5,0.725,0.275,0.5,0.275,0.05,0.275,0.275,0.275,0.05,0.275,0.275,0.33125000000000004
楽しい,美しい,0.725,0.95,0.5,0.275,0.5,0.725,0.05,0.275,0.275,0.275,0.725,0.275,0.725,0.275,0.275,0.05,0.5,0.725,0.5,0.275,0.725,0.725,0.725,0.05,0.725,0.275,0.275,0.275,0.725,0.275,0.05,0.05,0.42968750000000006
美しい,子供,0.725,0.725,0.5,0.05,0.5,0.725,0.5,0.05,0.05,0.05,0.725,0.5,0.275,0.275,0.5,0.05,0.5,0.275,0.5,0.275,0.95,0.725,0.725,0.275,0.05,0.275,0.275,0.05,0.275,0.275,0.05,0.05,0.36640625000000004
赤ちゃん,喜び,0.95,0.725,0.725,0.725,0.95,0.275,0.95,0.5,0.5,0.275,0.725,0.5,0.725,0.95,0.725,0.275,0.95,0.5,0.725,0.725,0.725,0.95,0.95,0.5,0.275,0.725,0.95,0.95,0.725,0.5,0.725,0.725,0.68984375
子供,贈り物,0.95,0.95,0.275,0.275,0.725,0.95,0.95,0.5,0.5,0.275,0.275,0.725,0.275,0.5,0.05,0.05,0.95,0.5,0.725,0.05,0.725,0.275,0.5,0.5,0.725,0.5,0.05,0.275,0.725,0.275,0.725,0.5,0.50703125
子供,幸せ,0.95,0.95,0.725,0.95,0.725,0.95,0.95,0.5,0.725,0.275,0.725,0.725,0.95,0.725,0.725,0.5,0.95,0.5,0.725,0.725,0.95,0.95,0.725,0.5,0.725,0.95,0.725,0.95,0.725,0.5,0.725,0.725,0.753125
喜び,美しい,0.95,0.725,0.5,0.275,0.725,0.275,0.275,0.275,0.5,0.275,0.725,0.275,0.275,0.05,0.5,0.05,0.725,0.725,0.5,0.5,0.725,0.95,0.95,0.275,0.725,0.275,0.275,0.275,0.725,0.275,0.275,0.275,0.47187500000000004
綺麗,赤ちゃん,0.725,0.95,0.275,0.05,0.725,0.725,0.5,0.05,0.05,0.275,0.725,0.275,0.275,0.275,0.275,0.275,0.275,0.275,0.725,0.5,0.95,0.275,0.725,0.05,0.275,0.275,0.275,0.05,0.275,0.275,0.275,0.05,0.3734375
明るい,桜,0.725,0.725,0.725,0.725,0.5,0.5,0.275,0.275,0.5,0.275,0.725,0.5,0.725,0.05,0.5,0.05,0.725,0.5,0.725,0.725,0.725,0.275,0.95,0.275,0.725,0.275,0.275,0.275,0.725,0.275,0.05,0.275,0.4859375
幸せ,花言葉,0.725,0.725,0.725,0.725,0.725,0.725,0.275,0.275,0.5,0.275,0.5,0.5,0.725,0.275,0.5,0.05,0.275,0.275,0.5,0.5,0.05,0.725,0.725,0.275,0.725,0.05,0.275,0.275,0.725,0.275,0.275,0.05,0.44375
楽しい,春,0.725,0.725,0.725,0.725,0.725,0.275,0.5,0.05,0.275,0.725,0.725,0.5,0.725,0.275,0.5,0.05,0.95,0.725,0.5,0.5,0.725,0.725,0.725,0.725,0.725,0.5,0.275,0.5,0.5,0.275,0.275,0.5,0.5421875
明るい,嬉しい,0.95,0.95,0.725,0.725,0.725,0.05,0.725,0.275,0.725,0.5,0.725,0.5,0.95,0.725,0.725,0.05,0.725,0.725,0.95,0.725,0.725,0.725,0.95,0.725,0.725,0.275,0.95,0.725,0.95,0.725,0.275,0.5,0.66875
笑顔,楽しい,0.95,0.95,0.725,0.725,0.95,0.05,0.95,0.95,0.725,0.725,0.725,0.95,0.725,0.725,0.725,0.95,0.95,0.95,0.95,0.95,0.725,0.95,0.95,0.95,0.95,0.95,0.95,0.95,0.95,0.95,0.95,0.95,0.8585937499999999
香り,バラ,0.95,0.725,0.725,0.95,0.95,0.95,0.95,0.5,0.95,0.725,0.95,0.95,0.95,0.5,0.95,0.95,0.95,0.275,0.95,0.725,0.95,0.725,0.95,0.725,0.725,0.95,0.725,0.95,0.95,0.725,0.725,0.95,0.83046875
香り,笑顔,0.95,0.725,0.5,0.725,0.5,0.05,0.725,0.275,0.5,0.275,0.5,0.5,0.725,0.275,0.275,0.05,0.275,0.5,0.275,0.05,0.725,0.725,0.275,0.275,0.725,0.5,0.05,0.275,0.725,0.05,0.05,0.5,0.42265625
楽しい,喜び,0.95,0.95,0.725,0.725,0.725,0.95,0.95,0.725,0.725,0.95,0.725,0.725,0.95,0.725,0.95,0.95,0.725,0.95,0.95,0.95,0.725,0.95,0.95,0.725,0.95,0.725,0.95,0.725,0.725,0.95,0.275,0.725,0.8234374999999999
バラ,贈り物,0.725,0.95,0.725,0.95,0.95,0.5,0.275,0.95,0.725,0.725,0.95,0.725,0.725,0.95,0.95,0.275,0.95,0.725,0.95,0.725,0.725,0.95,0.725,0.95,0.95,0.95,0.725,0.725,0.95,0.5,0.275,0.95,0.77421875
贈り物,嬉しい,0.95,0.95,0.725,0.95,0.725,0.95,0.95,0.95,0.725,0.725,0.725,0.725,0.725,0.725,0.95,0.95,0.95,0.725,0.95,0.725,0.725,0.95,0.95,0.95,0.95,0.95,0.725,0.725,0.95,0.725,0.725,0.95,0.84453125
贈り物,綺麗,0.725,0.95,0.725,0.725,0.725,0.725,0.5,0.05,0.5,0.275,0.5,0.5,0.725,0.275,0.275,0.275,0.725,0.725,0.5,0.275,0.275,0.725,0.725,0.275,0.5,0.5,0.275,0.05,0.5,0.275,0.725,0.275,0.49296874999999996
香り,明るい,0.725,0.95,0.5,0.275,0.725,0.5,0.275,0.275,0.5,0.275,0.275,0.275,0.275,0.05,0.275,0.05,0.5,0.275,0.275,0.5,0.725,0.725,0.725,0.05,0.5,0.05,0.275,0.5,0.725,0.05,0.05,0.05,0.38046875
花言葉,桜,0.725,0.725,0.5,0.725,0.725,0.5,0.95,0.275,0.5,0.5,0.725,0.5,0.275,0.5,0.95,0.725,0.5,0.275,0.275,0.275,0.275,0.725,0.725,0.5,0.725,0.5,0.275,0.725,0.725,0.725,0.05,0.275,0.5421874999999999
美しい,綺麗,0.725,0.95,0.95,0.95,0.95,0.95,0.95,0.725,0.725,0.95,0.725,0.95,0.95,0.95,0.725,0.95,0.95,0.95,0.95,0.95,0.95,0.95,0.95,0.95,0.95,0.95,0.95,0.725,0.95,0.95,0.725,0.725,0.89375
花,赤ちゃん,0.5,0.5,0.275,0.05,0.275,0.725,0.275,0.05,0.05,0.275,0.275,0.275,0.05,0.275,0.275,0.05,0.275,0.275,0.275,0.05,0.275,0.275,0.275,0.05,0.275,0.05,0.275,0.275,0.5,0.275,0.05,0.05,0.23984375000000002
贈り物,バラ,0.95,0.95,0.725,0.95,0.95,0.05,0.725,0.725,0.725,0.725,0.95,0.95,0.725,0.95,0.725,0.5,0.95,0.725,0.95,0.725,0.725,0.95,0.725,0.95,0.95,0.5,0.725,0.725,0.725,0.5,0.725,0.725,0.7671875
幸せ,子供,0.95,0.95,0.725,0.95,0.725,0.275,0.725,0.5,0.5,0.275,0.725,0.5,0.725,0.725,0.725,0.5,0.95,0.5,0.725,0.725,0.95,0.95,0.725,0.275,0.275,0.725,0.5,0.95,0.725,0.275,0.725,0.725,0.66171875
桜,花言葉,0.95,0.95,0.725,0.725,0.725,0.725,0.95,0.5,0.725,0.725,0.95,0.5,0.95,0.5,0.725,0.5,0.95,0.275,0.725,0.725,0.05,0.725,0.725,0.5,0.725,0.725,0.275,0.725,0.725,0.725,0.275,0.5,0.66171875
嬉しい,歯,0.95,0.05,0.275,0.275,0.275,0.275,0.05,0.05,0.275,0.05,0.275,0.275,0.05,0.5,0.05,0.275,0.05,0.05,0.05,0.5,0.725,0.275,0.5,0.275,0.725,0.275,0.05,0.05,0.05,0.05,0.05,0.05,0.23984375000000002
楽しい,桜,0.725,0.95,0.5,0.725,0.5,0.725,0.275,0.275,0.275,0.275,0.725,0.5,0.725,0.275,0.5,0.05,0.725,0.5,0.5,0.5,0.725,0.275,0.725,0.275,0.725,0.275,0.275,0.5,0.5,0.275,0.275,0.275,0.47890625000000003
花言葉,春,0.725,0.95,0.725,0.05,0.725,0.725,0.95,0.275,0.5,0.5,0.5,0.5,0.275,0.5,0.275,0.725,0.5,0.5,0.725,0.5,0.275,0.725,0.725,0.5,0.725,0.05,0.725,0.725,0.725,0.5,0.05,0.05,0.528125
子供,バラ,0.275,0.5,0.275,0.05,0.05,0.275,0.05,0.05,0.05,0.05,0.275,0.275,0.275,0.05,0.05,0.05,0.275,0.05,0.05,0.05,0.05,0.05,0.05,0.05,0.05,0.05,0.05,0.275,0.05,0.05,0.05,0.05,0.12031250000000002
赤ちゃん,歯,0.725,0.5,0.275,0.725,0.725,0.05,0.725,0.05,0.275,0.05,0.5,0.275,0.275,0.5,0.725,0.05,0.5,0.275,0.95,0.725,0.725,0.725,0.275,0.275,0.05,0.725,0.05,0.725,0.725,0.5,0.05,0.275,0.43671875000000004
美しい,笑顔,0.95,0.95,0.725,0.725,0.725,0.05,0.725,0.275,0.725,0.5,0.725,0.5,0.725,0.5,0.5,0.5,0.95,0.725,0.725,0.725,0.725,0.725,0.725,0.5,0.95,0.5,0.275,0.725,0.95,0.275,0.275,0.5,0.6265625
花言葉,バラ,0.95,0.95,0.725,0.275,0.95,0.275,0.95,0.275,0.5,0.725,0.95,0.5,0.95,0.5,0.95,0.95,0.725,0.5,0.95,0.725,0.275,0.725,0.725,0.725,0.725,0.5,0.05,0.725,0.725,0.5,0.275,0.5,0.64765625
嬉しい,花,0.725,0.95,0.725,0.725,0.95,0.05,0.275,0.5,0.5,0.5,0.725,0.5,0.725,0.725,0.5,0.275,0.95,0.5,0.725,0.725,0.725,0.275,0.95,0.275,0.5,0.275,0.5,0.725,0.725,0.275,0.05,0.5,0.56328125
花言葉,笑顔,0.5,0.725,0.725,0.275,0.725,0.5,0.275,0.5,0.275,0.5,0.725,0.05,0.725,0.275,0.275,0.05,0.725,0.275,0.5,0.05,0.275,0.725,0.725,0.275,0.5,0.5,0.275,0.275,0.725,0.275,0.275,0.05,0.42265624999999996
嬉しい,赤ちゃん,0.95,0.95,0.725,0.95,0.725,0.275,0.725,0.275,0.725,0.275,0.725,0.5,0.725,0.725,0.725,0.275,0.725,0.275,0.725,0.725,0.725,0.725,0.725,0.05,0.725,0.725,0.725,0.95,0.725,0.5,0.275,0.725,0.63359375
幸せ,花,0.725,0.725,0.725,0.725,0.725,0.05,0.05,0.5,0.725,0.275,0.725,0.725,0.725,0.275,0.275,0.275,0.95,0.5,0.725,0.5,0.725,0.725,0.725,0.5,0.725,0.275,0.275,0.725,0.725,0.5,0.05,0.275,0.53515625
赤ちゃん,楽しい,0.95,0.95,0.725,0.95,0.725,0.725,0.95,0.5,0.275,0.05,0.725,0.5,0.725,0.5,0.725,0.275,0.95,0.725,0.725,0.725,0.95,0.725,0.95,0.275,0.725,0.5,0.725,0.725,0.725,0.275,0.725,0.275,0.6546875000000001
嬉しい,子供,0.95,0.95,0.725,0.95,0.725,0.05,0.95,0.275,0.5,0.5,0.725,0.725,0.725,0.725,0.275,0.275,0.725,0.5,0.725,0.725,0.725,0.725,0.725,0.275,0.275,0.5,0.275,0.725,0.725,0.5,0.275,0.725,0.5984375
美しい,楽しい,0.95,0.95,0.5,0.275,0.725,0.95,0.725,0.275,0.275,0.725,0.725,0.275,0.95,0.05,0.5,0.05,0.5,0.5,0.5,0.275,0.725,0.725,0.725,0.725,0.725,0.275,0.5,0.275,0.5,0.275,0.275,0.05,0.5140625000000001
歯,子供,0.725,0.5,0.275,0.275,0.725,0.275,0.725,0.05,0.275,0.05,0.5,0.275,0.275,0.5,0.725,0.05,0.5,0.05,0.725,0.725,0.95,0.275,0.275,0.05,0.275,0.725,0.05,0.725,0.5,0.5,0.05,0.5,0.40859375000000003
綺麗,歯,0.725,0.05,0.725,0.725,0.725,0.05,0.725,0.05,0.05,0.05,0.275,0.275,0.05,0.725,0.5,0.05,0.725,0.5,0.725,0.725,0.5,0.95,0.275,0.275,0.95,0.5,0.275,0.05,0.725,0.05,0.275,0.5,0.42968750000000006
明るい,幸せ,0.95,0.725,0.725,0.725,0.725,0.725,0.95,0.275,0.725,0.725,0.725,0.5,0.725,0.275,0.725,0.275,0.725,0.725,0.95,0.725,0.95,0.95,0.95,0.725,0.725,0.725,0.95,0.725,0.725,0.725,0.275,0.725,0.7109375
明るい,赤ちゃん,0.95,0.95,0.725,0.725,0.725,0.05,0.725,0.05,0.275,0.05,0.725,0.5,0.725,0.5,0.725,0.05,0.5,0.5,0.5,0.725,0.95,0.725,0.725,0.05,0.725,0.275,0.5,0.725,0.725,0.5,0.275,0.275,0.53515625
桜,贈り物,0.95,0.5,0.275,0.275,0.275,0.95,0.5,0.275,0.275,0.275,0.275,0.275,0.275,0.275,0.05,0.05,0.725,0.275,0.725,0.05,0.725,0.275,0.725,0.275,0.275,0.05,0.05,0.5,0.5,0.275,0.05,0.05,0.35234375
花言葉,明るい,0.725,0.725,0.725,0.725,0.725,0.275,0.275,0.275,0.5,0.5,0.5,0.275,0.725,0.275,0.05,0.05,0.5,0.5,0.5,0.275,0.05,0.725,0.725,0.05,0.725,0.275,0.05,0.5,0.725,0.275,0.05,0.05,0.415625
春,喜び,0.725,0.95,0.725,0.725,0.725,0.5,0.725,0.725,0.5,0.725,0.725,0.725,0.95,0.275,0.95,0.5,0.725,0.725,0.725,0.5,0.725,0.95,0.725,0.725,0.5,0.5,0.725,0.5,0.725,0.725,0.275,0.275,0.66171875
美しい,春,0.725,0.95,0.725,0.725,0.725,0.95,0.725,0.275,0.5,0.725,0.725,0.5,0.725,0.5,0.725,0.275,0.725,0.725,0.725,0.5,0.725,0.95,0.95,0.5,0.725,0.5,0.5,0.5,0.725,0.5,0.05,0.275,0.6265625
春,楽しい,0.725,0.725,0.725,0.725,0.725,0.725,0.275,0.725,0.5,0.725,0.725,0.5,0.95,0.275,0.725,0.275,0.725,0.725,0.725,0.275,0.725,0.725,0.95,0.725,0.725,0.5,0.5,0.725,0.725,0.5,0.725,0.5,0.640625
香り,喜び,0.95,0.95,0.725,0.275,0.725,0.95,0.275,0.275,0.275,0.275,0.725,0.5,0.275,0.5,0.275,0.05,0.725,0.275,0.5,0.275,0.725,0.725,0.725,0.05,0.5,0.275,0.5,0.05,0.275,0.275,0.05,0.5,0.45078125
笑顔,バラ,0.95,0.95,0.275,0.05,0.725,0.725,0.275,0.5,0.275,0.05,0.725,0.5,0.725,0.05,0.5,0.05,0.725,0.275,0.275,0.275,0.5,0.725,0.05,0.05,0.725,0.275,0.05,0.275,0.725,0.275,0.05,0.5,0.40859375
花言葉,香り,0.95,0.5,0.725,0.275,0.725,0.05,0.725,0.275,0.5,0.275,0.725,0.5,0.725,0.275,0.05,0.275,0.725,0.05,0.5,0.275,0.275,0.5,0.5,0.05,0.5,0.275,0.5,0.275,0.725,0.275,0.275,0.05,0.415625
明るい,春,0.95,0.95,0.725,0.725,0.725,0.5,0.725,0.5,0.5,0.725,0.725,0.725,0.95,0.5,0.725,0.275,0.725,0.725,0.5,0.725,0.725,0.95,0.725,0.725,0.725,0.275,0.5,0.275,0.725,0.725,0.275,0.725,0.6546875
歯,美しい,0.725,0.95,0.5,0.725,0.725,0.275,0.725,0.05,0.275,0.05,0.5,0.275,0.05,0.5,0.5,0.05,0.05,0.5,0.725,0.725,0.05,0.725,0.725,0.5,0.95,0.725,0.275,0.05,0.725,0.5,0.275,0.5,0.46484375
子供,楽しい,0.95,0.95,0.725,0.95,0.95,0.725,0.95,0.5,0.725,0.5,0.725,0.725,0.725,0.95,0.95,0.95,0.95,0.725,0.725,0.725,0.95,0.95,0.95,0.275,0.725,0.725,0.725,0.725,0.725,0.5,0.725,0.5,0.7671874999999999
楽しい,贈り物,0.95,0.95,0.725,0.725,0.725,0.95,0.275,0.5,0.275,0.725,0.5,0.725,0.725,0.5,0.275,0.05,0.275,0.5,0.5,0.5,0.275,0.725,0.725,0.05,0.725,0.275,0.275,0.275,0.725,0.275,0.275,0.275,0.5070312499999999
子供,綺麗,0.95,0.95,0.5,0.275,0.5,0.725,0.5,0.05,0.5,0.275,0.5,0.275,0.275,0.275,0.275,0.275,0.275,0.275,0.5,0.5,0.725,0.725,0.725,0.275,0.275,0.275,0.275,0.275,0.5,0.05,0.275,0.05,0.40859375
喜び,嬉しい,0.95,0.95,0.725,0.95,0.95,0.725,0.95,0.725,0.725,0.95,0.95,0.725,0.95,0.725,0.725,0.95,0.95,0.95,0.95,0.95,0.725,0.95,0.95,0.95,0.95,0.725,0.95,0.725,0.725,0.95,0.275,0.725,0.84453125
美しい,赤ちゃん,0.95,0.725,0.275,0.275,0.5,0.05,0.5,0.275,0.275,0.275,0.725,0.5,0.275,0.275,0.275,0.275,0.275,0.275,0.725,0.5,0.95,0.725,0.725,0.05,0.275,0.275,0.5,0.05,0.275,0.05,0.275,0.05,0.3875
贈り物,楽しい,0.725,0.95,0.725,0.275,0.725,0.725,0.725,0.725,0.725,0.725,0.725,0.725,0.725,0.275,0.5,0.725,0.725,0.725,0.725,0.5,0.725,0.725,0.95,0.275,0.725,0.5,0.5,0.725,0.725,0.725,0.275,0.5,0.6476562499999999
子供,赤ちゃん,0.95,0.95,0.725,0.725,0.95,0.95,0.95,0.5,0.725,0.725,0.95,0.725,0.725,0.725,0.725,0.05,0.95,0.725,0.95,0.95,0.95,0.95,0.725,0.5,0.725,0.5,0.725,0.725,0.725,0.725,0.725,0.725,0.7601562500000001
綺麗,嬉しい,0.95,0.95,0.725,0.725,0.725,0.05,0.725,0.275,0.275,0.05,0.725,0.275,0.95,0.05,0.5,0.05,0.725,0.725,0.725,0.725,0.725,0.725,0.95,0.05,0.275,0.5,0.5,0.725,0.725,0.275,0.275,0.5,0.53515625
桜,喜び,0.725,0.95,0.725,0.725,0.725,0.05,0.725,0.5,0.725,0.725,0.725,0.725,0.95,0.5,0.725,0.275,0.725,0.725,0.725,0.275,0.5,0.95,0.95,0.725,0.725,0.725,0.725,0.275,0.725,0.5,0.275,0.275,0.63359375
幸せ,美しい,0.95,0.95,0.725,0.725,0.725,0.725,0.275,0.275,0.5,0.275,0.725,0.5,0.725,0.275,0.5,0.5,0.725,0.725,0.5,0.5,0.725,0.725,0.725,0.275,0.725,0.5,0.725,0.5,0.5,0.05,0.05,0.05,0.5421875
花言葉,喜び,0.95,0.725,0.725,0.725,0.725,0.05,0.275,0.5,0.725,0.275,0.5,0.05,0.725,0.275,0.275,0.05,0.725,0.5,0.5,0.5,0.5,0.725,0.725,0.275,0.725,0.5,0.5,0.5,0.725,0.275,0.05,0.05,0.47890625
バラ,明るい,0.95,0.95,0.5,0.725,0.725,0.275,0.275,0.5,0.5,0.275,0.725,0.725,0.725,0.275,0.5,0.05,0.725,0.725,0.5,0.275,0.5,0.725,0.725,0.275,0.725,0.05,0.5,0.5,0.725,0.275,0.05,0.5,0.5140625000000001
美しい,歯,0.725,0.95,0.275,0.725,0.725,0.725,0.5,0.05,0.5,0.05,0.5,0.275,0.05,0.5,0.725,0.05,0.275,0.5,0.725,0.95,0.5,0.725,0.275,0.275,0.95,0.725,0.05,0.5,0.725,0.5,0.275,0.275,0.4859375
花,歯,0.05,0.05,0.275,0.05,0.275,0.05,0.05,0.05,0.05,0.05,0.05,0.05,0.275,0.05,0.05,0.05,0.05,0.05,0.05,0.05,0.05,0.05,0.05,0.05,0.05,0.05,0.05,0.05,0.05,0.05,0.05,0.05,0.07109375
赤ちゃん,子供,0.95,0.95,0.725,0.95,0.95,0.95,0.725,0.725,0.95,0.725,0.95,0.725,0.95,0.725,0.95,0.5,0.95,0.725,0.95,0.95,0.95,0.95,0.725,0.725,0.95,0.95,0.725,0.725,0.725,0.725,0.725,0.725,0.8304687500000001
桜,幸せ,0.725,0.95,0.725,0.725,0.725,0.05,0.725,0.5,0.725,0.725,0.725,0.725,0.95,0.5,0.725,0.275,0.725,0.5,0.725,0.5,0.725,0.95,0.95,0.725,0.725,0.5,0.5,0.275,0.275,0.725,0.275,0.275,0.61953125
子供,花言葉,0.275,0.95,0.275,0.05,0.05,0.725,0.05,0.05,0.05,0.05,0.275,0.275,0.275,0.05,0.05,0.05,0.275,0.05,0.05,0.05,0.05,0.275,0.05,0.05,0.05,0.05,0.05,0.05,0.05,0.05,0.05,0.05,0.1484375
春,桜,0.95,0.725,0.95,0.95,0.95,0.275,0.95,0.95,0.95,0.95,0.95,0.95,0.95,0.95,0.95,0.95,0.95,0.95,0.95,0.95,0.95,0.95,0.95,0.95,0.95,0.725,0.95,0.725,0.95,0.95,0.95,0.95,0.9078124999999999
美しい,贈り物,0.725,0.725,0.5,0.05,0.5,0.275,0.5,0.275,0.725,0.275,0.725,0.5,0.725,0.05,0.05,0.275,0.275,0.5,0.5,0.5,0.725,0.275,0.725,0.275,0.5,0.275,0.275,0.05,0.725,0.275,0.275,0.05,0.40859375
贈り物,春,0.725,0.95,0.275,0.725,0.725,0.95,0.275,0.05,0.5,0.275,0.275,0.5,0.275,0.5,0.725,0.05,0.95,0.275,0.725,0.5,0.05,0.275,0.05,0.5,0.725,0.725,0.05,0.275,0.5,0.05,0.05,0.05,0.42265624999999996
嬉しい,綺麗,0.725,0.95,0.725,0.275,0.725,0.95,0.5,0.5,0.5,0.275,0.725,0.275,0.725,0.275,0.275,0.05,0.725,0.5,0.275,0.275,0.5,0.725,0.725,0.275,0.725,0.5,0.725,0.5,0.725,0.275,0.05,0.275,0.50703125
嬉しい,明るい,0.95,0.95,0.725,0.725,0.725,0.05,0.275,0.5,0.5,0.95,0.725,0.5,0.95,0.725,0.725,0.05,0.725,0.725,0.95,0.95,0.725,0.95,0.95,0.5,0.725,0.05,0.95,0.95,0.725,0.725,0.275,0.5,0.66875
香り,花,0.95,0.95,0.95,0.95,0.95,0.725,0.95,0.725,0.95,0.725,0.95,0.95,0.95,0.95,0.95,0.725,0.95,0.725,0.95,0.725,0.95,0.725,0.95,0.725,0.95,0.95,0.725,0.725,0.95,0.725,0.725,0.725,0.8585937499999999
春,美しい,0.725,0.95,0.725,0.725,0.95,0.725,0.725,0.5,0.725,0.725,0.725,0.275,0.725,0.275,0.725,0.275,0.725,0.725,0.725,0.725,0.95,0.95,0.725,0.275,0.725,0.725,0.5,0.725,0.95,0.725,0.275,0.5,0.66875
香り,贈り物,0.725,0.95,0.5,0.725,0.725,0.95,0.275,0.05,0.5,0.275,0.5,0.275,0.275,0.05,0.5,0.05,0.725,0.5,0.5,0.275,0.5,0.275,0.725,0.05,0.5,0.5,0.05,0.275,0.725,0.05,0.275,0.05,0.415625
歯,贈り物,0.725,0.05,0.275,0.05,0.05,0.725,0.05,0.05,0.05,0.05,0.05,0.05,0.05,0.05,0.05,0.05,0.275,0.05,0.05,0.05,0.05,0.05,0.275,0.05,0.05,0.05,0.05,0.05,0.05,0.05,0.05,0.05,0.11328125
子供,香り,0.725,0.5,0.5,0.725,0.275,0.275,0.275,0.05,0.275,0.05,0.725,0.275,0.725,0.5,0.275,0.05,0.5,0.05,0.725,0.275,0.95,0.725,0.5,0.5,0.275,0.275,0.275,0.725,0.275,0.275,0.05,0.05,0.39453125
バラ,楽しい,0.725,0.95,0.5,0.275,0.5,0.5,0.275,0.275,0.275,0.275,0.5,0.275,0.725,0.275,0.05,0.05,0.5,0.5,0.5,0.275,0.5,0.275,0.5,0.05,0.275,0.05,0.5,0.275,0.05,0.5,0.05,0.05,0.35234375
笑顔,明るい,0.95,0.95,0.725,0.725,0.95,0.95,0.725,0.725,0.725,0.725,0.95,0.95,0.95,0.725,0.95,0.725,0.95,0.725,0.95,0.95,0.725,0.725,0.95,0.95,0.95,0.725,0.95,0.95,0.95,0.95,0.725,0.95,0.85859375
喜び,綺麗,0.725,0.725,0.725,0.275,0.725,0.725,0.5,0.275,0.05,0.275,0.725,0.275,0.725,0.05,0.275,0.05,0.725,0.725,0.5,0.275,0.5,0.725,0.725,0.275,0.725,0.275,0.5,0.5,0.725,0.275,0.275,0.275,0.471875
歯,明るい,0.95,0.5,0.275,0.725,0.725,0.05,0.05,0.05,0.05,0.05,0.275,0.275,0.05,0.5,0.275,0.05,0.275,0.275,0.275,0.5,0.725,0.275,0.5,0.05,0.5,0.275,0.5,0.05,0.725,0.05,0.275,0.05,0.3171875
笑顔,贈り物,0.95,0.95,0.725,0.725,0.95,0.275,0.95,0.275,0.5,0.725,0.725,0.725,0.725,0.725,0.5,0.05,0.725,0.5,0.5,0.725,0.725,0.95,0.725,0.275,0.95,0.725,0.5,0.725,0.95,0.275,0.275,0.5,0.640625
笑顔,花言葉,0.5,0.95,0.725,0.275,0.725,0.275,0.275,0.05,0.5,0.275,0.725,0.275,0.275,0.275,0.05,0.05,0.725,0.275,0.5,0.275,0.275,0.275,0.5,0.05,0.275,0.05,0.05,0.275,0.275,0.275,0.275,0.05,0.33125000000000004
美しい,嬉しい,0.95,0.95,0.725,0.725,0.5,0.95,0.725,0.275,0.725,0.725,0.725,0.5,0.95,0.275,0.5,0.275,0.725,0.725,0.725,0.275,0.5,0.725,0.95,0.275,0.725,0.5,0.275,0.5,0.725,0.5,0.275,0.5,0.60546875
喜び,花言葉,0.725,0.95,0.725,0.275,0.5,0.05,0.275,0.05,0.275,0.275,0.725,0.5,0.275,0.275,0.05,0.05,0.725,0.275,0.275,0.275,0.05,0.95,0.725,0.05,0.275,0.05,0.275,0.5,0.725,0.275,0.05,0.05,0.359375
綺麗,幸せ,0.95,0.725,0.725,0.725,0.725,0.725,0.725,0.275,0.725,0.275,0.725,0.5,0.725,0.275,0.5,0.5,0.725,0.5,0.725,0.275,0.5,0.725,0.95,0.275,0.725,0.5,0.5,0.5,0.725,0.5,0.05,0.275,0.5703125
喜び,笑顔,0.725,0.95,0.95,0.95,0.95,0.05,0.725,0.95,0.95,0.95,0.95,0.95,0.725,0.95,0.95,0.725,0.95,0.95,0.95,0.95,0.95,0.95,0.95,0.95,0.95,0.95,0.95,0.725,0.95,0.95,0.725,0.95,0.8796875
歯,春,0.05,0.95,0.275,0.05,0.05,0.725,0.275,0.05,0.05,0.05,0.05,0.05,0.05,0.05,0.05,0.05,0.275,0.05,0.05,0.05,0.05,0.05,0.05,0.05,0.05,0.05,0.05,0.05,0.05,0.05,0.05,0.05,0.12031250000000002
喜び,明るい,0.725,0.95,0.95,0.725,0.725,0.275,0.725,0.5,0.5,0.725,0.725,0.725,0.725,0.725,0.725,0.5,0.95,0.5,0.725,0.95,0.725,0.725,0.95,0.725,0.95,0.5,0.95,0.95,0.725,0.95,0.725,0.725,0.7390625
綺麗,明るい,0.725,0.95,0.725,0.725,0.725,0.725,0.5,0.275,0.5,0.275,0.725,0.5,0.725,0.275,0.5,0.05,0.725,0.5,0.725,0.275,0.5,0.725,0.725,0.275,0.725,0.275,0.5,0.275,0.725,0.275,0.275,0.05,0.5140625
花言葉,花,0.95,0.95,0.725,0.95,0.95,0.275,0.95,0.95,0.725,0.725,0.95,0.95,0.95,0.95,0.95,0.95,0.95,0.725,0.95,0.95,0.95,0.95,0.95,0.95,0.725,0.95,0.5,0.725,0.95,0.95,0.725,0.95,0.865625
楽しい,花言葉,0.725,0.95,0.725,0.275,0.725,0.05,0.05,0.275,0.275,0.275,0.5,0.275,0.725,0.275,0.05,0.05,0.725,0.275,0.5,0.05,0.05,0.275,0.725,0.05,0.275,0.275,0.05,0.05,0.05,0.275,0.05,0.05,0.31015625
歯,花言葉,0.05,0.05,0.275,0.05,0.05,0.95,0.05,0.05,0.05,0.05,0.05,0.05,0.275,0.05,0.05,0.05,0.05,0.05,0.05,0.05,0.05,0.05,0.05,0.05,0.05,0.05,0.05,0.05,0.05,0.05,0.05,0.05,0.0921875
嬉しい,贈り物,0.95,0.95,0.725,0.725,0.725,0.05,0.725,0.725,0.5,0.95,0.725,0.725,0.725,0.725,0.5,0.275,0.95,0.725,0.725,0.725,0.725,0.725,0.95,0.95,0.725,0.725,0.5,0.725,0.95,0.5,0.275,0.725,0.6968749999999999
嬉しい,笑顔,0.95,0.95,0.725,0.725,0.95,0.725,0.95,0.725,0.725,0.95,0.725,0.95,0.95,0.95,0.95,0.95,0.95,0.95,0.95,0.5,0.95,0.95,0.95,0.95,0.95,0.95,0.95,0.725,0.95,0.725,0.725,0.95,0.87265625
明るい,喜び,0.725,0.95,0.725,0.95,0.725,0.725,0.725,0.725,0.5,0.725,0.725,0.725,0.725,0.5,0.95,0.5,0.95,0.725,0.725,0.95,0.725,0.725,0.95,0.725,0.725,0.275,0.95,0.725,0.725,0.725,0.275,0.725,0.725
歯,幸せ,0.725,0.725,0.275,0.05,0.275,0.05,0.275,0.05,0.05,0.05,0.275,0.05,0.275,0.5,0.05,0.275,0.275,0.275,0.275,0.05,0.725,0.725,0.275,0.275,0.5,0.275,0.05,0.05,0.05,0.05,0.05,0.05,0.246875
嬉しい,春,0.725,0.725,0.725,0.725,0.5,0.725,0.725,0.275,0.275,0.5,0.725,0.725,0.95,0.5,0.725,0.05,0.725,0.5,0.5,0.5,0.725,0.725,0.725,0.725,0.725,0.275,0.275,0.5,0.725,0.5,0.275,0.5,0.57734375
嬉しい,バラ,0.95,0.725,0.275,0.725,0.95,0.95,0.5,0.275,0.5,0.275,0.725,0.5,0.725,0.5,0.5,0.05,0.725,0.5,0.725,0.725,0.5,0.725,0.5,0.275,0.725,0.275,0.275,0.275,0.5,0.05,0.05,0.5,0.5140625
綺麗,花,0.95,0.95,0.725,0.95,0.95,0.05,0.725,0.725,0.95,0.725,0.725,0.725,0.95,0.95,0.725,0.725,0.95,0.725,0.95,0.725,0.95,0.95,0.95,0.725,0.725,0.725,0.725,0.725,0.95,0.725,0.725,0.725,0.7953125
花言葉,贈り物,0.95,0.95,0.5,0.725,0.725,0.05,0.275,0.275,0.275,0.275,0.5,0.275,0.725,0.275,0.05,0.275,0.95,0.275,0.5,0.5,0.05,0.725,0.725,0.725,0.275,0.275,0.05,0.05,0.725,0.05,0.275,0.275,0.42265624999999996
子供,笑顔,0.95,0.725,0.725,0.95,0.95,0.275,0.95,0.725,0.725,0.725,0.725,0.725,0.725,0.725,0.725,0.95,0.95,0.725,0.95,0.725,0.95,0.95,0.95,0.725,0.725,0.95,0.95,0.95,0.95,0.725,0.95,0.725,0.81640625
春,綺麗,0.95,0.725,0.725,0.275,0.725,0.275,0.5,0.5,0.5,0.725,0.725,0.5,0.95,0.5,0.5,0.5,0.95,0.5,0.725,0.5,0.5,0.725,0.95,0.275,0.5,0.5,0.275,0.725,0.725,0.725,0.725,0.275,0.5984375
バラ,嬉しい,0.725,0.725,0.5,0.725,0.725,0.725,0.5,0.725,0.275,0.275,0.725,0.5,0.725,0.5,0.5,0.275,0.725,0.725,0.725,0.275,0.5,0.725,0.725,0.275,0.725,0.5,0.275,0.5,0.725,0.05,0.05,0.275,0.528125
美しい,花,0.95,0.95,0.725,0.95,0.95,0.95,0.725,0.725,0.95,0.95,0.95,0.725,0.725,0.95,0.725,0.725,0.725,0.725,0.95,0.725,0.95,0.95,0.95,0.725,0.725,0.95,0.725,0.725,0.95,0.725,0.725,0.725,0.8304687500000001
明るい,花言葉,0.725,0.95,0.725,0.275,0.725,0.275,0.275,0.275,0.275,0.275,0.725,0.275,0.725,0.275,0.05,0.05,0.275,0.275,0.5,0.5,0.05,0.275,0.725,0.05,0.725,0.05,0.275,0.275,0.05,0.275,0.05,0.05,0.35234375
バラ,桜,0.725,0.95,0.275,0.05,0.275,0.275,0.725,0.05,0.275,0.275,0.725,0.275,0.275,0.05,0.275,0.275,0.5,0.275,0.05,0.275,0.275,0.725,0.5,0.05,0.275,0.275,0.275,0.275,0.5,0.275,0.05,0.275,0.33125000000000004
歯,綺麗,0.725,0.95,0.725,0.725,0.725,0.05,0.05,0.05,0.725,0.05,0.5,0.5,0.05,0.725,0.5,0.275,0.5,0.275,0.725,0.725,0.275,0.95,0.725,0.725,0.95,0.95,0.275,0.725,0.5,0.275,0.275,0.5,0.52109375
桜,美しい,0.95,0.725,0.725,0.95,0.95,0.05,0.95,0.725,0.95,0.95,0.95,0.725,0.95,0.725,0.95,0.95,0.95,0.95,0.725,0.725,0.95,0.95,0.95,0.95,0.95,0.725,0.95,0.725,0.95,0.95,0.275,0.725,0.83046875
綺麗,花言葉,0.95,0.725,0.725,0.95,0.725,0.95,0.275,0.05,0.5,0.275,0.5,0.5,0.725,0.05,0.05,0.05,0.725,0.275,0.275,0.275,0.05,0.275,0.725,0.275,0.5,0.275,0.275,0.275,0.05,0.5,0.275,0.05,0.40859375
明るい,花,0.95,0.95,0.5,0.725,0.725,0.275,0.275,0.05,0.5,0.275,0.725,0.5,0.725,0.5,0.725,0.05,0.5,0.725,0.725,0.5,0.725,0.725,0.95,0.05,0.725,0.275,0.725,0.275,0.725,0.275,0.275,0.5,0.53515625
子供,歯,0.725,0.95,0.275,0.725,0.725,0.95,0.725,0.05,0.275,0.05,0.5,0.275,0.725,0.725,0.5,0.275,0.725,0.275,0.95,0.725,0.725,0.725,0.5,0.275,0.275,0.725,0.05,0.725,0.5,0.5,0.275,0.5,0.528125
赤ちゃん,嬉しい,0.95,0.95,0.725,0.725,0.725,0.05,0.5,0.5,0.5,0.5,0.725,0.5,0.95,0.725,0.725,0.275,0.95,0.5,0.725,0.725,0.95,0.95,0.95,0.275,0.725,0.725,0.5,0.95,0.725,0.275,0.725,0.725,0.66875
子供,花,0.725,0.5,0.275,0.05,0.275,0.05,0.275,0.05,0.275,0.275,0.5,0.275,0.275,0.275,0.275,0.05,0.5,0.275,0.275,0.275,0.5,0.275,0.275,0.05,0.275,0.275,0.275,0.5,0.5,0.05,0.05,0.05,0.275
綺麗,バラ,0.95,0.95,0.725,0.95,0.95,0.275,0.725,0.725,0.95,0.95,0.95,0.725,0.95,0.95,0.95,0.5,0.95,0.5,0.95,0.725,0.725,0.95,0.725,0.95,0.95,0.95,0.5,0.95,0.95,0.725,0.725,0.95,0.8234375
贈り物,桜,0.95,0.95,0.275,0.05,0.275,0.05,0.275,0.275,0.275,0.275,0.275,0.275,0.05,0.05,0.275,0.05,0.5,0.275,0.5,0.5,0.275,0.275,0.275,0.275,0.725,0.05,0.05,0.05,0.275,0.275,0.05,0.05,0.28203125
贈り物,明るい,0.725,0.725,0.725,0.725,0.725,0.275,0.275,0.275,0.5,0.275,0.725,0.5,0.725,0.275,0.275,0.05,0.725,0.725,0.725,0.275,0.5,0.275,0.725,0.05,0.275,0.05,0.725,0.5,0.725,0.275,0.05,0.5,0.46484375
明るい,綺麗,0.95,0.95,0.725,0.725,0.5,0.725,0.5,0.275,0.5,0.275,0.725,0.275,0.725,0.275,0.5,0.05,0.725,0.725,0.5,0.725,0.275,0.725,0.725,0.05,0.5,0.05,0.5,0.275,0.725,0.275,0.275,0.275,0.5
春,明るい,0.725,0.95,0.725,0.725,0.725,0.275,0.725,0.5,0.725,0.725,0.725,0.725,0.95,0.275,0.5,0.275,0.95,0.5,0.725,0.725,0.95,0.725,0.95,0.725,0.725,0.725,0.275,0.725,0.95,0.725,0.275,0.725,0.67578125
贈り物,美しい,0.95,0.95,0.5,0.725,0.5,0.95,0.275,0.05,0.5,0.275,0.5,0.5,0.275,0.05,0.725,0.05,0.275,0.5,0.725,0.275,0.5,0.275,0.725,0.275,0.5,0.05,0.275,0.275,0.725,0.275,0.275,0.05,0.4296875
バラ,喜び,0.95,0.95,0.5,0.725,0.725,0.05,0.5,0.5,0.5,0.275,0.725,0.5,0.95,0.5,0.5,0.275,0.725,0.5,0.725,0.5,0.5,0.725,0.725,0.5,0.725,0.275,0.5,0.275,0.725,0.275,0.05,0.5,0.5421875
喜び,子供,0.95,0.95,0.725,0.725,0.725,0.05,0.95,0.725,0.5,0.05,0.725,0.5,0.725,0.725,0.725,0.5,0.725,0.5,0.725,0.725,0.725,0.95,0.725,0.275,0.275,0.95,0.5,0.95,0.725,0.725,0.725,0.5,0.6546875000000001
バラ,香り,0.95,0.95,0.725,0.95,0.95,0.275,0.95,0.95,0.95,0.725,0.95,0.725,0.95,0.725,0.95,0.95,0.95,0.5,0.95,0.725,0.95,0.95,0.95,0.95,0.95,0.95,0.725,0.725,0.95,0.5,0.725,0.95,0.84453125
美しい,桜,0.95,0.95,0.725,0.95,0.95,0.95,0.725,0.275,0.5,0.95,0.95,0.725,0.95,0.5,0.725,0.5,0.95,0.725,0.95,0.725,0.95,0.95,0.95,0.725,0.95,0.725,0.95,0.5,0.95,0.95,0.275,0.5,0.78125
子供,明るい,0.95,0.95,0.725,0.725,0.725,0.05,0.95,0.725,0.5,0.275,0.725,0.725,0.725,0.725,0.725,0.725,0.725,0.5,0.95,0.725,0.95,0.95,0.95,0.725,0.95,0.725,0.725,0.725,0.725,0.725,0.725,0.5,0.7250000000000001
贈り物,子供,0.725,0.95,0.275,0.275,0.95,0.275,0.95,0.275,0.05,0.05,0.275,0.275,0.725,0.275,0.725,0.05,0.95,0.5,0.5,0.275,0.725,0.725,0.725,0.5,0.725,0.725,0.5,0.05,0.5,0.05,0.725,0.5,0.49296875000000007
歯,花,0.05,0.275,0.275,0.05,0.05,0.275,0.05,0.05,0.05,0.05,0.05,0.05,0.05,0.05,0.05,0.05,0.05,0.05,0.05,0.05,0.05,0.05,0.05,0.05,0.05,0.05,0.05,0.05,0.05,0.05,0.05,0.05,0.07109375
春,バラ,0.275,0.5,0.275,0.05,0.725,0.275,0.95,0.275,0.275,0.725,0.275,0.05,0.275,0.05,0.275,0.725,0.275,0.5,0.275,0.5,0.5,0.05,0.5,0.05,0.05,0.275,0.5,0.275,0.725,0.725,0.05,0.05,0.35234375
贈り物,花言葉,0.95,0.5,0.5,0.725,0.725,0.95,0.275,0.275,0.275,0.275,0.5,0.5,0.275,0.275,0.05,0.05,0.725,0.275,0.5,0.5,0.05,0.725,0.725,0.5,0.275,0.05,0.05,0.275,0.725,0.275,0.05,0.05,0.4015625
香り,春,0.95,0.95,0.725,0.275,0.725,0.725,0.95,0.275,0.725,0.725,0.5,0.275,0.725,0.5,0.725,0.05,0.95,0.275,0.725,0.725,0.95,0.725,0.725,0.725,0.725,0.725,0.5,0.725,0.725,0.05,0.05,0.725,0.6195312500000001
花言葉,楽しい,0.95,0.95,0.725,0.725,0.5,0.95,0.275,0.5,0.275,0.275,0.5,0.275,0.725,0.275,0.275,0.05,0.725,0.5,0.5,0.5,0.275,0.725,0.725,0.05,0.5,0.5,0.05,0.275,0.725,0.275,0.05,0.05,0.45781250000000007
歯,赤ちゃん,0.95,0.725,0.275,0.725,0.725,0.275,0.725,0.05,0.05,0.05,0.275,0.05,0.725,0.5,0.725,0.275,0.05,0.275,0.725,0.725,0.725,0.275,0.5,0.05,0.05,0.5,0.05,0.725,0.725,0.05,0.05,0.275,0.40156250000000004
綺麗,美しい,0.95,0.95,0.725,0.95,0.95,0.725,0.95,0.725,0.95,0.725,0.725,0.95,0.725,0.95,0.725,0.95,0.95,0.95,0.95,0.95,0.95,0.95,0.95,0.95,0.725,0.725,0.95,0.725,0.725,0.95,0.725,0.725,0.8585937499999999
幸せ,嬉しい,0.95,0.95,0.725,0.725,0.725,0.275,0.95,0.725,0.725,0.95,0.725,0.725,0.95,0.725,0.95,0.5,0.95,0.725,0.95,0.95,0.95,0.95,0.95,0.725,0.95,0.95,0.95,0.725,0.95,0.95,0.5,0.725,0.81640625
花,春,0.95,0.725,0.725,0.725,0.95,0.725,0.725,0.725,0.725,0.725,0.725,0.95,0.725,0.95,0.95,0.95,0.95,0.725,0.95,0.725,0.95,0.95,0.95,0.725,0.95,0.725,0.95,0.725,0.95,0.95,0.275,0.725,0.81640625
喜び,楽しい,0.95,0.95,0.725,0.95,0.95,0.725,0.725,0.95,0.5,0.95,0.95,0.95,0.725,0.725,0.725,0.95,0.95,0.95,0.95,0.95,0.725,0.725,0.95,0.725,0.725,0.725,0.95,0.725,0.725,0.95,0.725,0.725,0.83046875
子供,美しい,0.725,0.95,0.275,0.05,0.5,0.275,0.275,0.05,0.275,0.275,0.725,0.275,0.275,0.275,0.5,0.275,0.5,0.275,0.5,0.275,0.95,0.725,0.725,0.05,0.05,0.275,0.275,0.05,0.5,0.275,0.05,0.05,0.359375
春,贈り物,0.725,0.725,0.275,0.725,0.725,0.725,0.275,0.275,0.275,0.275,0.5,0.5,0.275,0.725,0.725,0.275,0.725,0.5,0.725,0.275,0.725,0.725,0.5,0.5,0.725,0.275,0.275,0.275,0.725,0.05,0.05,0.275,0.47890625
春,香り,0.725,0.95,0.725,0.725,0.725,0.725,0.725,0.5,0.275,0.725,0.725,0.275,0.725,0.05,0.95,0.725,0.95,0.5,0.725,0.725,0.95,0.95,0.725,0.725,0.5,0.725,0.725,0.5,0.725,0.5,0.275,0.725,0.6617187499999999
花言葉,美しい,0.725,0.95,0.725,0.725,0.725,0.725,0.95,0.275,0.725,0.275,0.725,0.275,0.725,0.275,0.05,0.95,0.95,0.5,0.5,0.725,0.5,0.95,0.725,0.275,0.5,0.5,0.5,0.725,0.725,0.725,0.275,0.05,0.5914062499999999
子供,嬉しい,0.95,0.95,0.725,0.95,0.725,0.725,0.725,0.5,0.5,0.275,0.725,0.725,0.275,0.5,0.725,0.5,0.725,0.5,0.725,0.725,0.95,0.725,0.725,0.275,0.275,0.725,0.725,0.95,0.725,0.5,0.725,0.725,0.66171875
笑顔,春,0.95,0.725,0.725,0.725,0.725,0.95,0.5,0.5,0.275,0.275,0.725,0.725,0.725,0.5,0.725,0.275,0.725,0.725,0.5,0.5,0.725,0.725,0.5,0.5,0.5,0.05,0.725,0.725,0.275,0.275,0.05,0.275,0.5562499999999999
歯,桜,0.05,0.05,0.275,0.05,0.05,0.05,0.05,0.05,0.05,0.05,0.275,0.05,0.275,0.05,0.05,0.05,0.05,0.05,0.05,0.05,0.05,0.05,0.05,0.05,0.05,0.05,0.05,0.05,0.05,0.05,0.05,0.05,0.07109375
花,花言葉,0.95,0.725,0.725,0.95,0.95,0.95,0.95,0.725,0.725,0.95,0.95,0.95,0.95,0.95,0.95,0.95,0.95,0.725,0.725,0.95,0.5,0.95,0.95,0.725,0.95,0.95,0.725,0.725,0.95,0.95,0.725,0.725,0.8585937499999999
子供,桜,0.5,0.95,0.275,0.05,0.725,0.275,0.275,0.05,0.05,0.05,0.275,0.275,0.275,0.5,0.275,0.05,0.95,0.05,0.725,0.5,0.725,0.5,0.275,0.275,0.05,0.05,0.275,0.5,0.275,0.275,0.275,0.05,0.33125000000000004
贈り物,香り,0.5,0.725,0.5,0.725,0.5,0.275,0.275,0.275,0.5,0.275,0.5,0.5,0.275,0.275,0.275,0.05,0.5,0.5,0.5,0.05,0.5,0.275,0.725,0.5,0.275,0.5,0.275,0.275,0.725,0.275,0.275,0.275,0.4015625
喜び,赤ちゃん,0.725,0.95,0.725,0.725,0.725,0.95,0.95,0.275,0.5,0.275,0.725,0.725,0.95,0.95,0.725,0.275,0.95,0.5,0.725,0.725,0.725,0.95,0.95,0.05,0.725,0.725,0.5,0.95,0.725,0.5,0.275,0.5,0.67578125
花,桜,0.95,0.95,0.725,0.725,0.95,0.275,0.95,0.725,0.725,0.725,0.95,0.95,0.95,0.95,0.725,0.725,0.95,0.725,0.95,0.95,0.95,0.95,0.95,0.95,0.95,0.725,0.725,0.725,0.95,0.95,0.275,0.725,0.8234375
香り,桜,0.95,0.95,0.5,0.95,0.725,0.05,0.95,0.275,0.275,0.725,0.275,0.275,0.725,0.5,0.725,0.725,0.95,0.275,0.725,0.725,0.5,0.725,0.725,0.5,0.725,0.275,0.275,0.275,0.95,0.275,0.275,0.725,0.57734375
花,香り,0.95,0.95,0.95,0.95,0.95,0.725,0.95,0.95,0.725,0.725,0.95,0.95,0.95,0.95,0.95,0.95,0.95,0.725,0.95,0.725,0.95,0.95,0.95,0.95,0.95,0.5,0.95,0.95,0.95,0.725,0.95,0.95,0.89375
