dom,cod,weight_1,weight_2,weight_3,weight_4,weight_5,weight_6,weight_7,weight_8,weight_9,weight_10,weight_11,weight_12,weight_13,weight_14,weight_15,weight_16,weight_17,weight_18,weight_19,weight_20,weight_21,weight_22,weight_23,weight_24,weight_25,weight_26,weight_27,weight_28,weight_29,weight_mean
眠い,うさぎ,0.05,0.05,0.05,0.05,0.275,0.05,0.05,0.05,0.05,0.05,0.05,0.05,0.275,0.275,0.275,0.05,0.275,0.275,0.05,0.05,0.05,0.275,0.275,0.05,0.05,0.05,0.05,0.275,0.275,0.1275862068965517
満月,寝不足,0.275,0.275,0.05,0.05,0.275,0.05,0.275,0.275,0.275,0.05,0.05,0.275,0.275,0.275,0.05,0.275,0.5,0.275,0.275,0.05,0.05,0.725,0.275,0.05,0.05,0.05,0.05,0.275,0.5,0.21293103448275866
疲れ,あくび,0.95,0.95,0.725,0.5,0.725,0.95,0.725,0.5,0.725,0.725,0.725,0.5,0.95,0.725,0.725,0.95,0.725,0.95,0.725,0.725,0.95,0.725,0.725,0.275,0.05,0.5,0.275,0.725,0.5,0.6862068965517242
眠気,眠い,0.95,0.95,0.95,0.95,0.95,0.95,0.95,0.95,0.725,0.95,0.95,0.95,0.95,0.95,0.95,0.95,0.725,0.95,0.95,0.95,0.95,0.95,0.725,0.95,0.95,0.95,0.725,0.95,0.725,0.9112068965517242
涙,団子,0.05,0.05,0.05,0.05,0.275,0.05,0.05,0.05,0.275,0.05,0.05,0.05,0.5,0.275,0.275,0.05,0.275,0.275,0.05,0.05,0.05,0.05,0.275,0.05,0.05,0.05,0.05,0.05,0.5,0.1353448275862069
疲れ,眠い,0.95,0.95,0.95,0.5,0.95,0.95,0.95,0.725,0.725,0.725,0.95,0.725,0.95,0.95,0.95,0.95,0.725,0.725,0.725,0.95,0.95,0.725,0.725,0.95,0.275,0.725,0.5,0.95,0.725,0.8103448275862069
涙,満月,0.275,0.05,0.05,0.05,0.275,0.05,0.275,0.275,0.275,0.05,0.05,0.05,0.05,0.275,0.275,0.05,0.5,0.275,0.05,0.05,0.05,0.275,0.05,0.05,0.05,0.05,0.05,0.275,0.275,0.15086206896551724
涙,疲れ,0.275,0.725,0.275,0.05,0.275,0.05,0.275,0.275,0.275,0.05,0.05,0.275,0.725,0.725,0.275,0.275,0.725,0.5,0.275,0.05,0.5,0.5,0.275,0.275,0.05,0.725,0.05,0.725,0.5,0.3448275862068966
狼,丸い,0.05,0.05,0.05,0.05,0.275,0.05,0.725,0.05,0.275,0.05,0.05,0.5,0.275,0.05,0.05,0.725,0.275,0.275,0.05,0.725,0.5,0.275,0.275,0.275,0.05,0.05,0.05,0.275,0.725,0.24396551724137933
団子,涙,0.05,0.05,0.05,0.05,0.275,0.05,0.05,0.05,0.275,0.05,0.05,0.05,0.275,0.275,0.275,0.05,0.275,0.275,0.05,0.05,0.05,0.05,0.275,0.05,0.05,0.05,0.05,0.275,0.275,0.1275862068965517
団子,つまらない,0.275,0.05,0.05,0.05,0.275,0.05,0.05,0.05,0.275,0.05,0.05,0.05,0.05,0.05,0.05,0.05,0.275,0.275,0.05,0.05,0.05,0.275,0.05,0.05,0.05,0.05,0.05,0.05,0.275,0.1043103448275862
口,寝不足,0.05,0.05,0.05,0.05,0.275,0.05,0.05,0.05,0.05,0.05,0.05,0.05,0.275,0.725,0.275,0.05,0.275,0.275,0.05,0.5,0.5,0.05,0.275,0.05,0.05,0.05,0.05,0.725,0.275,0.1818965517241379
口,十五夜,0.05,0.05,0.05,0.05,0.275,0.05,0.275,0.05,0.05,0.05,0.05,0.05,0.05,0.5,0.275,0.05,0.275,0.275,0.05,0.275,0.05,0.275,0.5,0.05,0.05,0.05,0.05,0.05,0.05,0.13534482758620686
月見,寝不足,0.275,0.5,0.05,0.05,0.5,0.05,0.275,0.275,0.275,0.05,0.05,0.05,0.05,0.275,0.275,0.05,0.5,0.275,0.275,0.725,0.05,0.275,0.275,0.275,0.05,0.05,0.275,0.275,0.725,0.24396551724137935
満月,月見,0.725,0.95,0.95,0.95,0.95,0.95,0.95,0.725,0.725,0.95,0.95,0.725,0.95,0.725,0.95,0.725,0.95,0.95,0.725,0.95,0.95,0.95,0.725,0.95,0.5,0.95,0.5,0.95,0.725,0.8491379310344828
団子,睡眠,0.05,0.05,0.05,0.05,0.275,0.05,0.05,0.05,0.05,0.05,0.05,0.05,0.05,0.275,0.05,0.05,0.275,0.275,0.05,0.05,0.05,0.05,0.05,0.05,0.05,0.05,0.05,0.275,0.05,0.08879310344827583
狼,睡眠,0.95,0.05,0.05,0.05,0.5,0.05,0.05,0.05,0.05,0.05,0.05,0.05,0.275,0.05,0.275,0.05,0.275,0.275,0.05,0.05,0.05,0.725,0.05,0.275,0.05,0.05,0.05,0.275,0.05,0.16637931034482756
眠い,あくび,0.95,0.95,0.95,0.725,0.95,0.95,0.95,0.95,0.725,0.95,0.95,0.275,0.95,0.95,0.95,0.95,0.725,0.95,0.95,0.95,0.95,0.95,0.725,0.95,0.725,0.95,0.725,0.95,0.95,0.8801724137931035
団子,疲れ,0.275,0.05,0.05,0.05,0.275,0.05,0.05,0.05,0.275,0.05,0.05,0.05,0.05,0.05,0.275,0.05,0.5,0.275,0.05,0.05,0.05,0.275,0.05,0.05,0.05,0.05,0.05,0.05,0.275,0.11982758620689653
口,あくび,0.275,0.95,0.5,0.725,0.725,0.95,0.725,0.725,0.275,0.725,0.725,0.275,0.95,0.725,0.95,0.725,0.725,0.725,0.725,0.95,0.725,0.725,0.725,0.725,0.725,0.95,0.275,0.95,0.95,0.7172413793103447
睡眠,口,0.05,0.05,0.05,0.05,0.275,0.05,0.725,0.05,0.05,0.05,0.05,0.275,0.725,0.725,0.275,0.05,0.275,0.275,0.275,0.05,0.5,0.275,0.275,0.725,0.05,0.05,0.05,0.725,0.5,0.2594827586206896
寝不足,狼,0.05,0.05,0.05,0.05,0.275,0.05,0.05,0.05,0.275,0.05,0.05,0.05,0.05,0.275,0.05,0.05,0.5,0.275,0.05,0.05,0.05,0.5,0.05,0.05,0.05,0.05,0.05,0.05,0.05,0.11206896551724135
十五夜,眠気,0.05,0.05,0.05,0.05,0.275,0.05,0.275,0.275,0.05,0.05,0.05,0.05,0.275,0.275,0.275,0.05,0.5,0.275,0.05,0.05,0.05,0.725,0.275,0.05,0.05,0.5,0.05,0.275,0.725,0.19741379310344825
丸い,眠気,0.275,0.05,0.05,0.05,0.275,0.05,0.05,0.05,0.275,0.05,0.05,0.05,0.275,0.275,0.05,0.05,0.275,0.275,0.05,0.05,0.05,0.5,0.5,0.05,0.05,0.05,0.5,0.275,0.5,0.17413793103448275
涙,狼,0.05,0.05,0.05,0.05,0.275,0.05,0.05,0.05,0.275,0.05,0.05,0.05,0.05,0.275,0.05,0.05,0.275,0.05,0.05,0.05,0.05,0.5,0.275,0.275,0.05,0.05,0.05,0.275,0.05,0.11982758620689653
明るい,満月,0.275,0.275,0.725,0.5,0.725,0.95,0.275,0.725,0.725,0.275,0.725,0.05,0.95,0.95,0.725,0.725,0.725,0.725,0.95,0.725,0.725,0.725,0.725,0.725,0.275,0.5,0.275,0.725,0.725,0.6241379310344828
眠気,あくび,0.95,0.95,0.725,0.725,0.95,0.95,0.725,0.95,0.725,0.95,0.95,0.05,0.95,0.95,0.95,0.95,0.95,0.725,0.95,0.95,0.95,0.95,0.725,0.95,0.5,0.95,0.725,0.95,0.725,0.8413793103448275
眠い,十五夜,0.05,0.05,0.05,0.275,0.275,0.05,0.05,0.275,0.275,0.05,0.05,0.05,0.5,0.5,0.275,0.05,0.5,0.5,0.05,0.05,0.275,0.275,0.275,0.275,0.05,0.05,0.05,0.725,0.275,0.2129310344827586
涙,眠気,0.275,0.95,0.5,0.275,0.725,0.05,0.5,0.05,0.5,0.275,0.275,0.275,0.725,0.725,0.725,0.275,0.5,0.5,0.5,0.05,0.5,0.725,0.5,0.275,0.05,0.275,0.275,0.725,0.725,0.43793103448275866
口,明るい,0.95,0.05,0.05,0.05,0.275,0.05,0.05,0.05,0.275,0.05,0.05,0.05,0.275,0.275,0.275,0.05,0.275,0.275,0.05,0.275,0.275,0.05,0.275,0.275,0.05,0.05,0.05,0.725,0.05,0.18965517241379307
満月,眠い,0.275,0.725,0.05,0.05,0.275,0.05,0.05,0.275,0.275,0.05,0.275,0.05,0.5,0.5,0.275,0.725,0.5,0.5,0.275,0.275,0.275,0.275,0.5,0.05,0.05,0.5,0.05,0.725,0.275,0.2982758620689655
十五夜,明るい,0.725,0.05,0.95,0.5,0.725,0.725,0.725,0.5,0.725,0.05,0.725,0.05,0.95,0.725,0.725,0.725,0.725,0.725,0.725,0.05,0.725,0.725,0.95,0.725,0.275,0.725,0.5,0.725,0.725,0.6163793103448276
眠気,明るい,0.05,0.05,0.05,0.05,0.275,0.05,0.05,0.05,0.275,0.05,0.05,0.05,0.275,0.5,0.275,0.05,0.275,0.275,0.725,0.05,0.05,0.275,0.275,0.725,0.05,0.05,0.05,0.275,0.725,0.20517241379310344
あくび,夜,0.725,0.95,0.725,0.725,0.725,0.95,0.725,0.5,0.5,0.05,0.5,0.275,0.725,0.5,0.725,0.725,0.725,0.725,0.725,0.95,0.725,0.725,0.275,0.725,0.05,0.725,0.275,0.95,0.725,0.6318965517241381
眠い,疲れ,0.95,0.95,0.95,0.5,0.95,0.95,0.725,0.725,0.5,0.725,0.5,0.725,0.95,0.725,0.95,0.725,0.725,0.725,0.725,0.95,0.95,0.725,0.725,0.95,0.725,0.725,0.725,0.95,0.725,0.7870689655172416
疲れ,狼,0.05,0.05,0.05,0.05,0.275,0.05,0.05,0.05,0.05,0.05,0.05,0.05,0.05,0.05,0.05,0.05,0.275,0.275,0.05,0.05,0.05,0.275,0.275,0.05,0.05,0.05,0.05,0.05,0.05,0.08879310344827583
眠い,狼,0.725,0.05,0.05,0.05,0.275,0.05,0.05,0.05,0.05,0.05,0.05,0.05,0.05,0.275,0.275,0.275,0.275,0.275,0.05,0.05,0.05,0.5,0.725,0.275,0.05,0.05,0.05,0.05,0.05,0.16637931034482756
涙,明るい,0.05,0.05,0.05,0.05,0.275,0.05,0.05,0.05,0.275,0.05,0.05,0.05,0.275,0.275,0.275,0.05,0.275,0.275,0.05,0.05,0.05,0.275,0.275,0.275,0.05,0.05,0.05,0.275,0.275,0.14310344827586205
うさぎ,あくび,0.05,0.05,0.05,0.05,0.275,0.05,0.05,0.05,0.05,0.05,0.05,0.05,0.05,0.275,0.275,0.05,0.275,0.275,0.05,0.05,0.05,0.275,0.05,0.05,0.05,0.05,0.05,0.05,0.275,0.10431034482758618
満月,うさぎ,0.95,0.95,0.95,0.95,0.95,0.95,0.95,0.725,0.725,0.725,0.95,0.5,0.95,0.725,0.95,0.725,0.95,0.725,0.725,0.95,0.95,0.95,0.95,0.725,0.725,0.95,0.725,0.95,0.725,0.8491379310344829
疲れ,夜,0.5,0.725,0.725,0.725,0.725,0.725,0.05,0.5,0.275,0.275,0.275,0.5,0.725,0.725,0.95,0.725,0.725,0.725,0.5,0.95,0.725,0.95,0.725,0.725,0.05,0.5,0.05,0.725,0.725,0.5931034482758621
丸い,あくび,0.05,0.05,0.05,0.05,0.275,0.05,0.05,0.275,0.275,0.05,0.05,0.05,0.5,0.275,0.5,0.05,0.275,0.275,0.05,0.05,0.5,0.05,0.275,0.05,0.05,0.05,0.05,0.725,0.275,0.1818965517241379
あくび,団子,0.275,0.05,0.05,0.05,0.275,0.05,0.05,0.05,0.05,0.05,0.05,0.05,0.05,0.05,0.275,0.05,0.275,0.275,0.05,0.05,0.05,0.05,0.05,0.05,0.05,0.05,0.05,0.05,0.275,0.09655172413793102
疲れ,月見,0.275,0.05,0.05,0.05,0.275,0.05,0.05,0.05,0.275,0.05,0.05,0.05,0.05,0.275,0.05,0.05,0.725,0.275,0.05,0.05,0.05,0.05,0.05,0.05,0.05,0.05,0.05,0.275,0.05,0.11982758620689653
狼,眠い,0.05,0.05,0.05,0.05,0.275,0.05,0.05,0.05,0.275,0.05,0.05,0.05,0.05,0.275,0.05,0.05,0.275,0.275,0.05,0.05,0.05,0.5,0.275,0.275,0.05,0.05,0.05,0.275,0.05,0.1275862068965517
団子,寝不足,0.05,0.05,0.05,0.05,0.275,0.05,0.05,0.05,0.275,0.05,0.05,0.05,0.05,0.05,0.05,0.05,0.05,0.275,0.05,0.05,0.05,0.05,0.05,0.05,0.05,0.05,0.05,0.05,0.05,0.0732758620689655
夜,寝不足,0.725,0.95,0.725,0.5,0.5,0.725,0.725,0.725,0.5,0.275,0.725,0.5,0.725,0.725,0.725,0.725,0.725,0.95,0.725,0.725,0.725,0.725,0.5,0.725,0.725,0.95,0.275,0.725,0.725,0.678448275862069
口,睡眠,0.95,0.05,0.05,0.05,0.275,0.05,0.05,0.05,0.05,0.05,0.05,0.05,0.725,0.5,0.275,0.05,0.275,0.5,0.05,0.05,0.5,0.275,0.275,0.275,0.05,0.275,0.05,0.05,0.5,0.22068965517241376
団子,満月,0.05,0.95,0.725,0.725,0.725,0.725,0.725,0.5,0.725,0.275,0.725,0.05,0.725,0.5,0.725,0.725,0.95,0.95,0.725,0.725,0.725,0.95,0.725,0.95,0.05,0.5,0.5,0.725,0.725,0.6474137931034484
夜,うさぎ,0.275,0.05,0.05,0.05,0.5,0.05,0.5,0.5,0.275,0.05,0.725,0.05,0.5,0.5,0.5,0.275,0.5,0.725,0.275,0.5,0.275,0.275,0.5,0.275,0.05,0.275,0.05,0.5,0.5,0.3293103448275863
月見,眠気,0.275,0.725,0.05,0.05,0.275,0.05,0.05,0.275,0.05,0.05,0.275,0.05,0.275,0.5,0.275,0.05,0.5,0.275,0.05,0.725,0.275,0.725,0.275,0.05,0.05,0.05,0.05,0.5,0.725,0.25948275862068965
つまらない,十五夜,0.05,0.05,0.05,0.05,0.275,0.05,0.05,0.05,0.05,0.05,0.05,0.05,0.05,0.275,0.275,0.05,0.5,0.275,0.05,0.275,0.275,0.275,0.05,0.05,0.05,0.05,0.05,0.275,0.275,0.13534482758620686
狼,明るい,0.05,0.05,0.05,0.05,0.275,0.05,0.05,0.05,0.275,0.05,0.05,0.05,0.05,0.275,0.275,0.05,0.275,0.275,0.05,0.05,0.275,0.05,0.725,0.275,0.05,0.05,0.05,0.275,0.05,0.14310344827586208
狼,夜,0.05,0.725,0.725,0.05,0.725,0.05,0.725,0.725,0.725,0.275,0.275,0.05,0.275,0.725,0.725,0.725,0.725,0.275,0.275,0.725,0.725,0.95,0.95,0.725,0.05,0.725,0.725,0.725,0.725,0.546551724137931
団子,狼,0.05,0.05,0.05,0.05,0.275,0.05,0.275,0.05,0.275,0.05,0.05,0.05,0.05,0.05,0.05,0.05,0.275,0.275,0.05,0.05,0.05,0.275,0.275,0.05,0.05,0.05,0.05,0.275,0.05,0.11206896551724137
睡眠,疲れ,0.725,0.95,0.725,0.5,0.725,0.725,0.725,0.725,0.725,0.275,0.725,0.725,0.95,0.725,0.725,0.5,0.725,0.95,0.725,0.725,0.725,0.725,0.725,0.725,0.725,0.725,0.5,0.725,0.725,0.7094827586206898
眠気,十五夜,0.275,0.725,0.05,0.05,0.275,0.05,0.05,0.5,0.275,0.05,0.05,0.05,0.05,0.5,0.275,0.275,0.275,0.5,0.275,0.05,0.05,0.275,0.275,0.275,0.05,0.05,0.05,0.275,0.05,0.20517241379310344
月見,団子,0.95,0.95,0.95,0.95,0.95,0.95,0.95,0.95,0.725,0.95,0.95,0.725,0.95,0.725,0.95,0.95,0.95,0.95,0.95,0.95,0.95,0.95,0.95,0.95,0.95,0.725,0.5,0.95,0.725,0.8956896551724138
狼,十五夜,0.95,0.05,0.05,0.05,0.725,0.05,0.5,0.5,0.275,0.05,0.05,0.275,0.05,0.725,0.725,0.05,0.275,0.5,0.05,0.05,0.5,0.95,0.725,0.05,0.05,0.95,0.05,0.725,0.5,0.36034482758620695
口,満月,0.05,0.05,0.05,0.05,0.275,0.05,0.05,0.05,0.05,0.05,0.05,0.275,0.5,0.275,0.275,0.05,0.05,0.275,0.05,0.05,0.275,0.275,0.05,0.05,0.05,0.05,0.05,0.05,0.05,0.11982758620689654
丸い,涙,0.05,0.05,0.05,0.05,0.275,0.05,0.275,0.05,0.275,0.05,0.05,0.05,0.5,0.275,0.275,0.05,0.275,0.5,0.05,0.05,0.275,0.275,0.275,0.275,0.05,0.05,0.05,0.275,0.5,0.18189655172413793
睡眠,寝不足,0.95,0.95,0.95,0.5,0.95,0.95,0.95,0.725,0.725,0.95,0.95,0.95,0.95,0.95,0.725,0.95,0.725,0.95,0.95,0.725,0.725,0.95,0.725,0.725,0.725,0.95,0.5,0.95,0.725,0.8413793103448275
あくび,寝不足,0.95,0.95,0.95,0.725,0.95,0.95,0.725,0.95,0.725,0.95,0.95,0.725,0.95,0.95,0.725,0.95,0.95,0.95,0.95,0.95,0.95,0.95,0.725,0.95,0.05,0.95,0.725,0.95,0.725,0.8568965517241378
睡眠,明るい,0.275,0.05,0.05,0.05,0.275,0.05,0.05,0.05,0.275,0.05,0.05,0.05,0.05,0.5,0.275,0.05,0.275,0.5,0.05,0.05,0.05,0.5,0.275,0.725,0.05,0.05,0.05,0.275,0.725,0.19741379310344825
涙,つまらない,0.275,0.5,0.5,0.275,0.275,0.05,0.5,0.275,0.275,0.05,0.05,0.05,0.725,0.725,0.725,0.05,0.5,0.275,0.05,0.275,0.5,0.275,0.05,0.275,0.05,0.5,0.05,0.725,0.725,0.32931034482758625
睡眠,団子,0.05,0.05,0.05,0.05,0.275,0.05,0.05,0.05,0.275,0.05,0.05,0.05,0.05,0.05,0.05,0.05,0.275,0.275,0.05,0.05,0.05,0.275,0.05,0.05,0.05,0.05,0.05,0.05,0.275,0.09655172413793102
涙,十五夜,0.275,0.05,0.275,0.05,0.275,0.05,0.05,0.05,0.05,0.05,0.05,0.05,0.05,0.05,0.275,0.05,0.5,0.275,0.05,0.05,0.05,0.05,0.05,0.05,0.05,0.05,0.05,0.275,0.275,0.11982758620689654
明るい,寝不足,0.5,0.05,0.05,0.05,0.275,0.05,0.05,0.05,0.275,0.05,0.275,0.05,0.725,0.725,0.275,0.05,0.275,0.725,0.275,0.05,0.5,0.275,0.275,0.275,0.05,0.05,0.05,0.275,0.725,0.2517241379310345
口,眠気,0.05,0.05,0.05,0.05,0.275,0.05,0.5,0.05,0.275,0.05,0.05,0.05,0.5,0.5,0.275,0.05,0.275,0.275,0.05,0.05,0.275,0.275,0.275,0.05,0.05,0.05,0.05,0.725,0.5,0.19741379310344825
月見,うさぎ,0.725,0.95,0.95,0.725,0.95,0.95,0.95,0.95,0.725,0.275,0.95,0.725,0.725,0.725,0.95,0.95,0.95,0.95,0.5,0.95,0.95,0.95,0.95,0.725,0.725,0.725,0.725,0.95,0.725,0.8258620689655175
丸い,寝不足,0.05,0.05,0.05,0.05,0.275,0.05,0.05,0.275,0.275,0.05,0.05,0.05,0.275,0.05,0.275,0.05,0.275,0.275,0.05,0.05,0.05,0.05,0.275,0.05,0.05,0.05,0.05,0.275,0.05,0.11982758620689653
丸い,夜,0.95,0.05,0.05,0.05,0.5,0.05,0.275,0.05,0.275,0.05,0.05,0.05,0.275,0.275,0.275,0.05,0.5,0.5,0.05,0.05,0.05,0.05,0.275,0.275,0.725,0.275,0.05,0.275,0.725,0.24396551724137933
十五夜,寝不足,0.275,0.05,0.05,0.05,0.275,0.05,0.05,0.275,0.275,0.05,0.05,0.05,0.275,0.5,0.275,0.05,0.5,0.5,0.05,0.05,0.05,0.725,0.275,0.05,0.05,0.05,0.05,0.725,0.275,0.20517241379310341
明るい,つまらない,0.05,0.05,0.05,0.05,0.275,0.05,0.05,0.05,0.05,0.05,0.05,0.05,0.05,0.5,0.275,0.05,0.275,0.275,0.05,0.05,0.05,0.5,0.275,0.05,0.05,0.05,0.05,0.275,0.5,0.14310344827586208
つまらない,眠気,0.725,0.95,0.05,0.725,0.725,0.95,0.275,0.5,0.725,0.725,0.725,0.5,0.95,0.95,0.725,0.5,0.725,0.5,0.05,0.95,0.725,0.725,0.725,0.95,0.5,0.725,0.5,0.95,0.725,0.6706896551724137
狼,疲れ,0.05,0.05,0.05,0.05,0.275,0.05,0.05,0.05,0.275,0.05,0.05,0.05,0.05,0.05,0.05,0.05,0.275,0.275,0.05,0.05,0.05,0.275,0.275,0.05,0.05,0.05,0.05,0.275,0.05,0.10431034482758618
うさぎ,寝不足,0.05,0.05,0.05,0.05,0.275,0.05,0.05,0.05,0.275,0.05,0.05,0.05,0.275,0.275,0.275,0.05,0.5,0.275,0.05,0.05,0.05,0.05,0.05,0.05,0.05,0.05,0.05,0.05,0.5,0.1275862068965517
あくび,月見,0.275,0.05,0.275,0.05,0.275,0.05,0.05,0.05,0.275,0.05,0.05,0.275,0.05,0.275,0.05,0.05,0.275,0.275,0.05,0.725,0.05,0.5,0.275,0.05,0.05,0.05,0.05,0.275,0.5,0.1818965517241379
睡眠,涙,0.275,0.725,0.275,0.275,0.275,0.05,0.275,0.275,0.275,0.05,0.275,0.275,0.725,0.5,0.275,0.05,0.275,0.5,0.5,0.05,0.5,0.725,0.275,0.275,0.05,0.275,0.05,0.725,0.725,0.3370689655172414
満月,団子,0.275,0.725,0.95,0.725,0.725,0.95,0.95,0.5,0.725,0.725,0.725,0.275,0.725,0.5,0.725,0.725,0.725,0.725,0.725,0.5,0.725,0.725,0.725,0.95,0.275,0.725,0.275,0.725,0.725,0.6706896551724137
つまらない,満月,0.275,0.05,0.05,0.05,0.275,0.05,0.05,0.05,0.275,0.05,0.05,0.05,0.275,0.275,0.05,0.05,0.5,0.275,0.05,0.05,0.05,0.05,0.05,0.05,0.05,0.05,0.05,0.275,0.05,0.11982758620689653
うさぎ,口,0.05,0.05,0.05,0.275,0.275,0.05,0.05,0.275,0.05,0.275,0.05,0.275,0.275,0.275,0.275,0.05,0.275,0.275,0.05,0.275,0.05,0.05,0.275,0.275,0.05,0.05,0.05,0.05,0.05,0.1508620689655172
口,月見,0.05,0.05,0.05,0.05,0.275,0.05,0.05,0.275,0.275,0.05,0.05,0.05,0.275,0.275,0.275,0.05,0.275,0.275,0.05,0.275,0.275,0.275,0.275,0.05,0.05,0.05,0.05,0.05,0.05,0.14310344827586205
眠い,つまらない,0.725,0.725,0.5,0.725,0.725,0.725,0.725,0.5,0.5,0.275,0.05,0.5,0.725,0.725,0.725,0.05,0.5,0.275,0.05,0.95,0.725,0.725,0.725,0.725,0.05,0.725,0.5,0.725,0.05,0.5387931034482759
つまらない,寝不足,0.275,0.725,0.5,0.05,0.5,0.275,0.275,0.275,0.275,0.05,0.05,0.275,0.95,0.725,0.5,0.05,0.5,0.275,0.05,0.05,0.5,0.5,0.275,0.275,0.05,0.5,0.05,0.725,0.05,0.3293103448275863
団子,夜,0.275,0.05,0.05,0.05,0.275,0.95,0.275,0.05,0.5,0.275,0.275,0.05,0.5,0.275,0.275,0.05,0.5,0.5,0.275,0.05,0.05,0.725,0.275,0.275,0.05,0.05,0.05,0.275,0.275,0.25948275862068965
十五夜,眠い,0.275,0.05,0.05,0.05,0.5,0.05,0.275,0.275,0.275,0.05,0.275,0.05,0.725,0.5,0.275,0.05,0.5,0.5,0.275,0.05,0.05,0.5,0.275,0.05,0.05,0.275,0.05,0.725,0.5,0.25948275862068965
満月,丸い,0.725,0.95,0.95,0.725,0.95,0.95,0.95,0.95,0.725,0.95,0.725,0.725,0.95,0.95,0.95,0.95,0.725,0.95,0.95,0.95,0.95,0.725,0.95,0.95,0.95,0.95,0.95,0.725,0.95,0.8879310344827587
眠気,口,0.05,0.05,0.05,0.05,0.275,0.05,0.05,0.05,0.05,0.275,0.05,0.05,0.725,0.725,0.5,0.05,0.5,0.275,0.275,0.05,0.5,0.275,0.275,0.05,0.05,0.05,0.275,0.725,0.5,0.23620689655172414
団子,丸い,0.95,0.95,0.725,0.725,0.95,0.95,0.95,0.725,0.725,0.725,0.95,0.05,0.95,0.725,0.95,0.95,0.725,0.95,0.725,0.95,0.95,0.95,0.95,0.95,0.95,0.95,0.725,0.725,0.95,0.8413793103448277
口,眠い,0.275,0.05,0.05,0.05,0.275,0.05,0.275,0.05,0.275,0.275,0.05,0.275,0.725,0.725,0.5,0.05,0.05,0.275,0.05,0.275,0.275,0.275,0.275,0.05,0.05,0.05,0.05,0.275,0.5,0.22068965517241382
団子,口,0.05,0.05,0.725,0.275,0.725,0.5,0.725,0.5,0.275,0.05,0.05,0.05,0.725,0.725,0.275,0.05,0.725,0.725,0.5,0.95,0.5,0.725,0.725,0.275,0.05,0.5,0.5,0.5,0.725,0.453448275862069
つまらない,月見,0.275,0.05,0.05,0.05,0.275,0.05,0.05,0.275,0.275,0.05,0.05,0.05,0.5,0.275,0.05,0.05,0.275,0.275,0.05,0.5,0.275,0.275,0.275,0.05,0.05,0.05,0.05,0.275,0.05,0.16637931034482759
丸い,疲れ,0.05,0.05,0.05,0.05,0.275,0.05,0.05,0.05,0.275,0.05,0.05,0.05,0.275,0.275,0.05,0.05,0.275,0.275,0.05,0.05,0.05,0.05,0.275,0.05,0.05,0.05,0.05,0.05,0.5,0.11982758620689654
つまらない,狼,0.05,0.05,0.05,0.05,0.275,0.05,0.05,0.05,0.275,0.05,0.05,0.05,0.05,0.05,0.05,0.05,0.05,0.275,0.05,0.05,0.05,0.05,0.05,0.05,0.05,0.05,0.05,0.275,0.05,0.08103448275862067
あくび,眠気,0.95,0.95,0.95,0.725,0.95,0.95,0.275,0.95,0.725,0.95,0.95,0.725,0.95,0.95,0.95,0.95,0.725,0.725,0.95,0.95,0.95,0.95,0.95,0.95,0.95,0.95,0.725,0.95,0.725,0.8724137931034484
狼,うさぎ,0.05,0.05,0.05,0.05,0.275,0.05,0.05,0.5,0.5,0.275,0.275,0.05,0.275,0.5,0.5,0.05,0.275,0.275,0.5,0.05,0.275,0.725,0.5,0.725,0.05,0.725,0.05,0.725,0.725,0.3137931034482758
丸い,狼,0.05,0.05,0.05,0.05,0.275,0.05,0.725,0.275,0.05,0.05,0.05,0.275,0.275,0.05,0.275,0.725,0.275,0.05,0.05,0.725,0.5,0.05,0.275,0.275,0.05,0.05,0.05,0.725,0.275,0.22844827586206892
あくび,狼,0.05,0.05,0.05,0.05,0.275,0.05,0.05,0.05,0.275,0.05,0.05,0.05,0.05,0.05,0.275,0.05,0.275,0.275,0.05,0.05,0.05,0.275,0.275,0.05,0.05,0.05,0.05,0.05,0.275,0.11206896551724137
満月,あくび,0.5,0.05,0.05,0.05,0.275,0.05,0.05,0.05,0.275,0.05,0.05,0.05,0.275,0.275,0.275,0.05,0.275,0.275,0.05,0.05,0.05,0.05,0.275,0.05,0.05,0.5,0.05,0.275,0.725,0.17413793103448275
疲れ,つまらない,0.5,0.725,0.275,0.5,0.95,0.05,0.725,0.275,0.5,0.275,0.05,0.275,0.725,0.725,0.5,0.275,0.5,0.5,0.05,0.05,0.5,0.725,0.5,0.275,0.05,0.725,0.05,0.725,0.725,0.43793103448275866
うさぎ,丸い,0.95,0.05,0.05,0.05,0.275,0.05,0.05,0.275,0.275,0.05,0.275,0.275,0.725,0.275,0.275,0.275,0.725,0.275,0.275,0.5,0.05,0.275,0.725,0.275,0.05,0.5,0.05,0.725,0.05,0.2982758620689655
うさぎ,満月,0.95,0.725,0.725,0.95,0.95,0.725,0.725,0.725,0.725,0.05,0.725,0.5,0.725,0.725,0.95,0.275,0.95,0.95,0.725,0.95,0.5,0.725,0.725,0.725,0.725,0.725,0.5,0.95,0.725,0.7250000000000001
満月,口,0.05,0.05,0.05,0.05,0.275,0.05,0.05,0.05,0.05,0.05,0.05,0.05,0.275,0.275,0.275,0.05,0.05,0.275,0.05,0.05,0.275,0.275,0.275,0.05,0.05,0.05,0.05,0.05,0.05,0.11206896551724137
睡眠,夜,0.95,0.95,0.95,0.95,0.95,0.95,0.95,0.725,0.725,0.725,0.725,0.95,0.95,0.95,0.95,0.95,0.95,0.95,0.95,0.95,0.95,0.95,0.95,0.95,0.725,0.95,0.5,0.725,0.725,0.8801724137931035
口,疲れ,0.05,0.05,0.05,0.05,0.275,0.05,0.05,0.05,0.275,0.05,0.05,0.05,0.275,0.5,0.5,0.05,0.275,0.275,0.05,0.275,0.275,0.275,0.275,0.05,0.05,0.275,0.05,0.725,0.725,0.20517241379310341
口,狼,0.05,0.05,0.05,0.05,0.275,0.05,0.05,0.275,0.05,0.05,0.05,0.05,0.5,0.5,0.275,0.05,0.275,0.05,0.725,0.05,0.05,0.275,0.275,0.725,0.05,0.05,0.05,0.725,0.725,0.22068965517241376
十五夜,涙,0.05,0.05,0.5,0.05,0.275,0.05,0.05,0.05,0.05,0.05,0.05,0.05,0.275,0.275,0.05,0.05,0.5,0.275,0.05,0.05,0.05,0.05,0.275,0.05,0.05,0.5,0.05,0.275,0.5,0.1586206896551724
狼,月見,0.95,0.05,0.5,0.05,0.95,0.05,0.725,0.95,0.05,0.05,0.275,0.275,0.05,0.275,0.275,0.05,0.725,0.5,0.05,0.05,0.05,0.725,0.275,0.05,0.05,0.95,0.05,0.95,0.275,0.3525862068965518
満月,つまらない,0.275,0.05,0.05,0.05,0.275,0.05,0.05,0.05,0.275,0.05,0.05,0.05,0.275,0.275,0.275,0.05,0.5,0.275,0.05,0.05,0.05,0.05,0.05,0.05,0.05,0.05,0.05,0.275,0.5,0.14310344827586205
つまらない,あくび,0.95,0.95,0.725,0.725,0.725,0.95,0.725,0.95,0.725,0.275,0.725,0.05,0.95,0.725,0.95,0.95,0.725,0.275,0.05,0.95,0.725,0.95,0.725,0.95,0.725,0.95,0.725,0.725,0.725,0.7327586206896552
睡眠,満月,0.275,0.5,0.5,0.05,0.275,0.05,0.275,0.275,0.275,0.05,0.05,0.275,0.5,0.275,0.275,0.275,0.275,0.275,0.275,0.5,0.05,0.275,0.05,0.05,0.05,0.5,0.05,0.725,0.725,0.27499999999999997
月見,狼,0.05,0.275,0.05,0.05,0.725,0.05,0.725,0.5,0.275,0.05,0.05,0.275,0.05,0.275,0.5,0.05,0.725,0.5,0.05,0.05,0.5,0.95,0.5,0.05,0.05,0.725,0.05,0.725,0.5,0.3215517241379311
寝不足,丸い,0.05,0.05,0.05,0.05,0.275,0.05,0.05,0.05,0.275,0.05,0.05,0.05,0.275,0.275,0.275,0.05,0.275,0.275,0.05,0.05,0.05,0.5,0.725,0.05,0.05,0.05,0.05,0.275,0.05,0.15086206896551724
寝不足,満月,0.05,0.275,0.05,0.05,0.275,0.05,0.05,0.275,0.275,0.05,0.05,0.05,0.275,0.275,0.275,0.05,0.5,0.5,0.05,0.05,0.05,0.275,0.275,0.05,0.05,0.05,0.05,0.725,0.275,0.1818965517241379
丸い,口,0.05,0.05,0.05,0.05,0.275,0.275,0.05,0.5,0.275,0.05,0.05,0.05,0.725,0.5,0.725,0.05,0.275,0.05,0.05,0.05,0.5,0.275,0.275,0.5,0.05,0.5,0.05,0.725,0.275,0.2517241379310345
疲れ,団子,0.05,0.725,0.05,0.05,0.275,0.05,0.05,0.05,0.275,0.05,0.05,0.05,0.275,0.05,0.275,0.05,0.5,0.275,0.05,0.05,0.5,0.275,0.05,0.05,0.05,0.05,0.275,0.275,0.05,0.16637931034482759
眠気,つまらない,0.725,0.725,0.05,0.725,0.725,0.05,0.725,0.725,0.5,0.275,0.275,0.725,0.725,0.725,0.5,0.725,0.5,0.275,0.05,0.725,0.725,0.5,0.725,0.95,0.05,0.725,0.5,0.275,0.5,0.5310344827586206
寝不足,睡眠,0.95,0.95,0.95,0.725,0.95,0.95,0.725,0.95,0.725,0.95,0.95,0.95,0.95,0.95,0.95,0.725,0.95,0.725,0.95,0.95,0.95,0.95,0.725,0.95,0.95,0.95,0.725,0.95,0.725,0.8879310344827587
つまらない,睡眠,0.95,0.725,0.725,0.725,0.5,0.95,0.05,0.275,0.5,0.275,0.275,0.05,0.95,0.5,0.725,0.05,0.5,0.5,0.05,0.725,0.725,0.275,0.725,0.275,0.05,0.5,0.5,0.725,0.5,0.49224137931034484
十五夜,夜,0.95,0.95,0.95,0.725,0.95,0.95,0.95,0.95,0.725,0.95,0.725,0.05,0.95,0.725,0.95,0.725,0.725,0.725,0.95,0.95,0.725,0.725,0.725,0.95,0.95,0.95,0.95,0.95,0.725,0.8336206896551723
明るい,夜,0.05,0.05,0.05,0.05,0.275,0.05,0.05,0.275,0.275,0.275,0.05,0.05,0.725,0.5,0.5,0.05,0.5,0.5,0.05,0.5,0.05,0.725,0.725,0.275,0.05,0.5,0.05,0.05,0.725,0.27499999999999997
月見,眠い,0.5,0.05,0.05,0.05,0.275,0.05,0.05,0.275,0.05,0.05,0.05,0.275,0.275,0.5,0.275,0.05,0.5,0.5,0.05,0.5,0.05,0.275,0.275,0.05,0.05,0.5,0.05,0.725,0.725,0.2439655172413793
あくび,つまらない,0.725,0.95,0.725,0.725,0.725,0.95,0.725,0.725,0.725,0.725,0.725,0.725,0.95,0.725,0.725,0.95,0.725,0.275,0.05,0.95,0.725,0.725,0.725,0.95,0.725,0.95,0.5,0.95,0.725,0.7405172413793104
明るい,うさぎ,0.275,0.725,0.05,0.05,0.275,0.05,0.05,0.05,0.275,0.05,0.05,0.05,0.5,0.275,0.275,0.05,0.5,0.275,0.05,0.05,0.05,0.5,0.275,0.05,0.05,0.05,0.05,0.5,0.275,0.19741379310344828
寝不足,明るい,0.275,0.05,0.05,0.275,0.275,0.05,0.5,0.05,0.275,0.05,0.5,0.5,0.725,0.725,0.5,0.05,0.275,0.275,0.05,0.05,0.275,0.275,0.275,0.275,0.05,0.275,0.05,0.275,0.725,0.275
うさぎ,眠い,0.05,0.05,0.05,0.05,0.275,0.05,0.05,0.05,0.275,0.05,0.05,0.275,0.275,0.275,0.275,0.05,0.275,0.275,0.05,0.05,0.275,0.275,0.725,0.05,0.05,0.05,0.05,0.275,0.275,0.16637931034482759
丸い,団子,0.725,0.95,0.95,0.5,0.95,0.95,0.725,0.725,0.725,0.275,0.725,0.725,0.95,0.725,0.95,0.725,0.95,0.725,0.725,0.95,0.725,0.725,0.95,0.95,0.95,0.725,0.275,0.725,0.725,0.7715517241379312
あくび,疲れ,0.725,0.95,0.95,0.5,0.725,0.95,0.725,0.5,0.5,0.725,0.725,0.95,0.95,0.95,0.95,0.95,0.725,0.725,0.275,0.5,0.725,0.725,0.725,0.725,0.05,0.725,0.5,0.95,0.725,0.7172413793103449
眠気,涙,0.5,0.05,0.5,0.275,0.725,0.05,0.5,0.275,0.5,0.275,0.275,0.275,0.95,0.725,0.275,0.725,0.5,0.725,0.05,0.05,0.95,0.725,0.5,0.275,0.05,0.05,0.5,0.725,0.725,0.43793103448275866
丸い,睡眠,0.05,0.05,0.05,0.05,0.275,0.05,0.275,0.05,0.275,0.05,0.05,0.05,0.05,0.05,0.275,0.05,0.275,0.275,0.05,0.05,0.05,0.725,0.275,0.05,0.05,0.05,0.05,0.275,0.275,0.14310344827586205
満月,狼,0.05,0.95,0.725,0.05,0.725,0.725,0.95,0.95,0.725,0.275,0.05,0.5,0.275,0.5,0.725,0.95,0.95,0.5,0.275,0.95,0.725,0.95,0.725,0.95,0.275,0.95,0.275,0.725,0.725,0.6241379310344828
団子,十五夜,0.275,0.95,0.95,0.95,0.95,0.95,0.725,0.5,0.725,0.725,0.725,0.05,0.95,0.725,0.95,0.725,0.95,0.95,0.95,0.95,0.725,0.95,0.725,0.95,0.05,0.725,0.5,0.95,0.725,0.7560344827586208
明るい,眠気,0.275,0.05,0.05,0.275,0.275,0.05,0.05,0.05,0.275,0.05,0.275,0.05,0.05,0.5,0.05,0.05,0.275,0.275,0.05,0.05,0.05,0.275,0.275,0.725,0.05,0.05,0.05,0.275,0.725,0.1896551724137931
あくび,うさぎ,0.05,0.05,0.05,0.05,0.275,0.05,0.05,0.05,0.275,0.05,0.05,0.05,0.05,0.275,0.05,0.05,0.275,0.275,0.05,0.05,0.05,0.275,0.275,0.05,0.05,0.05,0.05,0.05,0.05,0.1043103448275862
満月,明るい,0.95,0.05,0.95,0.725,0.725,0.725,0.725,0.725,0.725,0.275,0.725,0.05,0.95,0.725,0.725,0.95,0.725,0.725,0.95,0.725,0.725,0.725,0.95,0.725,0.725,0.725,0.725,0.725,0.725,0.7094827586206899
睡眠,あくび,0.95,0.725,0.95,0.5,0.95,0.95,0.95,0.725,0.725,0.725,0.95,0.95,0.95,0.725,0.95,0.725,0.725,0.95,0.95,0.725,0.95,0.95,0.725,0.725,0.05,0.5,0.5,0.95,0.95,0.7948275862068964
つまらない,団子,0.05,0.05,0.05,0.05,0.275,0.05,0.05,0.05,0.05,0.05,0.05,0.05,0.05,0.275,0.05,0.05,0.275,0.275,0.05,0.05,0.05,0.05,0.275,0.05,0.05,0.05,0.05,0.05,0.05,0.08879310344827583
夜,明るい,0.05,0.05,0.05,0.05,0.275,0.05,0.5,0.275,0.275,0.05,0.05,0.05,0.5,0.725,0.5,0.05,0.5,0.5,0.05,0.275,0.275,0.725,0.275,0.725,0.05,0.05,0.05,0.725,0.5,0.2827586206896551
寝不足,月見,0.725,0.05,0.05,0.05,0.275,0.05,0.05,0.275,0.275,0.05,0.05,0.05,0.275,0.5,0.05,0.05,0.5,0.275,0.05,0.05,0.05,0.05,0.275,0.05,0.05,0.275,0.05,0.725,0.05,0.1818965517241379
涙,月見,0.05,0.05,0.05,0.05,0.275,0.05,0.05,0.275,0.05,0.05,0.05,0.05,0.275,0.275,0.275,0.05,0.5,0.275,0.05,0.05,0.05,0.275,0.05,0.05,0.05,0.05,0.05,0.275,0.275,0.13534482758620686
眠気,うさぎ,0.05,0.05,0.05,0.05,0.275,0.05,0.275,0.05,0.275,0.05,0.05,0.05,0.275,0.275,0.275,0.05,0.275,0.275,0.05,0.05,0.05,0.05,0.275,0.05,0.05,0.05,0.05,0.275,0.5,0.14310344827586208
明るい,十五夜,0.275,0.05,0.725,0.5,0.5,0.05,0.5,0.5,0.725,0.05,0.725,0.05,0.5,0.725,0.5,0.5,0.725,0.5,0.725,0.05,0.725,0.725,0.95,0.725,0.05,0.275,0.05,0.725,0.725,0.4767241379310345
寝不足,口,0.05,0.05,0.05,0.05,0.275,0.05,0.275,0.05,0.05,0.05,0.05,0.05,0.5,0.725,0.275,0.275,0.275,0.275,0.275,0.05,0.5,0.275,0.05,0.05,0.05,0.05,0.05,0.725,0.5,0.20517241379310341
あくび,満月,0.275,0.725,0.05,0.05,0.275,0.05,0.05,0.275,0.275,0.05,0.05,0.05,0.05,0.275,0.275,0.05,0.5,0.275,0.275,0.05,0.05,0.275,0.275,0.05,0.05,0.05,0.05,0.275,0.5,0.1896551724137931
寝不足,あくび,0.95,0.95,0.95,0.725,0.95,0.95,0.95,0.95,0.725,0.95,0.95,0.725,0.95,0.725,0.725,0.95,0.95,0.95,0.95,0.95,0.95,0.95,0.725,0.95,0.5,0.95,0.725,0.95,0.725,0.8724137931034484
明るい,あくび,0.275,0.05,0.05,0.275,0.275,0.05,0.05,0.05,0.275,0.05,0.05,0.05,0.05,0.275,0.5,0.05,0.275,0.275,0.05,0.05,0.05,0.275,0.5,0.275,0.05,0.05,0.05,0.275,0.725,0.1818965517241379
睡眠,眠気,0.95,0.95,0.95,0.95,0.95,0.95,0.725,0.725,0.725,0.725,0.95,0.95,0.95,0.95,0.725,0.95,0.95,0.95,0.95,0.95,0.95,0.95,0.725,0.95,0.5,0.95,0.5,0.95,0.725,0.8646551724137931
睡眠,十五夜,0.275,0.275,0.05,0.05,0.275,0.05,0.275,0.05,0.275,0.05,0.05,0.05,0.275,0.5,0.275,0.05,0.5,0.5,0.275,0.05,0.05,0.725,0.5,0.05,0.05,0.05,0.05,0.725,0.5,0.23620689655172408
疲れ,明るい,0.05,0.05,0.05,0.05,0.275,0.05,0.05,0.05,0.275,0.275,0.05,0.05,0.05,0.275,0.275,0.05,0.275,0.275,0.05,0.05,0.05,0.05,0.275,0.275,0.05,0.5,0.05,0.275,0.725,0.16637931034482759
うさぎ,眠気,0.05,0.05,0.05,0.05,0.275,0.05,0.05,0.05,0.275,0.05,0.05,0.05,0.05,0.275,0.275,0.05,0.275,0.275,0.05,0.05,0.05,0.275,0.275,0.275,0.05,0.05,0.05,0.275,0.5,0.14310344827586208
睡眠,眠い,0.95,0.95,0.95,0.95,0.95,0.725,0.95,0.95,0.725,0.95,0.95,0.95,0.95,0.725,0.95,0.95,0.725,0.95,0.95,0.95,0.95,0.95,0.95,0.95,0.275,0.95,0.725,0.95,0.725,0.8801724137931034
明るい,睡眠,0.275,0.05,0.05,0.05,0.275,0.05,0.275,0.05,0.275,0.05,0.05,0.05,0.275,0.5,0.275,0.05,0.275,0.5,0.05,0.05,0.05,0.5,0.275,0.275,0.05,0.5,0.05,0.275,0.5,0.2051724137931035
夜,丸い,0.05,0.05,0.05,0.05,0.275,0.05,0.725,0.05,0.275,0.05,0.05,0.05,0.725,0.275,0.725,0.275,0.725,0.275,0.05,0.05,0.275,0.05,0.275,0.275,0.05,0.05,0.05,0.275,0.275,0.22068965517241382
口,つまらない,0.05,0.05,0.05,0.05,0.275,0.05,0.275,0.05,0.275,0.05,0.05,0.275,0.275,0.5,0.5,0.05,0.5,0.275,0.05,0.725,0.05,0.275,0.275,0.05,0.05,0.725,0.05,0.725,0.725,0.25172413793103443
涙,眠い,0.5,0.95,0.725,0.275,0.725,0.05,0.5,0.5,0.275,0.05,0.05,0.05,0.725,0.725,0.725,0.05,0.5,0.5,0.275,0.05,0.725,0.725,0.5,0.275,0.05,0.275,0.275,0.725,0.725,0.4301724137931035
月見,満月,0.95,0.95,0.95,0.95,0.95,0.95,0.95,0.95,0.725,0.95,0.95,0.725,0.95,0.725,0.725,0.95,0.95,0.95,0.95,0.95,0.95,0.95,0.95,0.95,0.95,0.95,0.95,0.95,0.725,0.911206896551724
うさぎ,月見,0.05,0.95,0.95,0.725,0.95,0.95,0.95,0.725,0.725,0.05,0.95,0.05,0.95,0.725,0.95,0.5,0.725,0.95,0.5,0.725,0.725,0.95,0.725,0.725,0.725,0.5,0.5,0.95,0.95,0.7172413793103447
十五夜,狼,0.05,0.05,0.05,0.05,0.725,0.05,0.725,0.5,0.275,0.05,0.05,0.275,0.05,0.275,0.5,0.725,0.5,0.5,0.05,0.05,0.05,0.725,0.275,0.05,0.05,0.95,0.275,0.725,0.5,0.3137931034482758
涙,睡眠,0.275,0.725,0.5,0.05,0.275,0.05,0.5,0.05,0.275,0.05,0.275,0.5,0.725,0.725,0.5,0.275,0.5,0.5,0.5,0.05,0.5,0.275,0.275,0.275,0.05,0.275,0.05,0.725,0.725,0.36034482758620695
うさぎ,睡眠,0.275,0.05,0.05,0.05,0.275,0.05,0.275,0.05,0.275,0.05,0.05,0.05,0.725,0.275,0.275,0.05,0.275,0.275,0.05,0.05,0.05,0.05,0.275,0.05,0.05,0.05,0.05,0.275,0.5,0.16637931034482759
疲れ,十五夜,0.05,0.05,0.05,0.05,0.275,0.05,0.05,0.05,0.05,0.05,0.05,0.05,0.05,0.275,0.275,0.05,0.5,0.275,0.05,0.05,0.05,0.05,0.05,0.05,0.05,0.05,0.05,0.275,0.275,0.11206896551724135
夜,眠気,0.95,0.95,0.95,0.725,0.725,0.95,0.95,0.725,0.725,0.725,0.95,0.725,0.95,0.725,0.95,0.725,0.95,0.95,0.95,0.95,0.725,0.95,0.95,0.95,0.275,0.95,0.5,0.95,0.725,0.8336206896551723
眠気,睡眠,0.95,0.95,0.95,0.725,0.95,0.95,0.95,0.725,0.725,0.95,0.95,0.725,0.95,0.95,0.95,0.95,0.725,0.95,0.725,0.95,0.95,0.95,0.95,0.95,0.5,0.95,0.725,0.95,0.725,0.8724137931034484
眠気,夜,0.5,0.725,0.95,0.725,0.95,0.95,0.95,0.725,0.5,0.725,0.95,0.95,0.95,0.725,0.725,0.725,0.725,0.95,0.95,0.95,0.95,0.725,0.725,0.95,0.275,0.725,0.5,0.725,0.725,0.7793103448275862
十五夜,満月,0.95,0.95,0.95,0.95,0.95,0.95,0.95,0.95,0.725,0.95,0.95,0.05,0.95,0.95,0.725,0.95,0.95,0.95,0.95,0.725,0.95,0.95,0.95,0.95,0.95,0.95,0.95,0.95,0.725,0.8879310344827585
丸い,十五夜,0.275,0.05,0.05,0.5,0.95,0.725,0.725,0.275,0.725,0.95,0.725,0.05,0.95,0.725,0.95,0.725,0.725,0.725,0.725,0.5,0.5,0.725,0.725,0.725,0.275,0.725,0.275,0.725,0.725,0.6008620689655173
夜,月見,0.725,0.95,0.95,0.725,0.95,0.725,0.725,0.95,0.5,0.275,0.725,0.5,0.95,0.725,0.725,0.95,0.725,0.95,0.725,0.95,0.725,0.725,0.95,0.725,0.275,0.725,0.275,0.95,0.725,0.7405172413793103
寝不足,涙,0.5,0.725,0.5,0.275,0.725,0.05,0.5,0.05,0.275,0.05,0.05,0.275,0.725,0.725,0.725,0.05,0.725,0.5,0.275,0.05,0.5,0.5,0.725,0.725,0.05,0.5,0.275,0.725,0.725,0.43017241379310345
十五夜,団子,0.725,0.95,0.95,0.95,0.95,0.95,0.95,0.95,0.725,0.725,0.95,0.5,0.95,0.725,0.95,0.95,0.95,0.725,0.725,0.95,0.95,0.95,0.95,0.95,0.275,0.725,0.95,0.95,0.725,0.8491379310344828
涙,うさぎ,0.275,0.05,0.05,0.05,0.275,0.05,0.05,0.05,0.05,0.05,0.05,0.05,0.275,0.275,0.275,0.05,0.275,0.275,0.05,0.05,0.05,0.05,0.05,0.05,0.05,0.05,0.05,0.275,0.275,0.11982758620689654
眠気,満月,0.05,0.5,0.05,0.05,0.275,0.05,0.275,0.275,0.05,0.05,0.05,0.275,0.275,0.5,0.275,0.275,0.725,0.275,0.05,0.5,0.05,0.725,0.5,0.05,0.05,0.5,0.05,0.725,0.725,0.2827586206896551
明るい,丸い,0.05,0.05,0.05,0.05,0.275,0.05,0.05,0.5,0.5,0.05,0.05,0.05,0.5,0.5,0.5,0.05,0.275,0.5,0.05,0.05,0.275,0.725,0.275,0.725,0.05,0.05,0.5,0.725,0.725,0.2827586206896551
口,涙,0.05,0.05,0.05,0.05,0.275,0.05,0.05,0.05,0.05,0.05,0.05,0.05,0.275,0.725,0.275,0.05,0.275,0.275,0.275,0.05,0.05,0.05,0.05,0.275,0.05,0.05,0.05,0.275,0.275,0.14310344827586205
つまらない,明るい,0.275,0.05,0.275,0.05,0.275,0.05,0.5,0.05,0.275,0.05,0.05,0.05,0.05,0.275,0.275,0.05,0.275,0.275,0.05,0.05,0.05,0.5,0.275,0.05,0.05,0.05,0.05,0.275,0.5,0.17413793103448275
睡眠,月見,0.275,0.275,0.05,0.05,0.275,0.05,0.05,0.275,0.275,0.05,0.05,0.05,0.275,0.5,0.05,0.05,0.725,0.5,0.05,0.05,0.05,0.5,0.725,0.05,0.05,0.275,0.05,0.725,0.5,0.23620689655172414
夜,涙,0.5,0.05,0.05,0.05,0.275,0.05,0.5,0.05,0.275,0.05,0.05,0.05,0.05,0.5,0.275,0.05,0.725,0.5,0.05,0.05,0.5,0.275,0.275,0.05,0.05,0.5,0.05,0.725,0.275,0.23620689655172414
明るい,疲れ,0.05,0.275,0.05,0.05,0.275,0.05,0.05,0.05,0.275,0.05,0.05,0.05,0.05,0.275,0.5,0.05,0.275,0.5,0.275,0.05,0.05,0.275,0.275,0.275,0.05,0.05,0.05,0.275,0.275,0.16637931034482759
丸い,明るい,0.275,0.5,0.275,0.05,0.275,0.05,0.95,0.5,0.725,0.05,0.05,0.05,0.725,0.725,0.5,0.05,0.5,0.275,0.5,0.05,0.725,0.725,0.275,0.725,0.05,0.05,0.5,0.95,0.5,0.3991379310344828
満月,夜,0.95,0.95,0.95,0.95,0.95,0.95,0.725,0.95,0.725,0.95,0.95,0.725,0.95,0.95,0.95,0.95,0.725,0.95,0.95,0.95,0.95,0.95,0.95,0.95,0.95,0.95,0.95,0.95,0.725,0.911206896551724
満月,眠気,0.275,0.5,0.275,0.05,0.275,0.05,0.05,0.275,0.275,0.05,0.05,0.05,0.275,0.5,0.275,0.5,0.5,0.725,0.05,0.275,0.05,0.5,0.725,0.05,0.05,0.5,0.05,0.725,0.725,0.2982758620689655
満月,十五夜,0.95,0.95,0.95,0.95,0.95,0.95,0.95,0.95,0.725,0.95,0.95,0.05,0.95,0.725,0.95,0.95,0.95,0.725,0.95,0.95,0.95,0.95,0.95,0.95,0.725,0.95,0.5,0.95,0.5,0.856896551724138
十五夜,月見,0.95,0.95,0.95,0.95,0.95,0.95,0.95,0.95,0.725,0.95,0.95,0.725,0.95,0.95,0.95,0.95,0.95,0.95,0.95,0.95,0.95,0.95,0.95,0.95,0.5,0.95,0.95,0.95,0.725,0.911206896551724
丸い,眠い,0.05,0.05,0.05,0.05,0.275,0.05,0.05,0.275,0.05,0.05,0.05,0.05,0.05,0.05,0.275,0.05,0.275,0.275,0.05,0.05,0.275,0.5,0.725,0.05,0.05,0.05,0.05,0.275,0.5,0.1586206896551724
眠気,狼,0.05,0.05,0.05,0.05,0.275,0.05,0.05,0.275,0.05,0.05,0.05,0.05,0.05,0.05,0.05,0.05,0.275,0.275,0.05,0.05,0.05,0.725,0.275,0.275,0.05,0.05,0.05,0.275,0.275,0.13534482758620686
明るい,涙,0.05,0.05,0.05,0.05,0.275,0.05,0.275,0.05,0.275,0.05,0.05,0.05,0.05,0.275,0.275,0.05,0.275,0.275,0.05,0.05,0.05,0.5,0.275,0.05,0.05,0.05,0.05,0.725,0.275,0.1586206896551724
狼,団子,0.05,0.05,0.05,0.05,0.275,0.05,0.05,0.275,0.275,0.05,0.05,0.05,0.05,0.05,0.275,0.05,0.275,0.275,0.05,0.05,0.05,0.275,0.05,0.05,0.05,0.05,0.05,0.275,0.05,0.11206896551724137
涙,口,0.05,0.05,0.05,0.05,0.275,0.05,0.5,0.05,0.275,0.05,0.05,0.275,0.275,0.5,0.275,0.05,0.275,0.275,0.05,0.05,0.275,0.275,0.275,0.275,0.05,0.05,0.05,0.275,0.5,0.1896551724137931
眠気,月見,0.275,0.5,0.05,0.05,0.275,0.05,0.275,0.05,0.05,0.05,0.05,0.275,0.05,0.275,0.275,0.05,0.725,0.5,0.275,0.05,0.05,0.725,0.275,0.275,0.05,0.5,0.05,0.725,0.275,0.2439655172413793
うさぎ,団子,0.275,0.05,0.95,0.725,0.725,0.725,0.725,0.275,0.5,0.05,0.725,0.05,0.725,0.5,0.725,0.5,0.725,0.725,0.5,0.95,0.275,0.725,0.725,0.725,0.05,0.05,0.275,0.95,0.725,0.5387931034482759
夜,団子,0.05,0.275,0.5,0.05,0.275,0.05,0.275,0.275,0.275,0.05,0.05,0.05,0.725,0.275,0.275,0.275,0.5,0.5,0.725,0.05,0.5,0.275,0.5,0.275,0.05,0.05,0.05,0.275,0.5,0.27499999999999997
涙,寝不足,0.275,0.5,0.05,0.275,0.275,0.05,0.275,0.5,0.275,0.05,0.275,0.275,0.95,0.95,0.275,0.5,0.5,0.5,0.275,0.05,0.725,0.725,0.5,0.275,0.05,0.5,0.275,0.725,0.725,0.3991379310344828
満月,疲れ,0.275,0.05,0.05,0.05,0.275,0.05,0.05,0.05,0.275,0.05,0.05,0.05,0.05,0.275,0.275,0.05,0.275,0.275,0.05,0.05,0.05,0.5,0.275,0.275,0.05,0.05,0.05,0.275,0.275,0.15086206896551724
月見,明るい,0.725,0.05,0.725,0.05,0.725,0.95,0.725,0.5,0.725,0.275,0.725,0.05,0.725,0.95,0.95,0.725,0.725,0.725,0.725,0.725,0.725,0.725,0.725,0.725,0.275,0.5,0.5,0.725,0.725,0.6241379310344828
十五夜,丸い,0.725,0.725,0.95,0.725,0.95,0.725,0.725,0.05,0.5,0.725,0.725,0.05,0.95,0.725,0.95,0.5,0.725,0.725,0.725,0.725,0.95,0.95,0.95,0.725,0.275,0.725,0.95,0.725,0.725,0.7094827586206898
満月,涙,0.05,0.05,0.05,0.05,0.275,0.05,0.275,0.05,0.275,0.05,0.05,0.05,0.275,0.5,0.275,0.05,0.5,0.275,0.05,0.05,0.275,0.275,0.275,0.05,0.05,0.05,0.05,0.275,0.275,0.16637931034482759
眠気,団子,0.05,0.05,0.05,0.05,0.275,0.05,0.05,0.05,0.275,0.05,0.275,0.05,0.05,0.275,0.05,0.05,0.5,0.275,0.05,0.05,0.05,0.05,0.275,0.05,0.05,0.05,0.05,0.05,0.275,0.11982758620689653
狼,眠気,0.05,0.05,0.05,0.05,0.275,0.05,0.05,0.05,0.275,0.05,0.05,0.05,0.275,0.275,0.275,0.05,0.275,0.275,0.05,0.05,0.05,0.5,0.275,0.05,0.05,0.05,0.05,0.05,0.275,0.13534482758620686
眠い,団子,0.05,0.05,0.05,0.05,0.275,0.05,0.05,0.05,0.275,0.05,0.05,0.05,0.275,0.05,0.05,0.05,0.275,0.275,0.05,0.05,0.275,0.275,0.05,0.05,0.05,0.05,0.05,0.05,0.05,0.1043103448275862
夜,口,0.05,0.05,0.05,0.05,0.275,0.05,0.05,0.05,0.275,0.05,0.05,0.05,0.275,0.275,0.05,0.05,0.275,0.05,0.05,0.05,0.05,0.275,0.5,0.05,0.05,0.05,0.05,0.05,0.275,0.11982758620689654
明るい,狼,0.05,0.05,0.05,0.05,0.275,0.05,0.05,0.275,0.05,0.05,0.05,0.05,0.05,0.05,0.275,0.05,0.275,0.05,0.05,0.05,0.05,0.275,0.275,0.275,0.05,0.05,0.05,0.275,0.5,0.1275862068965517
丸い,月見,0.275,0.95,0.95,0.725,0.725,0.725,0.725,0.5,0.725,0.05,0.5,0.275,0.95,0.725,0.725,0.725,0.95,0.725,0.95,0.725,0.5,0.725,0.725,0.95,0.275,0.725,0.275,0.725,0.5,0.6551724137931034
夜,十五夜,0.275,0.725,0.725,0.5,0.725,0.725,0.725,0.725,0.5,0.5,0.725,0.275,0.725,0.725,0.725,0.725,0.725,0.725,0.725,0.95,0.275,0.725,0.725,0.725,0.725,0.725,0.05,0.95,0.725,0.6474137931034484
疲れ,寝不足,0.95,0.95,0.95,0.725,0.725,0.95,0.725,0.725,0.725,0.5,0.95,0.725,0.95,0.725,0.95,0.725,0.95,0.95,0.725,0.725,0.95,0.95,0.95,0.95,0.95,0.95,0.5,0.95,0.725,0.8336206896551724
寝不足,うさぎ,0.05,0.05,0.05,0.05,0.275,0.275,0.05,0.05,0.275,0.05,0.05,0.05,0.05,0.275,0.275,0.05,0.275,0.275,0.05,0.05,0.05,0.05,0.05,0.05,0.05,0.05,0.05,0.275,0.275,0.11982758620689654
涙,あくび,0.725,0.95,0.725,0.275,0.725,0.725,0.275,0.5,0.5,0.275,0.275,0.5,0.95,0.725,0.5,0.275,0.95,0.725,0.95,0.275,0.5,0.725,0.725,0.725,0.275,0.5,0.275,0.725,0.725,0.585344827586207
涙,丸い,0.05,0.05,0.05,0.05,0.275,0.05,0.05,0.05,0.05,0.05,0.05,0.05,0.5,0.05,0.275,0.05,0.05,0.5,0.05,0.05,0.275,0.5,0.725,0.725,0.05,0.275,0.05,0.275,0.725,0.20517241379310344
眠い,月見,0.05,0.275,0.05,0.05,0.275,0.05,0.275,0.275,0.275,0.05,0.05,0.05,0.05,0.275,0.275,0.05,0.725,0.5,0.05,0.725,0.05,0.5,0.275,0.05,0.05,0.05,0.05,0.725,0.5,0.22844827586206892
眠い,丸い,0.05,0.05,0.05,0.05,0.275,0.05,0.05,0.05,0.275,0.05,0.05,0.05,0.275,0.275,0.275,0.05,0.275,0.275,0.05,0.05,0.05,0.275,0.725,0.275,0.05,0.05,0.05,0.275,0.5,0.16637931034482759
眠い,夜,0.725,0.95,0.95,0.725,0.95,0.95,0.725,0.725,0.725,0.725,0.95,0.725,0.95,0.725,0.95,0.95,0.725,0.725,0.95,0.95,0.725,0.95,0.725,0.95,0.5,0.95,0.5,0.95,0.725,0.8181034482758621
つまらない,涙,0.05,0.275,0.5,0.275,0.275,0.05,0.5,0.05,0.05,0.05,0.05,0.275,0.725,0.725,0.725,0.05,0.5,0.275,0.275,0.275,0.5,0.5,0.275,0.275,0.05,0.725,0.275,0.725,0.725,0.3448275862068966
明るい,眠い,0.275,0.05,0.05,0.05,0.275,0.05,0.05,0.05,0.05,0.275,0.05,0.05,0.05,0.275,0.275,0.05,0.275,0.5,0.275,0.05,0.05,0.275,0.275,0.725,0.05,0.5,0.05,0.725,0.725,0.22068965517241376
睡眠,つまらない,0.95,0.725,0.5,0.05,0.5,0.95,0.5,0.275,0.5,0.05,0.05,0.275,0.725,0.5,0.5,0.05,0.5,0.275,0.05,0.05,0.275,0.05,0.275,0.275,0.275,0.5,0.05,0.725,0.5,0.37586206896551727
狼,口,0.05,0.05,0.05,0.05,0.275,0.275,0.05,0.275,0.725,0.275,0.05,0.05,0.725,0.5,0.05,0.05,0.275,0.275,0.725,0.275,0.275,0.725,0.725,0.95,0.05,0.05,0.5,0.725,0.725,0.3370689655172413
あくび,丸い,0.05,0.05,0.725,0.05,0.275,0.725,0.05,0.275,0.05,0.05,0.05,0.05,0.5,0.275,0.05,0.05,0.05,0.275,0.05,0.05,0.5,0.275,0.275,0.275,0.05,0.05,0.05,0.275,0.5,0.20517241379310344
団子,月見,0.725,0.95,0.95,0.725,0.95,0.95,0.05,0.725,0.725,0.725,0.95,0.05,0.95,0.725,0.725,0.725,0.95,0.95,0.725,0.95,0.725,0.95,0.725,0.95,0.725,0.5,0.275,0.95,0.5,0.7405172413793103
寝不足,団子,0.05,0.05,0.05,0.05,0.275,0.05,0.05,0.05,0.05,0.05,0.05,0.05,0.05,0.05,0.05,0.05,0.275,0.275,0.05,0.05,0.05,0.05,0.05,0.05,0.05,0.05,0.05,0.05,0.275,0.08103448275862067
月見,丸い,0.5,0.95,0.725,0.725,0.95,0.05,0.725,0.725,0.725,0.725,0.725,0.725,0.95,0.725,0.95,0.95,0.95,0.95,0.725,0.725,0.5,0.725,0.725,0.725,0.5,0.5,0.725,0.725,0.725,0.7250000000000001
月見,夜,0.725,0.725,0.95,0.95,0.95,0.725,0.95,0.725,0.725,0.95,0.95,0.05,0.95,0.725,0.95,0.725,0.725,0.95,0.725,0.95,0.95,0.95,0.95,0.95,0.95,0.95,0.95,0.95,0.725,0.8413793103448275
丸い,うさぎ,0.05,0.275,0.5,0.05,0.275,0.05,0.275,0.275,0.275,0.05,0.05,0.05,0.5,0.275,0.5,0.05,0.5,0.5,0.5,0.5,0.275,0.5,0.725,0.275,0.05,0.275,0.05,0.275,0.275,0.2827586206896552
つまらない,口,0.05,0.05,0.05,0.05,0.275,0.05,0.05,0.05,0.275,0.275,0.05,0.275,0.275,0.5,0.5,0.05,0.5,0.275,0.5,0.05,0.275,0.05,0.05,0.275,0.05,0.05,0.05,0.5,0.725,0.2129310344827586
眠い,口,0.05,0.05,0.05,0.05,0.275,0.05,0.05,0.05,0.275,0.05,0.05,0.275,0.725,0.725,0.5,0.05,0.275,0.275,0.05,0.05,0.5,0.275,0.275,0.05,0.05,0.05,0.05,0.725,0.5,0.22068965517241376
疲れ,睡眠,0.95,0.95,0.95,0.5,0.95,0.05,0.725,0.725,0.725,0.725,0.725,0.725,0.95,0.725,0.95,0.725,0.725,0.95,0.725,0.95,0.95,0.95,0.725,0.725,0.95,0.725,0.725,0.95,0.725,0.7870689655172415
団子,明るい,0.05,0.5,0.05,0.05,0.275,0.05,0.275,0.05,0.275,0.05,0.05,0.05,0.5,0.05,0.275,0.05,0.275,0.5,0.275,0.05,0.05,0.275,0.275,0.05,0.05,0.05,0.05,0.275,0.275,0.17413793103448277
あくび,十五夜,0.05,0.05,0.05,0.05,0.275,0.05,0.05,0.05,0.275,0.05,0.05,0.05,0.275,0.275,0.275,0.05,0.5,0.275,0.05,0.05,0.05,0.275,0.05,0.05,0.05,0.275,0.05,0.275,0.275,0.14310344827586205
睡眠,丸い,0.05,0.05,0.05,0.05,0.275,0.05,0.05,0.05,0.05,0.05,0.05,0.05,0.275,0.275,0.275,0.05,0.275,0.275,0.05,0.05,0.05,0.725,0.725,0.05,0.05,0.05,0.05,0.05,0.5,0.1586206896551724
眠い,寝不足,0.95,0.95,0.95,0.725,0.95,0.95,0.95,0.95,0.725,0.95,0.725,0.95,0.95,0.95,0.95,0.725,0.95,0.95,0.95,0.95,0.95,0.95,0.95,0.95,0.95,0.95,0.5,0.95,0.725,0.8956896551724137
十五夜,疲れ,0.275,0.05,0.05,0.05,0.275,0.05,0.05,0.05,0.05,0.05,0.05,0.05,0.05,0.275,0.05,0.05,0.275,0.275,0.05,0.05,0.05,0.275,0.05,0.05,0.05,0.05,0.05,0.275,0.275,0.11206896551724137
夜,つまらない,0.275,0.725,0.05,0.05,0.275,0.275,0.05,0.275,0.5,0.05,0.05,0.05,0.5,0.5,0.5,0.05,0.5,0.05,0.05,0.05,0.275,0.5,0.275,0.05,0.05,0.5,0.05,0.725,0.275,0.25948275862068965
月見,十五夜,0.95,0.95,0.95,0.95,0.95,0.725,0.95,0.95,0.725,0.95,0.95,0.05,0.95,0.95,0.95,0.95,0.95,0.95,0.95,0.95,0.95,0.95,0.95,0.95,0.95,0.95,0.725,0.95,0.725,0.8879310344827585
狼,つまらない,0.275,0.05,0.05,0.05,0.275,0.05,0.05,0.05,0.05,0.05,0.05,0.05,0.275,0.275,0.275,0.05,0.275,0.05,0.05,0.05,0.05,0.275,0.275,0.05,0.05,0.05,0.05,0.05,0.05,0.11206896551724137
うさぎ,明るい,0.05,0.275,0.275,0.05,0.275,0.05,0.05,0.5,0.275,0.05,0.05,0.05,0.5,0.275,0.275,0.05,0.5,0.275,0.05,0.05,0.05,0.5,0.725,0.275,0.05,0.05,0.05,0.725,0.5,0.23620689655172408
夜,眠い,0.95,0.95,0.95,0.725,0.95,0.95,0.725,0.725,0.5,0.725,0.95,0.95,0.95,0.725,0.95,0.95,0.725,0.95,0.725,0.95,0.95,0.95,0.95,0.95,0.275,0.95,0.725,0.95,0.725,0.8413793103448275
眠気,丸い,0.05,0.05,0.05,0.05,0.275,0.05,0.275,0.05,0.275,0.05,0.05,0.05,0.05,0.275,0.275,0.05,0.275,0.275,0.05,0.05,0.05,0.5,0.5,0.05,0.05,0.05,0.05,0.05,0.5,0.15086206896551724
夜,満月,0.725,0.95,0.95,0.5,0.725,0.725,0.95,0.95,0.5,0.5,0.725,0.5,0.95,0.725,0.725,0.725,0.95,0.725,0.725,0.95,0.725,0.725,0.725,0.725,0.5,0.725,0.275,0.95,0.725,0.7327586206896551
眠い,眠気,0.95,0.95,0.95,0.95,0.95,0.95,0.95,0.95,0.725,0.95,0.95,0.725,0.95,0.95,0.95,0.95,0.95,0.95,0.95,0.95,0.95,0.95,0.725,0.95,0.725,0.95,0.725,0.95,0.95,0.9112068965517242
丸い,満月,0.275,0.95,0.95,0.725,0.95,0.725,0.95,0.725,0.95,0.275,0.95,0.725,0.95,0.725,0.95,0.725,0.725,0.725,0.95,0.95,0.725,0.725,0.95,0.725,0.725,0.95,0.5,0.95,0.725,0.7870689655172415
あくび,眠い,0.95,0.95,0.95,0.725,0.95,0.95,0.725,0.95,0.725,0.95,0.95,0.725,0.95,0.95,0.95,0.95,0.725,0.95,0.95,0.95,0.95,0.95,0.95,0.95,0.725,0.95,0.95,0.95,0.725,0.8956896551724137
疲れ,涙,0.275,0.725,0.05,0.05,0.275,0.05,0.275,0.275,0.05,0.05,0.05,0.5,0.725,0.725,0.5,0.05,0.725,0.5,0.275,0.05,0.275,0.5,0.275,0.275,0.05,0.5,0.275,0.275,0.5,0.31379310344827593
月見,睡眠,0.275,0.275,0.275,0.05,0.275,0.05,0.275,0.05,0.275,0.05,0.05,0.275,0.275,0.5,0.275,0.275,0.725,0.5,0.05,0.275,0.05,0.725,0.275,0.05,0.05,0.275,0.05,0.725,0.275,0.25948275862068965
寝不足,夜,0.95,0.95,0.725,0.725,0.95,0.725,0.725,0.725,0.5,0.275,0.95,0.725,0.725,0.725,0.725,0.725,0.95,0.725,0.725,0.725,0.725,0.95,0.725,0.725,0.95,0.95,0.5,0.95,0.725,0.7637931034482757
月見,あくび,0.05,0.275,0.05,0.05,0.275,0.05,0.05,0.05,0.05,0.05,0.05,0.05,0.275,0.275,0.275,0.05,0.5,0.275,0.05,0.05,0.275,0.275,0.275,0.05,0.05,0.05,0.05,0.05,0.725,0.1586206896551724
疲れ,口,0.05,0.05,0.05,0.05,0.275,0.05,0.05,0.05,0.05,0.05,0.05,0.05,0.275,0.5,0.275,0.05,0.5,0.275,0.05,0.05,0.275,0.05,0.275,0.05,0.05,0.275,0.05,0.725,0.5,0.17413793103448275
狼,寝不足,0.05,0.05,0.05,0.05,0.275,0.05,0.05,0.05,0.275,0.05,0.05,0.05,0.05,0.275,0.05,0.05,0.275,0.275,0.05,0.05,0.05,0.5,0.05,0.05,0.05,0.05,0.05,0.05,0.05,0.1043103448275862
夜,あくび,0.95,0.95,0.725,0.5,0.725,0.95,0.725,0.5,0.5,0.05,0.725,0.725,0.95,0.725,0.95,0.725,0.725,0.95,0.725,0.95,0.725,0.95,0.725,0.725,0.5,0.725,0.5,0.725,0.725,0.7250000000000002
月見,口,0.05,0.05,0.05,0.05,0.275,0.05,0.05,0.05,0.275,0.05,0.05,0.05,0.5,0.275,0.275,0.05,0.275,0.275,0.275,0.05,0.05,0.5,0.05,0.275,0.05,0.05,0.05,0.05,0.725,0.16637931034482756
つまらない,疲れ,0.725,0.725,0.725,0.5,0.5,0.275,0.5,0.725,0.5,0.275,0.05,0.275,0.95,0.725,0.725,0.275,0.725,0.5,0.05,0.05,0.5,0.5,0.275,0.725,0.05,0.5,0.275,0.725,0.725,0.48448275862068974
夜,狼,0.05,0.725,0.725,0.05,0.725,0.725,0.725,0.5,0.275,0.275,0.725,0.05,0.275,0.5,0.725,0.275,0.725,0.5,0.275,0.725,0.725,0.725,0.95,0.275,0.05,0.725,0.275,0.95,0.725,0.5155172413793103
睡眠,狼,0.05,0.05,0.05,0.05,0.275,0.05,0.05,0.05,0.05,0.05,0.05,0.05,0.275,0.05,0.275,0.05,0.275,0.275,0.05,0.05,0.05,0.5,0.05,0.05,0.05,0.275,0.275,0.275,0.275,0.1353448275862069
眠い,満月,0.05,0.725,0.05,0.05,0.275,0.05,0.05,0.05,0.275,0.05,0.05,0.05,0.275,0.5,0.275,0.275,0.5,0.275,0.05,0.725,0.275,0.5,0.275,0.05,0.05,0.5,0.05,0.725,0.275,0.2517241379310345
うさぎ,涙,0.5,0.05,0.05,0.05,0.275,0.05,0.275,0.05,0.275,0.05,0.05,0.05,0.275,0.275,0.05,0.05,0.5,0.275,0.05,0.05,0.275,0.275,0.275,0.275,0.05,0.05,0.05,0.725,0.275,0.1896551724137931
月見,涙,0.275,0.05,0.275,0.05,0.275,0.05,0.05,0.05,0.275,0.05,0.05,0.05,0.05,0.5,0.275,0.05,0.5,0.275,0.05,0.05,0.275,0.05,0.05,0.05,0.05,0.05,0.05,0.275,0.5,0.1586206896551724
あくび,口,0.725,0.95,0.05,0.5,0.725,0.725,0.725,0.725,0.5,0.725,0.95,0.5,0.725,0.95,0.725,0.95,0.725,0.95,0.275,0.95,0.725,0.725,0.5,0.95,0.725,0.05,0.95,0.95,0.725,0.7017241379310345
月見,つまらない,0.275,0.05,0.05,0.05,0.275,0.05,0.05,0.05,0.275,0.05,0.05,0.05,0.5,0.275,0.275,0.05,0.5,0.275,0.05,0.95,0.275,0.275,0.05,0.725,0.05,0.5,0.05,0.275,0.5,0.23620689655172414
疲れ,眠気,0.95,0.95,0.95,0.5,0.725,0.95,0.725,0.725,0.725,0.725,0.725,0.725,0.95,0.95,0.95,0.725,0.725,0.95,0.725,0.95,0.95,0.95,0.725,0.95,0.5,0.725,0.725,0.95,0.725,0.8103448275862071
明るい,月見,0.275,0.05,0.725,0.725,0.725,0.5,0.5,0.5,0.725,0.05,0.5,0.05,0.725,0.5,0.5,0.05,0.725,0.725,0.725,0.5,0.5,0.725,0.5,0.725,0.05,0.05,0.05,0.725,0.05,0.45344827586206904
眠気,寝不足,0.95,0.95,0.95,0.95,0.95,0.725,0.95,0.95,0.725,0.95,0.95,0.275,0.95,0.95,0.95,0.725,0.95,0.95,0.95,0.95,0.95,0.95,0.725,0.95,0.95,0.95,0.5,0.95,0.725,0.8724137931034484
うさぎ,狼,0.05,0.05,0.05,0.05,0.275,0.05,0.275,0.5,0.5,0.05,0.275,0.05,0.275,0.5,0.5,0.275,0.275,0.5,0.5,0.05,0.275,0.725,0.725,0.725,0.05,0.725,0.05,0.725,0.725,0.3370689655172414
口,団子,0.95,0.95,0.725,0.275,0.725,0.725,0.725,0.5,0.5,0.05,0.05,0.05,0.95,0.725,0.275,0.05,0.725,0.725,0.725,0.95,0.275,0.725,0.725,0.05,0.05,0.275,0.05,0.275,0.725,0.5000000000000001
夜,睡眠,0.95,0.95,0.95,0.725,0.725,0.95,0.95,0.725,0.725,0.725,0.95,0.95,0.95,0.725,0.95,0.95,0.725,0.95,0.95,0.95,0.95,0.95,0.95,0.95,0.725,0.95,0.725,0.95,0.725,0.8724137931034485
つまらない,眠い,0.725,0.725,0.725,0.5,0.725,0.95,0.5,0.725,0.5,0.275,0.725,0.725,0.725,0.95,0.725,0.725,0.725,0.275,0.05,0.95,0.95,0.725,0.725,0.95,0.275,0.725,0.5,0.725,0.725,0.6629310344827587
団子,眠い,0.05,0.05,0.05,0.05,0.275,0.05,0.05,0.05,0.05,0.05,0.05,0.05,0.275,0.275,0.275,0.05,0.5,0.275,0.05,0.05,0.05,0.05,0.275,0.05,0.05,0.05,0.05,0.05,0.275,0.11982758620689653
眠い,睡眠,0.95,0.95,0.95,0.95,0.95,0.95,0.95,0.95,0.725,0.95,0.95,0.95,0.95,0.95,0.95,0.95,0.95,0.95,0.95,0.95,0.95,0.95,0.95,0.95,0.95,0.95,0.725,0.95,0.725,0.9267241379310344
眠い,明るい,0.275,0.05,0.05,0.05,0.275,0.05,0.05,0.05,0.275,0.05,0.05,0.05,0.725,0.725,0.275,0.05,0.275,0.05,0.05,0.05,0.05,0.05,0.275,0.725,0.05,0.5,0.05,0.725,0.725,0.22844827586206892
十五夜,つまらない,0.05,0.05,0.05,0.05,0.275,0.05,0.275,0.05,0.275,0.05,0.05,0.05,0.275,0.275,0.275,0.05,0.275,0.275,0.05,0.725,0.275,0.275,0.05,0.275,0.05,0.05,0.05,0.275,0.5,0.18189655172413793
うさぎ,つまらない,0.275,0.05,0.05,0.05,0.275,0.05,0.05,0.05,0.275,0.05,0.05,0.275,0.5,0.05,0.275,0.05,0.275,0.275,0.05,0.275,0.05,0.275,0.275,0.05,0.05,0.05,0.05,0.275,0.05,0.15086206896551724
疲れ,うさぎ,0.05,0.05,0.05,0.05,0.275,0.05,0.05,0.05,0.05,0.05,0.05,0.05,0.95,0.05,0.275,0.05,0.275,0.275,0.05,0.05,0.05,0.05,0.275,0.05,0.05,0.05,0.05,0.05,0.05,0.11982758620689654
満月,睡眠,0.275,0.725,0.275,0.05,0.725,0.275,0.05,0.275,0.275,0.05,0.275,0.275,0.725,0.5,0.275,0.275,0.275,0.5,0.05,0.275,0.05,0.725,0.275,0.05,0.05,0.725,0.05,0.5,0.5,0.3215517241379311
団子,うさぎ,0.275,0.275,0.725,0.5,0.275,0.725,0.5,0.05,0.5,0.05,0.725,0.05,0.95,0.725,0.725,0.275,0.725,0.725,0.275,0.725,0.5,0.725,0.725,0.5,0.05,0.05,0.5,0.725,0.725,0.4922413793103449
狼,あくび,0.05,0.05,0.05,0.05,0.275,0.05,0.05,0.275,0.275,0.05,0.05,0.275,0.275,0.05,0.275,0.05,0.275,0.05,0.05,0.05,0.05,0.275,0.275,0.05,0.05,0.05,0.275,0.05,0.725,0.15086206896551724
丸い,つまらない,0.05,0.05,0.05,0.05,0.275,0.05,0.05,0.05,0.275,0.05,0.05,0.05,0.05,0.275,0.275,0.05,0.5,0.05,0.05,0.05,0.05,0.275,0.275,0.05,0.05,0.05,0.05,0.05,0.05,0.11206896551724135
眠気,疲れ,0.95,0.725,0.95,0.725,0.725,0.95,0.725,0.725,0.725,0.725,0.725,0.725,0.95,0.95,0.95,0.95,0.725,0.725,0.725,0.725,0.95,0.725,0.725,0.95,0.5,0.725,0.725,0.725,0.725,0.7870689655172415
疲れ,満月,0.05,0.5,0.05,0.05,0.275,0.05,0.275,0.05,0.275,0.05,0.05,0.05,0.275,0.5,0.275,0.05,0.5,0.275,0.05,0.05,0.05,0.05,0.275,0.05,0.05,0.05,0.05,0.275,0.05,0.1586206896551724
夜,疲れ,0.95,0.95,0.725,0.5,0.725,0.725,0.725,0.5,0.5,0.725,0.725,0.5,0.725,0.5,0.725,0.725,0.725,0.725,0.5,0.95,0.725,0.95,0.725,0.725,0.05,0.725,0.275,0.725,0.95,0.678448275862069
あくび,涙,0.725,0.05,0.05,0.275,0.95,0.725,0.725,0.725,0.5,0.725,0.95,0.05,0.95,0.725,0.5,0.95,0.95,0.725,0.95,0.95,0.725,0.725,0.725,0.95,0.05,0.5,0.725,0.725,0.725,0.6551724137931035
うさぎ,十五夜,0.725,0.95,0.95,0.725,0.95,0.95,0.95,0.725,0.725,0.05,0.95,0.5,0.95,0.725,0.95,0.5,0.725,0.725,0.5,0.5,0.725,0.95,0.725,0.725,0.5,0.5,0.275,0.95,0.725,0.7172413793103448
十五夜,睡眠,0.05,0.05,0.5,0.05,0.5,0.05,0.275,0.275,0.05,0.05,0.05,0.05,0.725,0.275,0.275,0.05,0.5,0.5,0.275,0.05,0.05,0.5,0.275,0.05,0.05,0.05,0.05,0.725,0.725,0.24396551724137924
団子,あくび,0.275,0.05,0.05,0.05,0.275,0.05,0.275,0.275,0.275,0.05,0.05,0.05,0.05,0.275,0.05,0.05,0.275,0.275,0.05,0.05,0.05,0.05,0.275,0.05,0.05,0.05,0.05,0.05,0.275,0.1275862068965517
つまらない,丸い,0.05,0.05,0.05,0.05,0.275,0.05,0.05,0.275,0.05,0.05,0.05,0.275,0.05,0.275,0.275,0.05,0.5,0.05,0.05,0.05,0.275,0.275,0.275,0.275,0.05,0.05,0.05,0.05,0.05,0.13534482758620686
睡眠,うさぎ,0.05,0.05,0.05,0.05,0.275,0.05,0.05,0.05,0.275,0.05,0.05,0.05,0.275,0.275,0.05,0.05,0.275,0.05,0.725,0.05,0.05,0.275,0.275,0.05,0.05,0.05,0.05,0.275,0.5,0.15086206896551724
疲れ,丸い,0.05,0.05,0.05,0.05,0.275,0.05,0.05,0.05,0.275,0.05,0.05,0.05,0.05,0.05,0.275,0.05,0.275,0.275,0.05,0.05,0.05,0.05,0.05,0.05,0.05,0.05,0.05,0.05,0.275,0.09655172413793102
あくび,明るい,0.275,0.05,0.05,0.05,0.275,0.05,0.05,0.05,0.275,0.05,0.05,0.5,0.05,0.05,0.05,0.05,0.275,0.5,0.275,0.05,0.05,0.275,0.275,0.05,0.05,0.05,0.05,0.275,0.725,0.16637931034482756
狼,涙,0.05,0.05,0.05,0.05,0.275,0.05,0.05,0.275,0.05,0.05,0.05,0.05,0.05,0.05,0.275,0.05,0.275,0.275,0.05,0.05,0.05,0.725,0.275,0.05,0.05,0.05,0.05,0.725,0.05,0.14310344827586202
寝不足,つまらない,0.5,0.725,0.05,0.05,0.725,0.05,0.275,0.275,0.5,0.05,0.05,0.5,0.5,0.725,0.5,0.275,0.5,0.275,0.05,0.05,0.5,0.725,0.275,0.05,0.05,0.5,0.05,0.275,0.05,0.313793103448276
十五夜,口,0.05,0.05,0.05,0.05,0.275,0.05,0.05,0.05,0.05,0.05,0.05,0.05,0.725,0.5,0.275,0.05,0.275,0.275,0.05,0.05,0.05,0.05,0.05,0.05,0.05,0.05,0.05,0.05,0.275,0.1275862068965517
あくび,睡眠,0.95,0.95,0.95,0.725,0.95,0.95,0.95,0.725,0.725,0.725,0.95,0.95,0.95,0.725,0.95,0.95,0.725,0.95,0.95,0.95,0.95,0.95,0.725,0.95,0.5,0.95,0.725,0.95,0.725,0.8646551724137932
うさぎ,夜,0.275,0.05,0.5,0.05,0.275,0.05,0.725,0.275,0.275,0.05,0.275,0.05,0.5,0.5,0.5,0.05,0.5,0.725,0.5,0.5,0.275,0.5,0.725,0.05,0.05,0.5,0.275,0.725,0.725,0.36034482758620695
狼,満月,0.05,0.95,0.725,0.275,0.95,0.5,0.95,0.725,0.725,0.725,0.275,0.05,0.05,0.5,0.725,0.725,0.725,0.725,0.05,0.95,0.725,0.95,0.725,0.95,0.05,0.95,0.275,0.95,0.725,0.6086206896551725
寝不足,眠気,0.95,0.95,0.95,0.95,0.95,0.95,0.725,0.95,0.725,0.95,0.95,0.95,0.95,0.95,0.95,0.95,0.725,0.95,0.95,0.95,0.95,0.95,0.725,0.95,0.725,0.95,0.725,0.95,0.725,0.8956896551724138
十五夜,うさぎ,0.95,0.95,0.95,0.95,0.95,0.95,0.95,0.725,0.725,0.275,0.95,0.05,0.95,0.725,0.95,0.95,0.95,0.725,0.725,0.95,0.95,0.95,0.95,0.725,0.725,0.725,0.725,0.95,0.725,0.8181034482758622
十五夜,あくび,0.05,0.05,0.05,0.05,0.275,0.05,0.275,0.275,0.275,0.05,0.05,0.05,0.275,0.275,0.275,0.05,0.5,0.5,0.05,0.05,0.05,0.5,0.275,0.05,0.05,0.05,0.05,0.725,0.5,0.19741379310344823
うさぎ,疲れ,0.05,0.05,0.05,0.05,0.275,0.05,0.275,0.275,0.275,0.05,0.05,0.05,0.275,0.275,0.05,0.05,0.275,0.275,0.05,0.05,0.275,0.05,0.275,0.05,0.05,0.05,0.05,0.05,0.05,0.1275862068965517
寝不足,疲れ,0.95,0.95,0.95,0.725,0.95,0.95,0.725,0.725,0.95,0.725,0.725,0.5,0.95,0.725,0.95,0.725,0.725,0.95,0.725,0.95,0.95,0.95,0.725,0.95,0.95,0.95,0.725,0.95,0.725,0.8413793103448275
眠い,涙,0.725,0.95,0.5,0.275,0.725,0.05,0.725,0.275,0.5,0.05,0.725,0.05,0.725,0.725,0.725,0.05,0.5,0.725,0.5,0.05,0.5,0.725,0.5,0.725,0.05,0.5,0.5,0.725,0.725,0.5
月見,疲れ,0.05,0.05,0.05,0.05,0.275,0.05,0.05,0.05,0.275,0.05,0.05,0.05,0.05,0.275,0.05,0.05,0.5,0.275,0.05,0.05,0.275,0.05,0.05,0.05,0.05,0.05,0.05,0.05,0.275,0.11206896551724137
団子,眠気,0.05,0.05,0.05,0.05,0.275,0.05,0.05,0.05,0.275,0.05,0.05,0.05,0.05,0.05,0.275,0.275,0.275,0.05,0.05,0.05,0.05,0.05,0.275,0.05,0.05,0.05,0.05,0.05,0.05,0.09655172413793102
寝不足,眠い,0.95,0.95,0.95,0.95,0.95,0.95,0.95,0.95,0.725,0.95,0.95,0.95,0.95,0.95,0.95,0.725,0.95,0.95,0.95,0.95,0.95,0.95,0.95,0.95,0.95,0.95,0.725,0.95,0.95,0.9267241379310344
寝不足,十五夜,0.275,0.05,0.05,0.05,0.5,0.05,0.275,0.275,0.275,0.05,0.05,0.05,0.05,0.275,0.05,0.05,0.5,0.5,0.275,0.05,0.05,0.5,0.275,0.05,0.05,0.05,0.05,0.5,0.275,0.1896551724137931
口,丸い,0.05,0.05,0.05,0.05,0.275,0.5,0.05,0.725,0.275,0.05,0.275,0.275,0.725,0.275,0.725,0.05,0.275,0.275,0.275,0.05,0.5,0.5,0.5,0.275,0.05,0.5,0.05,0.725,0.05,0.29051724137931034
口,うさぎ,0.05,0.05,0.05,0.05,0.275,0.05,0.05,0.05,0.275,0.05,0.05,0.05,0.275,0.275,0.05,0.05,0.275,0.275,0.05,0.05,0.05,0.05,0.5,0.05,0.05,0.05,0.05,0.05,0.275,0.11982758620689653
口,夜,0.05,0.05,0.05,0.05,0.275,0.05,0.05,0.05,0.05,0.05,0.05,0.05,0.05,0.275,0.275,0.05,0.275,0.275,0.05,0.05,0.05,0.05,0.275,0.05,0.05,0.05,0.05,0.275,0.05,0.10431034482758618
明るい,口,0.95,0.05,0.05,0.05,0.275,0.05,0.05,0.05,0.275,0.05,0.05,0.05,0.725,0.275,0.275,0.05,0.05,0.275,0.05,0.275,0.05,0.05,0.275,0.275,0.05,0.05,0.05,0.275,0.275,0.18189655172413796
つまらない,夜,0.275,0.05,0.05,0.05,0.275,0.05,0.5,0.275,0.5,0.05,0.05,0.275,0.5,0.5,0.275,0.05,0.5,0.275,0.275,0.05,0.275,0.05,0.275,0.275,0.05,0.725,0.05,0.725,0.5,0.2672413793103448
明るい,団子,0.275,0.05,0.05,0.05,0.275,0.05,0.05,0.05,0.5,0.05,0.05,0.05,0.275,0.275,0.275,0.05,0.275,0.275,0.275,0.05,0.05,0.275,0.275,0.275,0.05,0.05,0.05,0.275,0.275,0.16637931034482759
涙,夜,0.05,0.275,0.05,0.05,0.275,0.05,0.275,0.725,0.05,0.05,0.05,0.05,0.725,0.5,0.275,0.275,0.725,0.275,0.05,0.05,0.275,0.05,0.5,0.05,0.05,0.5,0.05,0.725,0.5,0.25948275862068965
つまらない,うさぎ,0.05,0.05,0.05,0.05,0.275,0.05,0.05,0.05,0.275,0.05,0.05,0.05,0.275,0.05,0.275,0.05,0.275,0.275,0.05,0.05,0.05,0.05,0.275,0.05,0.05,0.05,0.05,0.275,0.275,0.11982758620689654
