あくび,あくび
あくび,眠い
あくび,退屈
あくび,眠気
あくび,寝不足
あくび,疲れ
あくび,うつる
あくび,涙
あくび,酸欠
満月,満月
満月,うさぎ
満月,丸い
満月,綺麗
満月,夜
満月,十五夜
満月,月見
満月,狼
満月,明るい
記憶,記憶
記憶,思い出
記憶,過去
記憶,脳
記憶,勉強
記憶,失う
記憶,忘れる
記憶,昔
記憶,暗記
倉庫,倉庫
倉庫,暗い
倉庫,荷物
倉庫,保管
倉庫,物置
倉庫,収納
倉庫,広い
倉庫,大きい
倉庫,整理整頓
笑顔,笑顔
笑顔,楽しい
笑顔,幸せ
笑顔,嬉しい
笑顔,明るい
笑顔,可愛い
笑顔,子供
笑顔,にこにこ
笑顔,喜び
花,花
花,綺麗
花,美しい
花,癒し
花,贈り物
花,桜
花,可愛い
花,ひまわり
花,春
