B_dom,B_cod,A_dom,A_cod,count,probability
倉庫,物置,記憶,昔,99,0.099
倉庫,荷物,記憶,失う,240,0.24
倉庫,保管,記憶,思い出,594,0.594
倉庫,暗い,記憶,過去,519,0.519
倉庫,整理整頓,記憶,思い出,477,0.477
倉庫,収納,記憶,失う,189,0.189
倉庫,物置,記憶,思い出,508,0.508
倉庫,広い,記憶,過去,55,0.055
倉庫,荷物,記憶,忘れる,503,0.503
倉庫,整理整頓,記憶,過去,121,0.121
倉庫,収納,記憶,脳,48,0.048
倉庫,物置,記憶,忘れる,29,0.029
倉庫,広い,記憶,思い出,208,0.208
倉庫,大きい,記憶,失う,145,0.145
倉庫,保管,記憶,失う,103,0.103
倉庫,整理整頓,記憶,失う,226,0.226
倉庫,収納,記憶,思い出,401,0.401
倉庫,物置,記憶,過去,231,0.231
倉庫,保管,記憶,昔,49,0.049
倉庫,暗い,記憶,思い出,248,0.248
倉庫,収納,記憶,忘れる,126,0.126
倉庫,広い,記憶,失う,89,0.089
倉庫,大きい,記憶,過去,155,0.155
倉庫,収納,記憶,昔,82,0.082
倉庫,大きい,記憶,忘れる,45,0.045
倉庫,暗い,記憶,忘れる,36,0.036
倉庫,広い,記憶,昔,71,0.071
倉庫,荷物,記憶,思い出,131,0.131
倉庫,大きい,記憶,思い出,253,0.253
倉庫,大きい,記憶,脳,99,0.099
倉庫,大きい,記憶,昔,66,0.066
倉庫,整理整頓,記憶,暗記,10,0.01
倉庫,広い,記憶,暗記,135,0.135
倉庫,整理整頓,記憶,忘れる,67,0.067
倉庫,広い,記憶,忘れる,144,0.144
倉庫,物置,記憶,脳,4,0.004
倉庫,暗い,記憶,失う,44,0.044
倉庫,物置,記憶,勉強,14,0.014
倉庫,大きい,記憶,暗記,28,0.028
倉庫,保管,記憶,忘れる,197,0.197
倉庫,物置,記憶,失う,56,0.056
倉庫,整理整頓,記憶,脳,48,0.048
倉庫,暗い,記憶,昔,96,0.096
倉庫,荷物,記憶,昔,38,0.038
倉庫,整理整頓,記憶,勉強,30,0.03
倉庫,収納,記憶,勉強,20,0.02
倉庫,保管,記憶,過去,35,0.035
倉庫,大きい,記憶,勉強,28,0.028
倉庫,収納,記憶,過去,41,0.041
倉庫,暗い,記憶,脳,4,0.004
倉庫,暗い,記憶,暗記,8,0.008
倉庫,保管,記憶,勉強,1,0.001
倉庫,広い,記憶,脳,51,0.051
倉庫,荷物,記憶,過去,28,0.028
倉庫,広い,記憶,勉強,32,0.032
倉庫,保管,記憶,脳,7,0.007
倉庫,荷物,記憶,暗記,13,0.013
倉庫,収納,記憶,暗記,21,0.021
倉庫,暗い,記憶,勉強,14,0.014
倉庫,荷物,記憶,脳,5,0.005
倉庫,保管,記憶,暗記,4,0.004
倉庫,整理整頓,記憶,昔,8,0.008
倉庫,物置,記憶,暗記,7,0.007
倉庫,荷物,記憶,勉強,4,0.004
倉庫,物置,NA,NA,52,0.052
倉庫,荷物,NA,NA,38,0.038
倉庫,保管,NA,NA,10,0.01
倉庫,暗い,NA,NA,31,0.031
倉庫,整理整頓,NA,NA,13,0.013
倉庫,収納,NA,NA,72,0.072
倉庫,広い,NA,NA,215,0.215
倉庫,大きい,NA,NA,181,0.181
